ISO-10303-21;
HEADER;
/* Generated by software containing ST-Developer
 * from STEP Tools, Inc. (www.steptools.com) 
 */

FILE_DESCRIPTION(
/* description */ (''),
/* implementation_level */ '2;1');

FILE_NAME(
/* name */ 
'D:/DiscoD/Erbessd Instruments Proyects/Proyectos 2020/SERIE EI/ei-30-
v2020/EI-30/MODELO/Workspaces/Espacio de trabajo/Planos cliente EI30/s
cs20-LUU/SC20 SCS20LUU Linear Rail Bearing v2.step',
/* time_stamp */ '2020-11-26T08:58:16-06:00',
/* author */ (''),
/* organization */ (''),
/* preprocessor_version */ 'ST-DEVELOPER v18.1',
/* originating_system */ 'Autodesk Translation Framework v9.3.0.1241',
/* authorisation */ '');

FILE_SCHEMA (('AUTOMOTIVE_DESIGN { 1 0 10303 214 3 1 1 }'));
ENDSEC;

DATA;
#10=MECHANICAL_DESIGN_GEOMETRIC_PRESENTATION_REPRESENTATION('',(#13,#14),
#735);
#11=SHAPE_REPRESENTATION_RELATIONSHIP('SRR','None',#742,#12);
#12=ADVANCED_BREP_SHAPE_REPRESENTATION('',(#15,#16),#734);
#13=STYLED_ITEM('',(#752),#15);
#14=STYLED_ITEM('',(#753),#16);
#15=MANIFOLD_SOLID_BREP('Outer Case',#442);
#16=MANIFOLD_SOLID_BREP('Inner Bearing',#443);
#17=FACE_BOUND('',#73,.T.);
#18=FACE_BOUND('',#79,.T.);
#19=FACE_BOUND('',#80,.T.);
#20=FACE_BOUND('',#85,.T.);
#21=FACE_BOUND('',#86,.T.);
#22=FACE_BOUND('',#91,.T.);
#23=FACE_BOUND('',#92,.T.);
#24=FACE_BOUND('',#93,.T.);
#25=FACE_BOUND('',#94,.T.);
#26=FACE_BOUND('',#96,.T.);
#27=FACE_BOUND('',#98,.T.);
#28=FACE_BOUND('',#102,.T.);
#29=PLANE('',#469);
#30=PLANE('',#473);
#31=PLANE('',#474);
#32=PLANE('',#475);
#33=PLANE('',#476);
#34=PLANE('',#477);
#35=PLANE('',#478);
#36=PLANE('',#479);
#37=PLANE('',#480);
#38=PLANE('',#481);
#39=PLANE('',#482);
#40=PLANE('',#483);
#41=PLANE('',#484);
#42=PLANE('',#485);
#43=PLANE('',#486);
#44=PLANE('',#493);
#45=FACE_OUTER_BOUND('',#68,.T.);
#46=FACE_OUTER_BOUND('',#69,.T.);
#47=FACE_OUTER_BOUND('',#70,.T.);
#48=FACE_OUTER_BOUND('',#71,.T.);
#49=FACE_OUTER_BOUND('',#72,.T.);
#50=FACE_OUTER_BOUND('',#74,.T.);
#51=FACE_OUTER_BOUND('',#75,.T.);
#52=FACE_OUTER_BOUND('',#76,.T.);
#53=FACE_OUTER_BOUND('',#77,.T.);
#54=FACE_OUTER_BOUND('',#78,.T.);
#55=FACE_OUTER_BOUND('',#81,.T.);
#56=FACE_OUTER_BOUND('',#82,.T.);
#57=FACE_OUTER_BOUND('',#83,.T.);
#58=FACE_OUTER_BOUND('',#84,.T.);
#59=FACE_OUTER_BOUND('',#87,.T.);
#60=FACE_OUTER_BOUND('',#88,.T.);
#61=FACE_OUTER_BOUND('',#89,.T.);
#62=FACE_OUTER_BOUND('',#90,.T.);
#63=FACE_OUTER_BOUND('',#95,.T.);
#64=FACE_OUTER_BOUND('',#97,.T.);
#65=FACE_OUTER_BOUND('',#99,.T.);
#66=FACE_OUTER_BOUND('',#100,.T.);
#67=FACE_OUTER_BOUND('',#101,.T.);
#68=EDGE_LOOP('',(#298,#299,#300,#301));
#69=EDGE_LOOP('',(#302,#303,#304,#305));
#70=EDGE_LOOP('',(#306,#307,#308,#309));
#71=EDGE_LOOP('',(#310,#311,#312,#313));
#72=EDGE_LOOP('',(#314,#315,#316,#317,#318,#319,#320,#321,#322,#323,#324,
#325));
#73=EDGE_LOOP('',(#326));
#74=EDGE_LOOP('',(#327,#328,#329,#330));
#75=EDGE_LOOP('',(#331,#332,#333,#334));
#76=EDGE_LOOP('',(#335,#336,#337,#338));
#77=EDGE_LOOP('',(#339,#340,#341,#342));
#78=EDGE_LOOP('',(#343,#344,#345,#346));
#79=EDGE_LOOP('',(#347));
#80=EDGE_LOOP('',(#348));
#81=EDGE_LOOP('',(#349,#350,#351,#352));
#82=EDGE_LOOP('',(#353,#354,#355,#356));
#83=EDGE_LOOP('',(#357,#358,#359,#360));
#84=EDGE_LOOP('',(#361,#362,#363,#364));
#85=EDGE_LOOP('',(#365));
#86=EDGE_LOOP('',(#366));
#87=EDGE_LOOP('',(#367,#368,#369,#370));
#88=EDGE_LOOP('',(#371,#372,#373,#374));
#89=EDGE_LOOP('',(#375,#376,#377,#378));
#90=EDGE_LOOP('',(#379,#380,#381,#382));
#91=EDGE_LOOP('',(#383));
#92=EDGE_LOOP('',(#384));
#93=EDGE_LOOP('',(#385));
#94=EDGE_LOOP('',(#386));
#95=EDGE_LOOP('',(#387,#388,#389,#390,#391,#392,#393,#394,#395,#396,#397,
#398));
#96=EDGE_LOOP('',(#399));
#97=EDGE_LOOP('',(#400));
#98=EDGE_LOOP('',(#401));
#99=EDGE_LOOP('',(#402,#403,#404,#405));
#100=EDGE_LOOP('',(#406,#407,#408,#409));
#101=EDGE_LOOP('',(#410));
#102=EDGE_LOOP('',(#411));
#103=LINE('',#618,#146);
#104=LINE('',#624,#147);
#105=LINE('',#630,#148);
#106=LINE('',#636,#149);
#107=LINE('',#641,#150);
#108=LINE('',#643,#151);
#109=LINE('',#645,#152);
#110=LINE('',#647,#153);
#111=LINE('',#649,#154);
#112=LINE('',#651,#155);
#113=LINE('',#653,#156);
#114=LINE('',#655,#157);
#115=LINE('',#657,#158);
#116=LINE('',#659,#159);
#117=LINE('',#661,#160);
#118=LINE('',#662,#161);
#119=LINE('',#668,#162);
#120=LINE('',#671,#163);
#121=LINE('',#673,#164);
#122=LINE('',#674,#165);
#123=LINE('',#677,#166);
#124=LINE('',#678,#167);
#125=LINE('',#681,#168);
#126=LINE('',#682,#169);
#127=LINE('',#685,#170);
#128=LINE('',#686,#171);
#129=LINE('',#689,#172);
#130=LINE('',#690,#173);
#131=LINE('',#693,#174);
#132=LINE('',#694,#175);
#133=LINE('',#697,#176);
#134=LINE('',#698,#177);
#135=LINE('',#701,#178);
#136=LINE('',#702,#179);
#137=LINE('',#705,#180);
#138=LINE('',#706,#181);
#139=LINE('',#709,#182);
#140=LINE('',#710,#183);
#141=LINE('',#713,#184);
#142=LINE('',#714,#185);
#143=LINE('',#716,#186);
#144=LINE('',#726,#187);
#145=LINE('',#730,#188);
#146=VECTOR('',#500,2.5175);
#147=VECTOR('',#507,2.5175);
#148=VECTOR('',#514,2.5175);
#149=VECTOR('',#521,2.5175);
#150=VECTOR('',#526,10.);
#151=VECTOR('',#527,10.);
#152=VECTOR('',#528,10.);
#153=VECTOR('',#529,10.);
#154=VECTOR('',#530,10.);
#155=VECTOR('',#531,10.);
#156=VECTOR('',#532,10.);
#157=VECTOR('',#533,10.);
#158=VECTOR('',#534,10.);
#159=VECTOR('',#535,10.);
#160=VECTOR('',#536,10.);
#161=VECTOR('',#537,10.);
#162=VECTOR('',#544,15.);
#163=VECTOR('',#547,10.);
#164=VECTOR('',#548,10.);
#165=VECTOR('',#549,10.);
#166=VECTOR('',#552,10.);
#167=VECTOR('',#553,10.);
#168=VECTOR('',#556,10.);
#169=VECTOR('',#557,10.);
#170=VECTOR('',#560,10.);
#171=VECTOR('',#561,10.);
#172=VECTOR('',#564,10.);
#173=VECTOR('',#565,10.);
#174=VECTOR('',#568,10.);
#175=VECTOR('',#569,10.);
#176=VECTOR('',#572,10.);
#177=VECTOR('',#573,10.);
#178=VECTOR('',#576,10.);
#179=VECTOR('',#577,10.);
#180=VECTOR('',#580,10.);
#181=VECTOR('',#581,10.);
#182=VECTOR('',#584,10.);
#183=VECTOR('',#585,10.);
#184=VECTOR('',#588,10.);
#185=VECTOR('',#589,10.);
#186=VECTOR('',#592,10.);
#187=VECTOR('',#605,10.);
#188=VECTOR('',#610,15.);
#189=CIRCLE('',#458,2.5175);
#190=CIRCLE('',#459,2.5175);
#191=CIRCLE('',#461,2.5175);
#192=CIRCLE('',#462,2.5175);
#193=CIRCLE('',#464,2.5175);
#194=CIRCLE('',#465,2.5175);
#195=CIRCLE('',#467,2.5175);
#196=CIRCLE('',#468,2.5175);
#197=CIRCLE('',#470,15.);
#198=CIRCLE('',#472,15.);
#199=CIRCLE('',#487,15.);
#200=CIRCLE('',#488,10.);
#201=CIRCLE('',#490,10.);
#202=CIRCLE('',#492,15.);
#203=VERTEX_POINT('',#615);
#204=VERTEX_POINT('',#617);
#205=VERTEX_POINT('',#621);
#206=VERTEX_POINT('',#623);
#207=VERTEX_POINT('',#627);
#208=VERTEX_POINT('',#629);
#209=VERTEX_POINT('',#633);
#210=VERTEX_POINT('',#635);
#211=VERTEX_POINT('',#639);
#212=VERTEX_POINT('',#640);
#213=VERTEX_POINT('',#642);
#214=VERTEX_POINT('',#644);
#215=VERTEX_POINT('',#646);
#216=VERTEX_POINT('',#648);
#217=VERTEX_POINT('',#650);
#218=VERTEX_POINT('',#652);
#219=VERTEX_POINT('',#654);
#220=VERTEX_POINT('',#656);
#221=VERTEX_POINT('',#658);
#222=VERTEX_POINT('',#660);
#223=VERTEX_POINT('',#663);
#224=VERTEX_POINT('',#666);
#225=VERTEX_POINT('',#670);
#226=VERTEX_POINT('',#672);
#227=VERTEX_POINT('',#676);
#228=VERTEX_POINT('',#680);
#229=VERTEX_POINT('',#684);
#230=VERTEX_POINT('',#688);
#231=VERTEX_POINT('',#692);
#232=VERTEX_POINT('',#696);
#233=VERTEX_POINT('',#700);
#234=VERTEX_POINT('',#704);
#235=VERTEX_POINT('',#708);
#236=VERTEX_POINT('',#712);
#237=VERTEX_POINT('',#719);
#238=VERTEX_POINT('',#721);
#239=VERTEX_POINT('',#724);
#240=VERTEX_POINT('',#728);
#241=EDGE_CURVE('',#203,#203,#189,.T.);
#242=EDGE_CURVE('',#203,#204,#103,.T.);
#243=EDGE_CURVE('',#204,#204,#190,.T.);
#244=EDGE_CURVE('',#205,#205,#191,.T.);
#245=EDGE_CURVE('',#205,#206,#104,.T.);
#246=EDGE_CURVE('',#206,#206,#192,.T.);
#247=EDGE_CURVE('',#207,#207,#193,.T.);
#248=EDGE_CURVE('',#207,#208,#105,.T.);
#249=EDGE_CURVE('',#208,#208,#194,.T.);
#250=EDGE_CURVE('',#209,#209,#195,.T.);
#251=EDGE_CURVE('',#209,#210,#106,.T.);
#252=EDGE_CURVE('',#210,#210,#196,.T.);
#253=EDGE_CURVE('',#211,#212,#107,.T.);
#254=EDGE_CURVE('',#212,#213,#108,.T.);
#255=EDGE_CURVE('',#213,#214,#109,.T.);
#256=EDGE_CURVE('',#214,#215,#110,.T.);
#257=EDGE_CURVE('',#215,#216,#111,.T.);
#258=EDGE_CURVE('',#216,#217,#112,.T.);
#259=EDGE_CURVE('',#217,#218,#113,.T.);
#260=EDGE_CURVE('',#218,#219,#114,.T.);
#261=EDGE_CURVE('',#219,#220,#115,.T.);
#262=EDGE_CURVE('',#220,#221,#116,.T.);
#263=EDGE_CURVE('',#221,#222,#117,.T.);
#264=EDGE_CURVE('',#222,#211,#118,.T.);
#265=EDGE_CURVE('',#223,#223,#197,.T.);
#266=EDGE_CURVE('',#224,#224,#198,.T.);
#267=EDGE_CURVE('',#224,#223,#119,.T.);
#268=EDGE_CURVE('',#212,#225,#120,.T.);
#269=EDGE_CURVE('',#226,#225,#121,.T.);
#270=EDGE_CURVE('',#213,#226,#122,.T.);
#271=EDGE_CURVE('',#227,#226,#123,.T.);
#272=EDGE_CURVE('',#214,#227,#124,.T.);
#273=EDGE_CURVE('',#228,#227,#125,.T.);
#274=EDGE_CURVE('',#215,#228,#126,.T.);
#275=EDGE_CURVE('',#229,#228,#127,.T.);
#276=EDGE_CURVE('',#216,#229,#128,.T.);
#277=EDGE_CURVE('',#230,#229,#129,.T.);
#278=EDGE_CURVE('',#217,#230,#130,.T.);
#279=EDGE_CURVE('',#231,#230,#131,.T.);
#280=EDGE_CURVE('',#218,#231,#132,.T.);
#281=EDGE_CURVE('',#232,#231,#133,.T.);
#282=EDGE_CURVE('',#219,#232,#134,.T.);
#283=EDGE_CURVE('',#233,#232,#135,.T.);
#284=EDGE_CURVE('',#220,#233,#136,.T.);
#285=EDGE_CURVE('',#234,#233,#137,.T.);
#286=EDGE_CURVE('',#221,#234,#138,.T.);
#287=EDGE_CURVE('',#235,#234,#139,.T.);
#288=EDGE_CURVE('',#222,#235,#140,.T.);
#289=EDGE_CURVE('',#236,#235,#141,.T.);
#290=EDGE_CURVE('',#211,#236,#142,.T.);
#291=EDGE_CURVE('',#225,#236,#143,.T.);
#292=EDGE_CURVE('',#237,#237,#199,.T.);
#293=EDGE_CURVE('',#238,#238,#200,.T.);
#294=EDGE_CURVE('',#239,#239,#201,.T.);
#295=EDGE_CURVE('',#239,#238,#144,.T.);
#296=EDGE_CURVE('',#240,#240,#202,.T.);
#297=EDGE_CURVE('',#240,#237,#145,.T.);
#298=ORIENTED_EDGE('',*,*,#241,.F.);
#299=ORIENTED_EDGE('',*,*,#242,.T.);
#300=ORIENTED_EDGE('',*,*,#243,.F.);
#301=ORIENTED_EDGE('',*,*,#242,.F.);
#302=ORIENTED_EDGE('',*,*,#244,.F.);
#303=ORIENTED_EDGE('',*,*,#245,.T.);
#304=ORIENTED_EDGE('',*,*,#246,.F.);
#305=ORIENTED_EDGE('',*,*,#245,.F.);
#306=ORIENTED_EDGE('',*,*,#247,.F.);
#307=ORIENTED_EDGE('',*,*,#248,.T.);
#308=ORIENTED_EDGE('',*,*,#249,.F.);
#309=ORIENTED_EDGE('',*,*,#248,.F.);
#310=ORIENTED_EDGE('',*,*,#250,.F.);
#311=ORIENTED_EDGE('',*,*,#251,.T.);
#312=ORIENTED_EDGE('',*,*,#252,.F.);
#313=ORIENTED_EDGE('',*,*,#251,.F.);
#314=ORIENTED_EDGE('',*,*,#253,.T.);
#315=ORIENTED_EDGE('',*,*,#254,.T.);
#316=ORIENTED_EDGE('',*,*,#255,.T.);
#317=ORIENTED_EDGE('',*,*,#256,.T.);
#318=ORIENTED_EDGE('',*,*,#257,.T.);
#319=ORIENTED_EDGE('',*,*,#258,.T.);
#320=ORIENTED_EDGE('',*,*,#259,.T.);
#321=ORIENTED_EDGE('',*,*,#260,.T.);
#322=ORIENTED_EDGE('',*,*,#261,.T.);
#323=ORIENTED_EDGE('',*,*,#262,.T.);
#324=ORIENTED_EDGE('',*,*,#263,.T.);
#325=ORIENTED_EDGE('',*,*,#264,.T.);
#326=ORIENTED_EDGE('',*,*,#265,.T.);
#327=ORIENTED_EDGE('',*,*,#266,.F.);
#328=ORIENTED_EDGE('',*,*,#267,.T.);
#329=ORIENTED_EDGE('',*,*,#265,.F.);
#330=ORIENTED_EDGE('',*,*,#267,.F.);
#331=ORIENTED_EDGE('',*,*,#268,.T.);
#332=ORIENTED_EDGE('',*,*,#269,.F.);
#333=ORIENTED_EDGE('',*,*,#270,.F.);
#334=ORIENTED_EDGE('',*,*,#254,.F.);
#335=ORIENTED_EDGE('',*,*,#270,.T.);
#336=ORIENTED_EDGE('',*,*,#271,.F.);
#337=ORIENTED_EDGE('',*,*,#272,.F.);
#338=ORIENTED_EDGE('',*,*,#255,.F.);
#339=ORIENTED_EDGE('',*,*,#272,.T.);
#340=ORIENTED_EDGE('',*,*,#273,.F.);
#341=ORIENTED_EDGE('',*,*,#274,.F.);
#342=ORIENTED_EDGE('',*,*,#256,.F.);
#343=ORIENTED_EDGE('',*,*,#274,.T.);
#344=ORIENTED_EDGE('',*,*,#275,.F.);
#345=ORIENTED_EDGE('',*,*,#276,.F.);
#346=ORIENTED_EDGE('',*,*,#257,.F.);
#347=ORIENTED_EDGE('',*,*,#246,.T.);
#348=ORIENTED_EDGE('',*,*,#252,.T.);
#349=ORIENTED_EDGE('',*,*,#276,.T.);
#350=ORIENTED_EDGE('',*,*,#277,.F.);
#351=ORIENTED_EDGE('',*,*,#278,.F.);
#352=ORIENTED_EDGE('',*,*,#258,.F.);
#353=ORIENTED_EDGE('',*,*,#278,.T.);
#354=ORIENTED_EDGE('',*,*,#279,.F.);
#355=ORIENTED_EDGE('',*,*,#280,.F.);
#356=ORIENTED_EDGE('',*,*,#259,.F.);
#357=ORIENTED_EDGE('',*,*,#280,.T.);
#358=ORIENTED_EDGE('',*,*,#281,.F.);
#359=ORIENTED_EDGE('',*,*,#282,.F.);
#360=ORIENTED_EDGE('',*,*,#260,.F.);
#361=ORIENTED_EDGE('',*,*,#282,.T.);
#362=ORIENTED_EDGE('',*,*,#283,.F.);
#363=ORIENTED_EDGE('',*,*,#284,.F.);
#364=ORIENTED_EDGE('',*,*,#261,.F.);
#365=ORIENTED_EDGE('',*,*,#243,.T.);
#366=ORIENTED_EDGE('',*,*,#249,.T.);
#367=ORIENTED_EDGE('',*,*,#284,.T.);
#368=ORIENTED_EDGE('',*,*,#285,.F.);
#369=ORIENTED_EDGE('',*,*,#286,.F.);
#370=ORIENTED_EDGE('',*,*,#262,.F.);
#371=ORIENTED_EDGE('',*,*,#286,.T.);
#372=ORIENTED_EDGE('',*,*,#287,.F.);
#373=ORIENTED_EDGE('',*,*,#288,.F.);
#374=ORIENTED_EDGE('',*,*,#263,.F.);
#375=ORIENTED_EDGE('',*,*,#288,.T.);
#376=ORIENTED_EDGE('',*,*,#289,.F.);
#377=ORIENTED_EDGE('',*,*,#290,.F.);
#378=ORIENTED_EDGE('',*,*,#264,.F.);
#379=ORIENTED_EDGE('',*,*,#290,.T.);
#380=ORIENTED_EDGE('',*,*,#291,.F.);
#381=ORIENTED_EDGE('',*,*,#268,.F.);
#382=ORIENTED_EDGE('',*,*,#253,.F.);
#383=ORIENTED_EDGE('',*,*,#241,.T.);
#384=ORIENTED_EDGE('',*,*,#244,.T.);
#385=ORIENTED_EDGE('',*,*,#247,.T.);
#386=ORIENTED_EDGE('',*,*,#250,.T.);
#387=ORIENTED_EDGE('',*,*,#291,.T.);
#388=ORIENTED_EDGE('',*,*,#289,.T.);
#389=ORIENTED_EDGE('',*,*,#287,.T.);
#390=ORIENTED_EDGE('',*,*,#285,.T.);
#391=ORIENTED_EDGE('',*,*,#283,.T.);
#392=ORIENTED_EDGE('',*,*,#281,.T.);
#393=ORIENTED_EDGE('',*,*,#279,.T.);
#394=ORIENTED_EDGE('',*,*,#277,.T.);
#395=ORIENTED_EDGE('',*,*,#275,.T.);
#396=ORIENTED_EDGE('',*,*,#273,.T.);
#397=ORIENTED_EDGE('',*,*,#271,.T.);
#398=ORIENTED_EDGE('',*,*,#269,.T.);
#399=ORIENTED_EDGE('',*,*,#266,.T.);
#400=ORIENTED_EDGE('',*,*,#292,.T.);
#401=ORIENTED_EDGE('',*,*,#293,.T.);
#402=ORIENTED_EDGE('',*,*,#294,.F.);
#403=ORIENTED_EDGE('',*,*,#295,.T.);
#404=ORIENTED_EDGE('',*,*,#293,.F.);
#405=ORIENTED_EDGE('',*,*,#295,.F.);
#406=ORIENTED_EDGE('',*,*,#296,.F.);
#407=ORIENTED_EDGE('',*,*,#297,.T.);
#408=ORIENTED_EDGE('',*,*,#292,.F.);
#409=ORIENTED_EDGE('',*,*,#297,.F.);
#410=ORIENTED_EDGE('',*,*,#296,.T.);
#411=ORIENTED_EDGE('',*,*,#294,.T.);
#412=CYLINDRICAL_SURFACE('',#457,2.5175);
#413=CYLINDRICAL_SURFACE('',#460,2.5175);
#414=CYLINDRICAL_SURFACE('',#463,2.5175);
#415=CYLINDRICAL_SURFACE('',#466,2.5175);
#416=CYLINDRICAL_SURFACE('',#471,15.);
#417=CYLINDRICAL_SURFACE('',#489,10.);
#418=CYLINDRICAL_SURFACE('',#491,15.);
#419=ADVANCED_FACE('',(#45),#412,.F.);
#420=ADVANCED_FACE('',(#46),#413,.F.);
#421=ADVANCED_FACE('',(#47),#414,.F.);
#422=ADVANCED_FACE('',(#48),#415,.F.);
#423=ADVANCED_FACE('',(#49,#17),#29,.F.);
#424=ADVANCED_FACE('',(#50),#416,.F.);
#425=ADVANCED_FACE('',(#51),#30,.T.);
#426=ADVANCED_FACE('',(#52),#31,.T.);
#427=ADVANCED_FACE('',(#53),#32,.T.);
#428=ADVANCED_FACE('',(#54,#18,#19),#33,.T.);
#429=ADVANCED_FACE('',(#55),#34,.T.);
#430=ADVANCED_FACE('',(#56),#35,.T.);
#431=ADVANCED_FACE('',(#57),#36,.T.);
#432=ADVANCED_FACE('',(#58,#20,#21),#37,.T.);
#433=ADVANCED_FACE('',(#59),#38,.T.);
#434=ADVANCED_FACE('',(#60),#39,.T.);
#435=ADVANCED_FACE('',(#61),#40,.T.);
#436=ADVANCED_FACE('',(#62,#22,#23,#24,#25),#41,.T.);
#437=ADVANCED_FACE('',(#63,#26),#42,.T.);
#438=ADVANCED_FACE('',(#64,#27),#43,.F.);
#439=ADVANCED_FACE('',(#65),#417,.F.);
#440=ADVANCED_FACE('',(#66),#418,.T.);
#441=ADVANCED_FACE('',(#67,#28),#44,.T.);
#442=CLOSED_SHELL('',(#419,#420,#421,#422,#423,#424,#425,#426,#427,#428,
#429,#430,#431,#432,#433,#434,#435,#436,#437));
#443=CLOSED_SHELL('',(#438,#439,#440,#441));
#444=DERIVED_UNIT_ELEMENT(#446,1.);
#445=DERIVED_UNIT_ELEMENT(#737,3.);
#446=(
MASS_UNIT()
NAMED_UNIT(*)
SI_UNIT(.KILO.,.GRAM.)
);
#447=DERIVED_UNIT((#444,#445));
#448=MEASURE_REPRESENTATION_ITEM('density measure',
POSITIVE_RATIO_MEASURE(7850.),#447);
#449=PROPERTY_DEFINITION_REPRESENTATION(#454,#451);
#450=PROPERTY_DEFINITION_REPRESENTATION(#455,#452);
#451=REPRESENTATION('material name',(#453),#734);
#452=REPRESENTATION('density',(#448),#734);
#453=DESCRIPTIVE_REPRESENTATION_ITEM('Steel','Steel');
#454=PROPERTY_DEFINITION('material property','material name',#744);
#455=PROPERTY_DEFINITION('material property','density of part',#744);
#456=AXIS2_PLACEMENT_3D('placement',#613,#494,#495);
#457=AXIS2_PLACEMENT_3D('',#614,#496,#497);
#458=AXIS2_PLACEMENT_3D('',#616,#498,#499);
#459=AXIS2_PLACEMENT_3D('',#619,#501,#502);
#460=AXIS2_PLACEMENT_3D('',#620,#503,#504);
#461=AXIS2_PLACEMENT_3D('',#622,#505,#506);
#462=AXIS2_PLACEMENT_3D('',#625,#508,#509);
#463=AXIS2_PLACEMENT_3D('',#626,#510,#511);
#464=AXIS2_PLACEMENT_3D('',#628,#512,#513);
#465=AXIS2_PLACEMENT_3D('',#631,#515,#516);
#466=AXIS2_PLACEMENT_3D('',#632,#517,#518);
#467=AXIS2_PLACEMENT_3D('',#634,#519,#520);
#468=AXIS2_PLACEMENT_3D('',#637,#522,#523);
#469=AXIS2_PLACEMENT_3D('',#638,#524,#525);
#470=AXIS2_PLACEMENT_3D('',#664,#538,#539);
#471=AXIS2_PLACEMENT_3D('',#665,#540,#541);
#472=AXIS2_PLACEMENT_3D('',#667,#542,#543);
#473=AXIS2_PLACEMENT_3D('',#669,#545,#546);
#474=AXIS2_PLACEMENT_3D('',#675,#550,#551);
#475=AXIS2_PLACEMENT_3D('',#679,#554,#555);
#476=AXIS2_PLACEMENT_3D('',#683,#558,#559);
#477=AXIS2_PLACEMENT_3D('',#687,#562,#563);
#478=AXIS2_PLACEMENT_3D('',#691,#566,#567);
#479=AXIS2_PLACEMENT_3D('',#695,#570,#571);
#480=AXIS2_PLACEMENT_3D('',#699,#574,#575);
#481=AXIS2_PLACEMENT_3D('',#703,#578,#579);
#482=AXIS2_PLACEMENT_3D('',#707,#582,#583);
#483=AXIS2_PLACEMENT_3D('',#711,#586,#587);
#484=AXIS2_PLACEMENT_3D('',#715,#590,#591);
#485=AXIS2_PLACEMENT_3D('',#717,#593,#594);
#486=AXIS2_PLACEMENT_3D('',#718,#595,#596);
#487=AXIS2_PLACEMENT_3D('',#720,#597,#598);
#488=AXIS2_PLACEMENT_3D('',#722,#599,#600);
#489=AXIS2_PLACEMENT_3D('',#723,#601,#602);
#490=AXIS2_PLACEMENT_3D('',#725,#603,#604);
#491=AXIS2_PLACEMENT_3D('',#727,#606,#607);
#492=AXIS2_PLACEMENT_3D('',#729,#608,#609);
#493=AXIS2_PLACEMENT_3D('',#731,#611,#612);
#494=DIRECTION('axis',(0.,0.,1.));
#495=DIRECTION('refdir',(1.,0.,0.));
#496=DIRECTION('center_axis',(-1.81226270192669E-16,1.,0.));
#497=DIRECTION('ref_axis',(0.,0.,-1.));
#498=DIRECTION('center_axis',(-1.81226270192666E-16,1.,0.));
#499=DIRECTION('ref_axis',(0.,0.,-1.));
#500=DIRECTION('',(-1.81226270192669E-16,1.,0.));
#501=DIRECTION('center_axis',(-1.1348946473946E-14,-1.,0.));
#502=DIRECTION('ref_axis',(0.,0.,-1.));
#503=DIRECTION('center_axis',(-1.81226270192669E-16,1.,0.));
#504=DIRECTION('ref_axis',(0.,0.,-1.));
#505=DIRECTION('center_axis',(-1.81226270192666E-16,1.,0.));
#506=DIRECTION('ref_axis',(0.,0.,-1.));
#507=DIRECTION('',(-1.81226270192669E-16,1.,0.));
#508=DIRECTION('center_axis',(1.1348946473946E-14,-1.,0.));
#509=DIRECTION('ref_axis',(0.,0.,-1.));
#510=DIRECTION('center_axis',(-1.81226270192669E-16,1.,0.));
#511=DIRECTION('ref_axis',(0.,0.,-1.));
#512=DIRECTION('center_axis',(-1.81226270192666E-16,1.,0.));
#513=DIRECTION('ref_axis',(0.,0.,-1.));
#514=DIRECTION('',(-1.81226270192669E-16,1.,0.));
#515=DIRECTION('center_axis',(-1.1348946473946E-14,-1.,0.));
#516=DIRECTION('ref_axis',(0.,0.,-1.));
#517=DIRECTION('center_axis',(-1.81226270192669E-16,1.,0.));
#518=DIRECTION('ref_axis',(0.,0.,-1.));
#519=DIRECTION('center_axis',(-1.81226270192666E-16,1.,0.));
#520=DIRECTION('ref_axis',(0.,0.,-1.));
#521=DIRECTION('',(-1.81226270192669E-16,1.,0.));
#522=DIRECTION('center_axis',(1.1348946473946E-14,-1.,0.));
#523=DIRECTION('ref_axis',(0.,0.,-1.));
#524=DIRECTION('center_axis',(0.,0.,1.));
#525=DIRECTION('ref_axis',(1.,0.,0.));
#526=DIRECTION('',(-1.,-1.81226270192666E-16,0.));
#527=DIRECTION('',(8.07434927000113E-16,1.,0.));
#528=DIRECTION('',(0.505858736644665,0.862616333348879,0.));
#529=DIRECTION('',(-1.64614701376624E-15,1.,0.));
#530=DIRECTION('',(1.,1.1348946473946E-14,0.));
#531=DIRECTION('',(0.505858736644633,0.862616333348897,0.));
#532=DIRECTION('',(1.,2.70751734134713E-14,0.));
#533=DIRECTION('',(0.505858736644625,-0.862616333348902,0.));
#534=DIRECTION('',(1.,-1.1348946473946E-14,0.));
#535=DIRECTION('',(-1.64614701376624E-15,-1.,0.));
#536=DIRECTION('',(0.505858736644665,-0.862616333348879,0.));
#537=DIRECTION('',(8.07434927000113E-16,-1.,0.));
#538=DIRECTION('center_axis',(0.,0.,1.));
#539=DIRECTION('ref_axis',(1.,0.,0.));
#540=DIRECTION('center_axis',(0.,0.,1.));
#541=DIRECTION('ref_axis',(1.,0.,0.));
#542=DIRECTION('center_axis',(0.,0.,-1.));
#543=DIRECTION('ref_axis',(1.,0.,0.));
#544=DIRECTION('',(0.,0.,-1.));
#545=DIRECTION('center_axis',(-1.,8.07434927000113E-16,0.));
#546=DIRECTION('ref_axis',(-8.07434927000113E-16,-1.,0.));
#547=DIRECTION('',(0.,0.,1.));
#548=DIRECTION('',(-8.07434927000113E-16,-1.,0.));
#549=DIRECTION('',(0.,0.,1.));
#550=DIRECTION('center_axis',(-0.862616333348879,0.505858736644664,0.));
#551=DIRECTION('ref_axis',(-0.505858736644665,-0.862616333348879,0.));
#552=DIRECTION('',(-0.505858736644665,-0.862616333348879,0.));
#553=DIRECTION('',(0.,0.,1.));
#554=DIRECTION('center_axis',(-1.,-1.64614701376624E-15,0.));
#555=DIRECTION('ref_axis',(1.64614701376624E-15,-1.,0.));
#556=DIRECTION('',(1.64614701376624E-15,-1.,0.));
#557=DIRECTION('',(0.,0.,1.));
#558=DIRECTION('center_axis',(-1.1348946473946E-14,1.,0.));
#559=DIRECTION('ref_axis',(-1.,-1.1348946473946E-14,0.));
#560=DIRECTION('',(-1.,-1.1348946473946E-14,0.));
#561=DIRECTION('',(0.,0.,1.));
#562=DIRECTION('center_axis',(-0.862616333348897,0.505858736644634,0.));
#563=DIRECTION('ref_axis',(-0.505858736644633,-0.862616333348897,0.));
#564=DIRECTION('',(-0.505858736644633,-0.862616333348897,0.));
#565=DIRECTION('',(0.,0.,1.));
#566=DIRECTION('center_axis',(-2.70751734134713E-14,1.,0.));
#567=DIRECTION('ref_axis',(-1.,-2.70751734134713E-14,0.));
#568=DIRECTION('',(-1.,-2.70751734134713E-14,0.));
#569=DIRECTION('',(0.,0.,1.));
#570=DIRECTION('center_axis',(0.862616333348902,0.505858736644625,0.));
#571=DIRECTION('ref_axis',(-0.505858736644625,0.862616333348902,0.));
#572=DIRECTION('',(-0.505858736644625,0.862616333348902,0.));
#573=DIRECTION('',(0.,0.,1.));
#574=DIRECTION('center_axis',(1.1348946473946E-14,1.,0.));
#575=DIRECTION('ref_axis',(-1.,1.1348946473946E-14,0.));
#576=DIRECTION('',(-1.,1.1348946473946E-14,0.));
#577=DIRECTION('',(0.,0.,1.));
#578=DIRECTION('center_axis',(1.,-1.64614701376624E-15,0.));
#579=DIRECTION('ref_axis',(1.64614701376624E-15,1.,0.));
#580=DIRECTION('',(1.64614701376624E-15,1.,0.));
#581=DIRECTION('',(0.,0.,1.));
#582=DIRECTION('center_axis',(0.862616333348879,0.505858736644664,0.));
#583=DIRECTION('ref_axis',(-0.505858736644665,0.862616333348879,0.));
#584=DIRECTION('',(-0.505858736644665,0.862616333348879,0.));
#585=DIRECTION('',(0.,0.,1.));
#586=DIRECTION('center_axis',(1.,8.07434927000113E-16,0.));
#587=DIRECTION('ref_axis',(-8.07434927000113E-16,1.,0.));
#588=DIRECTION('',(-8.07434927000113E-16,1.,0.));
#589=DIRECTION('',(0.,0.,1.));
#590=DIRECTION('center_axis',(1.81226270192666E-16,-1.,0.));
#591=DIRECTION('ref_axis',(1.,1.81226270192666E-16,0.));
#592=DIRECTION('',(1.,1.81226270192666E-16,0.));
#593=DIRECTION('center_axis',(0.,0.,1.));
#594=DIRECTION('ref_axis',(1.,0.,0.));
#595=DIRECTION('center_axis',(0.,0.,1.));
#596=DIRECTION('ref_axis',(1.,0.,0.));
#597=DIRECTION('center_axis',(0.,0.,-1.));
#598=DIRECTION('ref_axis',(1.,0.,0.));
#599=DIRECTION('center_axis',(0.,0.,1.));
#600=DIRECTION('ref_axis',(1.,0.,0.));
#601=DIRECTION('center_axis',(0.,0.,1.));
#602=DIRECTION('ref_axis',(1.,0.,0.));
#603=DIRECTION('center_axis',(0.,0.,-1.));
#604=DIRECTION('ref_axis',(1.,0.,0.));
#605=DIRECTION('',(0.,0.,-1.));
#606=DIRECTION('center_axis',(0.,0.,1.));
#607=DIRECTION('ref_axis',(1.,0.,0.));
#608=DIRECTION('center_axis',(0.,0.,1.));
#609=DIRECTION('ref_axis',(1.,0.,0.));
#610=DIRECTION('',(0.,0.,-1.));
#611=DIRECTION('center_axis',(0.,0.,1.));
#612=DIRECTION('ref_axis',(1.,0.,0.));
#613=CARTESIAN_POINT('',(0.,0.,0.));
#614=CARTESIAN_POINT('Origin',(20.,19.2500000000003,-35.));
#615=CARTESIAN_POINT('',(20.,4.44089209850063E-15,-32.4825));
#616=CARTESIAN_POINT('Origin',(20.,4.44089209850063E-15,-35.));
#617=CARTESIAN_POINT('',(20.,35.0000000000005,-32.4825));
#618=CARTESIAN_POINT('',(20.,19.2500000000003,-32.4825));
#619=CARTESIAN_POINT('Origin',(20.,35.,-35.));
#620=CARTESIAN_POINT('Origin',(-20.,19.25,35.));
#621=CARTESIAN_POINT('',(-20.,-2.22044604925031E-15,37.5175));
#622=CARTESIAN_POINT('Origin',(-20.,-2.22044604925031E-15,35.));
#623=CARTESIAN_POINT('',(-20.,35.0000000000001,37.5175));
#624=CARTESIAN_POINT('',(-20.,19.25,37.5175));
#625=CARTESIAN_POINT('Origin',(-20.,35.0000000000001,35.));
#626=CARTESIAN_POINT('Origin',(20.,19.2500000000003,35.));
#627=CARTESIAN_POINT('',(20.,4.44089209850063E-15,37.5175));
#628=CARTESIAN_POINT('Origin',(20.,4.44089209850063E-15,35.));
#629=CARTESIAN_POINT('',(20.,35.0000000000005,37.5175));
#630=CARTESIAN_POINT('',(20.,19.2500000000003,37.5175));
#631=CARTESIAN_POINT('Origin',(20.,35.,35.));
#632=CARTESIAN_POINT('Origin',(-20.,19.25,-35.));
#633=CARTESIAN_POINT('',(-20.,-2.22044604925031E-15,-32.4825));
#634=CARTESIAN_POINT('Origin',(-20.,-2.22044604925031E-15,-35.));
#635=CARTESIAN_POINT('',(-20.,35.0000000000001,-32.4825));
#636=CARTESIAN_POINT('',(-20.,19.25,-32.4825));
#637=CARTESIAN_POINT('Origin',(-20.,35.0000000000001,-35.));
#638=CARTESIAN_POINT('Origin',(0.,20.5000000000003,-48.));
#639=CARTESIAN_POINT('',(26.9999999999999,4.44089209850063E-15,-48.));
#640=CARTESIAN_POINT('',(-26.9999999999999,4.44089209850063E-15,-48.));
#641=CARTESIAN_POINT('',(0.,6.93889390390723E-17,-48.));
#642=CARTESIAN_POINT('',(-26.9999999999999,11.,-48.));
#643=CARTESIAN_POINT('',(-26.9999999999999,5.00149263616471E-15,-48.));
#644=CARTESIAN_POINT('',(-24.,16.1157542858935,-48.));
#645=CARTESIAN_POINT('',(-26.9999999999999,11.,-48.));
#646=CARTESIAN_POINT('',(-24.,35.,-48.));
#647=CARTESIAN_POINT('',(-24.,16.1157542858935,-48.));
#648=CARTESIAN_POINT('',(-15.,35.0000000000001,-48.));
#649=CARTESIAN_POINT('',(-24.,35.,-48.));
#650=CARTESIAN_POINT('',(-11.4814572799882,41.0000000000005,-48.));
#651=CARTESIAN_POINT('',(-15.,35.0000000000001,-48.));
#652=CARTESIAN_POINT('',(11.4814572799882,41.0000000000003,-48.));
#653=CARTESIAN_POINT('',(2.96068607198539E-17,41.,-48.));
#654=CARTESIAN_POINT('',(15.,35.0000000000001,-48.));
#655=CARTESIAN_POINT('',(11.4814572799882,41.0000000000007,-48.));
#656=CARTESIAN_POINT('',(24.,35.,-48.));
#657=CARTESIAN_POINT('',(24.,35.,-48.));
#658=CARTESIAN_POINT('',(24.,16.1157542858935,-48.));
#659=CARTESIAN_POINT('',(24.,16.1157542858935,-48.));
#660=CARTESIAN_POINT('',(26.9999999999999,11.,-48.));
#661=CARTESIAN_POINT('',(24.,16.1157542858935,-48.));
#662=CARTESIAN_POINT('',(26.9999999999999,4.96249823424104E-15,-48.));
#663=CARTESIAN_POINT('',(-15.,21.,-48.));
#664=CARTESIAN_POINT('Origin',(1.516448963698E-17,21.,-48.));
#665=CARTESIAN_POINT('Origin',(1.516448963698E-17,21.,0.));
#666=CARTESIAN_POINT('',(-15.,21.,48.));
#667=CARTESIAN_POINT('Origin',(1.516448963698E-17,21.,48.));
#668=CARTESIAN_POINT('',(-15.,21.,0.));
#669=CARTESIAN_POINT('Origin',(-26.9999999999999,11.,0.));
#670=CARTESIAN_POINT('',(-26.9999999999999,4.44089209850063E-15,48.));
#671=CARTESIAN_POINT('',(-26.9999999999999,5.00149263616471E-15,0.));
#672=CARTESIAN_POINT('',(-26.9999999999999,11.,48.));
#673=CARTESIAN_POINT('',(-26.9999999999999,5.00149263616471E-15,48.));
#674=CARTESIAN_POINT('',(-26.9999999999999,11.,0.));
#675=CARTESIAN_POINT('Origin',(-24.,16.1157542858935,0.));
#676=CARTESIAN_POINT('',(-24.,16.1157542858935,48.));
#677=CARTESIAN_POINT('',(-26.9999999999999,11.,48.));
#678=CARTESIAN_POINT('',(-24.,16.1157542858935,0.));
#679=CARTESIAN_POINT('Origin',(-24.,35.,0.));
#680=CARTESIAN_POINT('',(-24.,35.,48.));
#681=CARTESIAN_POINT('',(-24.,16.1157542858935,48.));
#682=CARTESIAN_POINT('',(-24.,35.,0.));
#683=CARTESIAN_POINT('Origin',(-15.,35.0000000000001,0.));
#684=CARTESIAN_POINT('',(-15.,35.0000000000001,48.));
#685=CARTESIAN_POINT('',(-24.,35.,48.));
#686=CARTESIAN_POINT('',(-15.,35.0000000000001,0.));
#687=CARTESIAN_POINT('Origin',(-11.4814572799882,41.0000000000005,0.));
#688=CARTESIAN_POINT('',(-11.4814572799882,41.0000000000005,48.));
#689=CARTESIAN_POINT('',(-15.,35.0000000000001,48.));
#690=CARTESIAN_POINT('',(-11.4814572799882,41.0000000000005,0.));
#691=CARTESIAN_POINT('Origin',(11.4814572799882,41.0000000000003,0.));
#692=CARTESIAN_POINT('',(11.4814572799882,41.0000000000003,48.));
#693=CARTESIAN_POINT('',(2.96068607198539E-17,41.,48.));
#694=CARTESIAN_POINT('',(11.4814572799882,41.0000000000003,0.));
#695=CARTESIAN_POINT('Origin',(15.,35.0000000000001,0.));
#696=CARTESIAN_POINT('',(15.,35.0000000000001,48.));
#697=CARTESIAN_POINT('',(11.4814572799882,41.0000000000007,48.));
#698=CARTESIAN_POINT('',(15.,35.0000000000001,0.));
#699=CARTESIAN_POINT('Origin',(24.,35.,0.));
#700=CARTESIAN_POINT('',(24.,35.,48.));
#701=CARTESIAN_POINT('',(24.,35.,48.));
#702=CARTESIAN_POINT('',(24.,35.,0.));
#703=CARTESIAN_POINT('Origin',(24.,16.1157542858935,0.));
#704=CARTESIAN_POINT('',(24.,16.1157542858935,48.));
#705=CARTESIAN_POINT('',(24.,16.1157542858935,48.));
#706=CARTESIAN_POINT('',(24.,16.1157542858935,0.));
#707=CARTESIAN_POINT('Origin',(26.9999999999999,11.,0.));
#708=CARTESIAN_POINT('',(26.9999999999999,11.,48.));
#709=CARTESIAN_POINT('',(24.,16.1157542858935,48.));
#710=CARTESIAN_POINT('',(26.9999999999999,11.,0.));
#711=CARTESIAN_POINT('Origin',(26.9999999999999,4.96249823424104E-15,0.));
#712=CARTESIAN_POINT('',(26.9999999999999,4.44089209850063E-15,48.));
#713=CARTESIAN_POINT('',(26.9999999999999,4.96249823424104E-15,48.));
#714=CARTESIAN_POINT('',(26.9999999999999,4.96249823424104E-15,0.));
#715=CARTESIAN_POINT('Origin',(-26.9999999999999,-4.82372035616289E-15,
0.));
#716=CARTESIAN_POINT('',(0.,6.93889390390723E-17,48.));
#717=CARTESIAN_POINT('Origin',(0.,20.5000000000003,48.));
#718=CARTESIAN_POINT('Origin',(0.,21.,-47.));
#719=CARTESIAN_POINT('',(-15.,21.,-47.));
#720=CARTESIAN_POINT('Origin',(1.516448963698E-17,21.,-47.));
#721=CARTESIAN_POINT('',(-10.,21.,-47.));
#722=CARTESIAN_POINT('Origin',(1.516448963698E-17,21.,-47.));
#723=CARTESIAN_POINT('Origin',(1.516448963698E-17,21.,0.));
#724=CARTESIAN_POINT('',(-10.,21.,47.));
#725=CARTESIAN_POINT('Origin',(1.516448963698E-17,21.,47.));
#726=CARTESIAN_POINT('',(-10.,21.,0.));
#727=CARTESIAN_POINT('Origin',(1.516448963698E-17,21.,0.));
#728=CARTESIAN_POINT('',(-15.,21.,47.));
#729=CARTESIAN_POINT('Origin',(1.516448963698E-17,21.,47.));
#730=CARTESIAN_POINT('',(-15.,21.,0.));
#731=CARTESIAN_POINT('Origin',(0.,21.,47.));
#732=UNCERTAINTY_MEASURE_WITH_UNIT(LENGTH_MEASURE(0.01),#736,
'DISTANCE_ACCURACY_VALUE',
'Maximum model space distance between geometric entities at asserted c
onnectivities');
#733=UNCERTAINTY_MEASURE_WITH_UNIT(LENGTH_MEASURE(0.01),#736,
'DISTANCE_ACCURACY_VALUE',
'Maximum model space distance between geometric entities at asserted c
onnectivities');
#734=(
GEOMETRIC_REPRESENTATION_CONTEXT(3)
GLOBAL_UNCERTAINTY_ASSIGNED_CONTEXT((#732))
GLOBAL_UNIT_ASSIGNED_CONTEXT((#736,#738,#739))
REPRESENTATION_CONTEXT('','3D')
);
#735=(
GEOMETRIC_REPRESENTATION_CONTEXT(3)
GLOBAL_UNCERTAINTY_ASSIGNED_CONTEXT((#733))
GLOBAL_UNIT_ASSIGNED_CONTEXT((#736,#738,#739))
REPRESENTATION_CONTEXT('','3D')
);
#736=(
LENGTH_UNIT()
NAMED_UNIT(*)
SI_UNIT(.MILLI.,.METRE.)
);
#737=(
LENGTH_UNIT()
NAMED_UNIT(*)
SI_UNIT($,.METRE.)
);
#738=(
NAMED_UNIT(*)
PLANE_ANGLE_UNIT()
SI_UNIT($,.RADIAN.)
);
#739=(
NAMED_UNIT(*)
SI_UNIT($,.STERADIAN.)
SOLID_ANGLE_UNIT()
);
#740=SHAPE_DEFINITION_REPRESENTATION(#741,#742);
#741=PRODUCT_DEFINITION_SHAPE('',$,#744);
#742=SHAPE_REPRESENTATION('',(#456),#734);
#743=PRODUCT_DEFINITION_CONTEXT('part definition',#748,'design');
#744=PRODUCT_DEFINITION('(Unsaved)','(Unsaved)',#745,#743);
#745=PRODUCT_DEFINITION_FORMATION('',$,#750);
#746=PRODUCT_RELATED_PRODUCT_CATEGORY('(Unsaved)','(Unsaved)',(#750));
#747=APPLICATION_PROTOCOL_DEFINITION('international standard',
'automotive_design',2009,#748);
#748=APPLICATION_CONTEXT(
'Core Data for Automotive Mechanical Design Process');
#749=PRODUCT_CONTEXT('part definition',#748,'mechanical');
#750=PRODUCT('(Unsaved)','(Unsaved)',$,(#749));
#751=PRESENTATION_STYLE_ASSIGNMENT((#754));
#752=PRESENTATION_STYLE_ASSIGNMENT((#755));
#753=PRESENTATION_STYLE_ASSIGNMENT((#756));
#754=SURFACE_STYLE_USAGE(.BOTH.,#757);
#755=SURFACE_STYLE_USAGE(.BOTH.,#758);
#756=SURFACE_STYLE_USAGE(.BOTH.,#759);
#757=SURFACE_SIDE_STYLE('',(#760));
#758=SURFACE_SIDE_STYLE('',(#761));
#759=SURFACE_SIDE_STYLE('',(#762));
#760=SURFACE_STYLE_FILL_AREA(#763);
#761=SURFACE_STYLE_FILL_AREA(#764);
#762=SURFACE_STYLE_FILL_AREA(#765);
#763=FILL_AREA_STYLE('Steel - Satin',(#766));
#764=FILL_AREA_STYLE('Aluminum - Satin',(#767));
#765=FILL_AREA_STYLE('Plastic - Glossy (Black)',(#768));
#766=FILL_AREA_STYLE_COLOUR('Steel - Satin',#769);
#767=FILL_AREA_STYLE_COLOUR('Aluminum - Satin',#770);
#768=FILL_AREA_STYLE_COLOUR('Plastic - Glossy (Black)',#771);
#769=COLOUR_RGB('Steel - Satin',0.627450980392157,0.627450980392157,0.627450980392157);
#770=COLOUR_RGB('Aluminum - Satin',0.96078431372549,0.96078431372549,0.964705882352941);
#771=COLOUR_RGB('Plastic - Glossy (Black)',0.0980392156862745,0.0980392156862745,
0.0980392156862745);
ENDSEC;
END-ISO-10303-21;
