ISO-10303-21;
HEADER;
/* Generated by software containing ST-Developer
 * from STEP Tools, Inc. (www.steptools.com) 
 */

FILE_DESCRIPTION(
/* description */ (''),
/* implementation_level */ '2;1');

FILE_NAME(
/* name */ 
'D:\\DiscoD\\Erbessd Instruments Proyects\\Proyectos 2020\\PIEZAS CHIN
AS EI30\\External Swing.stp',
/* time_stamp */ '2020-07-29T19:49:55-05:00',
/* author */ ('Armando'),
/* organization */ (''),
/* preprocessor_version */ 'ST-DEVELOPER v16.5',
/* originating_system */ 'Autodesk Inventor 2017',
/* authorisation */ '');

FILE_SCHEMA (('AUTOMOTIVE_DESIGN { 1 0 10303 214 3 1 1 }'));
ENDSEC;

DATA;
#10=MECHANICAL_DESIGN_GEOMETRIC_PRESENTATION_REPRESENTATION('',(#13),#649);
#11=SHAPE_REPRESENTATION_RELATIONSHIP('SRR','None',#661,#12);
#12=ADVANCED_BREP_SHAPE_REPRESENTATION('',(#14),#648);
#13=STYLED_ITEM('',(#670),#14);
#14=MANIFOLD_SOLID_BREP('S\X\F3lido1',#391);
#15=FACE_BOUND('',#67,.T.);
#16=FACE_BOUND('',#68,.T.);
#17=FACE_BOUND('',#71,.T.);
#18=FACE_BOUND('',#72,.T.);
#19=FACE_BOUND('',#74,.T.);
#20=FACE_BOUND('',#76,.T.);
#21=FACE_BOUND('',#78,.T.);
#22=FACE_BOUND('',#80,.T.);
#23=FACE_BOUND('',#82,.T.);
#24=FACE_BOUND('',#84,.T.);
#25=FACE_BOUND('',#88,.T.);
#26=FACE_BOUND('',#89,.T.);
#27=FACE_BOUND('',#93,.T.);
#28=FACE_BOUND('',#94,.T.);
#29=FACE_BOUND('',#97,.T.);
#30=FACE_BOUND('',#98,.T.);
#31=FACE_BOUND('',#101,.T.);
#32=FACE_BOUND('',#102,.T.);
#33=PLANE('',#402);
#34=PLANE('',#408);
#35=PLANE('',#425);
#36=PLANE('',#426);
#37=PLANE('',#427);
#38=PLANE('',#428);
#39=PLANE('',#429);
#40=PLANE('',#430);
#41=PLANE('',#431);
#42=PLANE('',#432);
#43=PLANE('',#433);
#44=PLANE('',#434);
#45=FACE_OUTER_BOUND('',#65,.T.);
#46=FACE_OUTER_BOUND('',#66,.T.);
#47=FACE_OUTER_BOUND('',#69,.T.);
#48=FACE_OUTER_BOUND('',#70,.T.);
#49=FACE_OUTER_BOUND('',#73,.T.);
#50=FACE_OUTER_BOUND('',#75,.T.);
#51=FACE_OUTER_BOUND('',#77,.T.);
#52=FACE_OUTER_BOUND('',#79,.T.);
#53=FACE_OUTER_BOUND('',#81,.T.);
#54=FACE_OUTER_BOUND('',#83,.T.);
#55=FACE_OUTER_BOUND('',#85,.T.);
#56=FACE_OUTER_BOUND('',#86,.T.);
#57=FACE_OUTER_BOUND('',#87,.T.);
#58=FACE_OUTER_BOUND('',#90,.T.);
#59=FACE_OUTER_BOUND('',#91,.T.);
#60=FACE_OUTER_BOUND('',#92,.T.);
#61=FACE_OUTER_BOUND('',#95,.T.);
#62=FACE_OUTER_BOUND('',#96,.T.);
#63=FACE_OUTER_BOUND('',#99,.T.);
#64=FACE_OUTER_BOUND('',#100,.T.);
#65=EDGE_LOOP('',(#267,#268,#269,#270));
#66=EDGE_LOOP('',(#271,#272,#273,#274));
#67=EDGE_LOOP('',(#275));
#68=EDGE_LOOP('',(#276));
#69=EDGE_LOOP('',(#277,#278,#279,#280));
#70=EDGE_LOOP('',(#281,#282,#283,#284,#285,#286));
#71=EDGE_LOOP('',(#287));
#72=EDGE_LOOP('',(#288));
#73=EDGE_LOOP('',(#289));
#74=EDGE_LOOP('',(#290));
#75=EDGE_LOOP('',(#291));
#76=EDGE_LOOP('',(#292));
#77=EDGE_LOOP('',(#293));
#78=EDGE_LOOP('',(#294));
#79=EDGE_LOOP('',(#295));
#80=EDGE_LOOP('',(#296));
#81=EDGE_LOOP('',(#297));
#82=EDGE_LOOP('',(#298));
#83=EDGE_LOOP('',(#299));
#84=EDGE_LOOP('',(#300));
#85=EDGE_LOOP('',(#301,#302,#303,#304,#305,#306));
#86=EDGE_LOOP('',(#307,#308,#309,#310));
#87=EDGE_LOOP('',(#311,#312,#313,#314,#315,#316));
#88=EDGE_LOOP('',(#317));
#89=EDGE_LOOP('',(#318));
#90=EDGE_LOOP('',(#319,#320,#321,#322));
#91=EDGE_LOOP('',(#323,#324,#325,#326));
#92=EDGE_LOOP('',(#327,#328,#329,#330));
#93=EDGE_LOOP('',(#331));
#94=EDGE_LOOP('',(#332));
#95=EDGE_LOOP('',(#333,#334,#335,#336,#337,#338,#339,#340));
#96=EDGE_LOOP('',(#341,#342,#343,#344));
#97=EDGE_LOOP('',(#345));
#98=EDGE_LOOP('',(#346));
#99=EDGE_LOOP('',(#347,#348,#349,#350,#351,#352,#353,#354,#355,#356));
#100=EDGE_LOOP('',(#357,#358,#359,#360));
#101=EDGE_LOOP('',(#361));
#102=EDGE_LOOP('',(#362));
#103=LINE('',#547,#135);
#104=LINE('',#550,#136);
#105=LINE('',#553,#137);
#106=LINE('',#555,#138);
#107=LINE('',#556,#139);
#108=LINE('',#565,#140);
#109=LINE('',#569,#141);
#110=LINE('',#571,#142);
#111=LINE('',#573,#143);
#112=LINE('',#575,#144);
#113=LINE('',#576,#145);
#114=LINE('',#605,#146);
#115=LINE('',#606,#147);
#116=LINE('',#609,#148);
#117=LINE('',#610,#149);
#118=LINE('',#613,#150);
#119=LINE('',#615,#151);
#120=LINE('',#616,#152);
#121=LINE('',#620,#153);
#122=LINE('',#621,#154);
#123=LINE('',#622,#155);
#124=LINE('',#625,#156);
#125=LINE('',#627,#157);
#126=LINE('',#628,#158);
#127=LINE('',#632,#159);
#128=LINE('',#633,#160);
#129=LINE('',#634,#161);
#130=LINE('',#637,#162);
#131=LINE('',#638,#163);
#132=LINE('',#641,#164);
#133=LINE('',#642,#165);
#134=LINE('',#644,#166);
#135=VECTOR('',#441,0.393700787401575);
#136=VECTOR('',#444,0.393700787401575);
#137=VECTOR('',#447,0.393700787401575);
#138=VECTOR('',#448,0.393700787401575);
#139=VECTOR('',#449,0.393700787401575);
#140=VECTOR('',#458,0.393700787401575);
#141=VECTOR('',#463,0.393700787401575);
#142=VECTOR('',#464,0.393700787401575);
#143=VECTOR('',#465,0.393700787401575);
#144=VECTOR('',#466,0.393700787401575);
#145=VECTOR('',#467,0.393700787401575);
#146=VECTOR('',#502,0.393700787401575);
#147=VECTOR('',#503,0.393700787401575);
#148=VECTOR('',#506,0.393700787401575);
#149=VECTOR('',#507,0.393700787401575);
#150=VECTOR('',#510,0.393700787401575);
#151=VECTOR('',#511,0.393700787401575);
#152=VECTOR('',#512,0.393700787401575);
#153=VECTOR('',#515,0.393700787401575);
#154=VECTOR('',#516,0.393700787401575);
#155=VECTOR('',#517,0.393700787401575);
#156=VECTOR('',#520,0.393700787401575);
#157=VECTOR('',#521,0.393700787401575);
#158=VECTOR('',#522,0.393700787401575);
#159=VECTOR('',#525,0.393700787401575);
#160=VECTOR('',#526,0.393700787401575);
#161=VECTOR('',#527,0.393700787401575);
#162=VECTOR('',#530,0.393700787401575);
#163=VECTOR('',#531,0.393700787401575);
#164=VECTOR('',#534,0.393700787401575);
#165=VECTOR('',#535,0.393700787401575);
#166=VECTOR('',#538,0.393700787401575);
#167=CIRCLE('',#400,0.125);
#168=CIRCLE('',#401,0.125);
#169=CIRCLE('',#403,0.125);
#170=CIRCLE('',#404,0.125);
#171=CIRCLE('',#406,0.125);
#172=CIRCLE('',#407,0.125);
#173=CIRCLE('',#409,0.0937499999999998);
#174=CIRCLE('',#410,0.1055);
#175=CIRCLE('',#412,0.1055);
#176=CIRCLE('',#414,0.1055);
#177=CIRCLE('',#415,0.1055);
#178=CIRCLE('',#417,0.125);
#179=CIRCLE('',#419,0.125);
#180=CIRCLE('',#421,0.0937499999999998);
#181=CIRCLE('',#423,0.0937499999999998);
#182=CIRCLE('',#424,0.0937499999999998);
#183=VERTEX_POINT('',#543);
#184=VERTEX_POINT('',#544);
#185=VERTEX_POINT('',#546);
#186=VERTEX_POINT('',#548);
#187=VERTEX_POINT('',#552);
#188=VERTEX_POINT('',#554);
#189=VERTEX_POINT('',#557);
#190=VERTEX_POINT('',#559);
#191=VERTEX_POINT('',#562);
#192=VERTEX_POINT('',#564);
#193=VERTEX_POINT('',#568);
#194=VERTEX_POINT('',#570);
#195=VERTEX_POINT('',#572);
#196=VERTEX_POINT('',#574);
#197=VERTEX_POINT('',#577);
#198=VERTEX_POINT('',#579);
#199=VERTEX_POINT('',#582);
#200=VERTEX_POINT('',#585);
#201=VERTEX_POINT('',#587);
#202=VERTEX_POINT('',#590);
#203=VERTEX_POINT('',#593);
#204=VERTEX_POINT('',#596);
#205=VERTEX_POINT('',#599);
#206=VERTEX_POINT('',#601);
#207=VERTEX_POINT('',#604);
#208=VERTEX_POINT('',#608);
#209=VERTEX_POINT('',#612);
#210=VERTEX_POINT('',#614);
#211=VERTEX_POINT('',#618);
#212=VERTEX_POINT('',#619);
#213=VERTEX_POINT('',#624);
#214=VERTEX_POINT('',#626);
#215=VERTEX_POINT('',#630);
#216=VERTEX_POINT('',#631);
#217=VERTEX_POINT('',#636);
#218=VERTEX_POINT('',#640);
#219=EDGE_CURVE('',#183,#184,#167,.T.);
#220=EDGE_CURVE('',#183,#185,#103,.T.);
#221=EDGE_CURVE('',#185,#186,#168,.T.);
#222=EDGE_CURVE('',#186,#184,#104,.T.);
#223=EDGE_CURVE('',#183,#187,#105,.T.);
#224=EDGE_CURVE('',#188,#187,#106,.T.);
#225=EDGE_CURVE('',#188,#185,#107,.T.);
#226=EDGE_CURVE('',#189,#189,#169,.T.);
#227=EDGE_CURVE('',#190,#190,#170,.T.);
#228=EDGE_CURVE('',#191,#187,#171,.T.);
#229=EDGE_CURVE('',#191,#192,#108,.T.);
#230=EDGE_CURVE('',#192,#188,#172,.T.);
#231=EDGE_CURVE('',#191,#193,#109,.T.);
#232=EDGE_CURVE('',#193,#194,#110,.T.);
#233=EDGE_CURVE('',#194,#195,#111,.T.);
#234=EDGE_CURVE('',#196,#195,#112,.T.);
#235=EDGE_CURVE('',#192,#196,#113,.T.);
#236=EDGE_CURVE('',#197,#197,#173,.T.);
#237=EDGE_CURVE('',#198,#198,#174,.T.);
#238=EDGE_CURVE('',#199,#199,#175,.T.);
#239=EDGE_CURVE('',#200,#200,#176,.T.);
#240=EDGE_CURVE('',#201,#201,#177,.T.);
#241=EDGE_CURVE('',#202,#202,#178,.T.);
#242=EDGE_CURVE('',#203,#203,#179,.T.);
#243=EDGE_CURVE('',#204,#204,#180,.T.);
#244=EDGE_CURVE('',#205,#205,#181,.T.);
#245=EDGE_CURVE('',#206,#206,#182,.T.);
#246=EDGE_CURVE('',#207,#184,#114,.T.);
#247=EDGE_CURVE('',#193,#207,#115,.T.);
#248=EDGE_CURVE('',#208,#194,#116,.T.);
#249=EDGE_CURVE('',#208,#207,#117,.T.);
#250=EDGE_CURVE('',#186,#209,#118,.T.);
#251=EDGE_CURVE('',#210,#209,#119,.T.);
#252=EDGE_CURVE('',#208,#210,#120,.T.);
#253=EDGE_CURVE('',#211,#212,#121,.T.);
#254=EDGE_CURVE('',#212,#210,#122,.T.);
#255=EDGE_CURVE('',#209,#211,#123,.T.);
#256=EDGE_CURVE('',#213,#196,#124,.T.);
#257=EDGE_CURVE('',#195,#214,#125,.T.);
#258=EDGE_CURVE('',#214,#213,#126,.T.);
#259=EDGE_CURVE('',#215,#216,#127,.T.);
#260=EDGE_CURVE('',#215,#213,#128,.T.);
#261=EDGE_CURVE('',#216,#214,#129,.T.);
#262=EDGE_CURVE('',#216,#217,#130,.T.);
#263=EDGE_CURVE('',#217,#212,#131,.T.);
#264=EDGE_CURVE('',#217,#218,#132,.T.);
#265=EDGE_CURVE('',#218,#211,#133,.T.);
#266=EDGE_CURVE('',#218,#215,#134,.T.);
#267=ORIENTED_EDGE('',*,*,#219,.F.);
#268=ORIENTED_EDGE('',*,*,#220,.T.);
#269=ORIENTED_EDGE('',*,*,#221,.T.);
#270=ORIENTED_EDGE('',*,*,#222,.T.);
#271=ORIENTED_EDGE('',*,*,#220,.F.);
#272=ORIENTED_EDGE('',*,*,#223,.T.);
#273=ORIENTED_EDGE('',*,*,#224,.F.);
#274=ORIENTED_EDGE('',*,*,#225,.T.);
#275=ORIENTED_EDGE('',*,*,#226,.T.);
#276=ORIENTED_EDGE('',*,*,#227,.T.);
#277=ORIENTED_EDGE('',*,*,#228,.F.);
#278=ORIENTED_EDGE('',*,*,#229,.T.);
#279=ORIENTED_EDGE('',*,*,#230,.T.);
#280=ORIENTED_EDGE('',*,*,#224,.T.);
#281=ORIENTED_EDGE('',*,*,#229,.F.);
#282=ORIENTED_EDGE('',*,*,#231,.T.);
#283=ORIENTED_EDGE('',*,*,#232,.T.);
#284=ORIENTED_EDGE('',*,*,#233,.T.);
#285=ORIENTED_EDGE('',*,*,#234,.F.);
#286=ORIENTED_EDGE('',*,*,#235,.F.);
#287=ORIENTED_EDGE('',*,*,#236,.T.);
#288=ORIENTED_EDGE('',*,*,#237,.T.);
#289=ORIENTED_EDGE('',*,*,#238,.F.);
#290=ORIENTED_EDGE('',*,*,#237,.F.);
#291=ORIENTED_EDGE('',*,*,#239,.F.);
#292=ORIENTED_EDGE('',*,*,#240,.F.);
#293=ORIENTED_EDGE('',*,*,#227,.F.);
#294=ORIENTED_EDGE('',*,*,#241,.F.);
#295=ORIENTED_EDGE('',*,*,#226,.F.);
#296=ORIENTED_EDGE('',*,*,#242,.F.);
#297=ORIENTED_EDGE('',*,*,#243,.F.);
#298=ORIENTED_EDGE('',*,*,#236,.F.);
#299=ORIENTED_EDGE('',*,*,#244,.F.);
#300=ORIENTED_EDGE('',*,*,#245,.F.);
#301=ORIENTED_EDGE('',*,*,#219,.T.);
#302=ORIENTED_EDGE('',*,*,#246,.F.);
#303=ORIENTED_EDGE('',*,*,#247,.F.);
#304=ORIENTED_EDGE('',*,*,#231,.F.);
#305=ORIENTED_EDGE('',*,*,#228,.T.);
#306=ORIENTED_EDGE('',*,*,#223,.F.);
#307=ORIENTED_EDGE('',*,*,#248,.T.);
#308=ORIENTED_EDGE('',*,*,#232,.F.);
#309=ORIENTED_EDGE('',*,*,#247,.T.);
#310=ORIENTED_EDGE('',*,*,#249,.F.);
#311=ORIENTED_EDGE('',*,*,#222,.F.);
#312=ORIENTED_EDGE('',*,*,#250,.T.);
#313=ORIENTED_EDGE('',*,*,#251,.F.);
#314=ORIENTED_EDGE('',*,*,#252,.F.);
#315=ORIENTED_EDGE('',*,*,#249,.T.);
#316=ORIENTED_EDGE('',*,*,#246,.T.);
#317=ORIENTED_EDGE('',*,*,#239,.T.);
#318=ORIENTED_EDGE('',*,*,#244,.T.);
#319=ORIENTED_EDGE('',*,*,#253,.T.);
#320=ORIENTED_EDGE('',*,*,#254,.T.);
#321=ORIENTED_EDGE('',*,*,#251,.T.);
#322=ORIENTED_EDGE('',*,*,#255,.T.);
#323=ORIENTED_EDGE('',*,*,#256,.T.);
#324=ORIENTED_EDGE('',*,*,#234,.T.);
#325=ORIENTED_EDGE('',*,*,#257,.T.);
#326=ORIENTED_EDGE('',*,*,#258,.T.);
#327=ORIENTED_EDGE('',*,*,#259,.F.);
#328=ORIENTED_EDGE('',*,*,#260,.T.);
#329=ORIENTED_EDGE('',*,*,#258,.F.);
#330=ORIENTED_EDGE('',*,*,#261,.F.);
#331=ORIENTED_EDGE('',*,*,#238,.T.);
#332=ORIENTED_EDGE('',*,*,#243,.T.);
#333=ORIENTED_EDGE('',*,*,#262,.F.);
#334=ORIENTED_EDGE('',*,*,#261,.T.);
#335=ORIENTED_EDGE('',*,*,#257,.F.);
#336=ORIENTED_EDGE('',*,*,#233,.F.);
#337=ORIENTED_EDGE('',*,*,#248,.F.);
#338=ORIENTED_EDGE('',*,*,#252,.T.);
#339=ORIENTED_EDGE('',*,*,#254,.F.);
#340=ORIENTED_EDGE('',*,*,#263,.F.);
#341=ORIENTED_EDGE('',*,*,#264,.F.);
#342=ORIENTED_EDGE('',*,*,#263,.T.);
#343=ORIENTED_EDGE('',*,*,#253,.F.);
#344=ORIENTED_EDGE('',*,*,#265,.F.);
#345=ORIENTED_EDGE('',*,*,#240,.T.);
#346=ORIENTED_EDGE('',*,*,#245,.T.);
#347=ORIENTED_EDGE('',*,*,#266,.F.);
#348=ORIENTED_EDGE('',*,*,#265,.T.);
#349=ORIENTED_EDGE('',*,*,#255,.F.);
#350=ORIENTED_EDGE('',*,*,#250,.F.);
#351=ORIENTED_EDGE('',*,*,#221,.F.);
#352=ORIENTED_EDGE('',*,*,#225,.F.);
#353=ORIENTED_EDGE('',*,*,#230,.F.);
#354=ORIENTED_EDGE('',*,*,#235,.T.);
#355=ORIENTED_EDGE('',*,*,#256,.F.);
#356=ORIENTED_EDGE('',*,*,#260,.F.);
#357=ORIENTED_EDGE('',*,*,#266,.T.);
#358=ORIENTED_EDGE('',*,*,#259,.T.);
#359=ORIENTED_EDGE('',*,*,#262,.T.);
#360=ORIENTED_EDGE('',*,*,#264,.T.);
#361=ORIENTED_EDGE('',*,*,#241,.T.);
#362=ORIENTED_EDGE('',*,*,#242,.T.);
#363=CYLINDRICAL_SURFACE('',#399,0.125);
#364=CYLINDRICAL_SURFACE('',#405,0.125);
#365=CYLINDRICAL_SURFACE('',#411,0.1055);
#366=CYLINDRICAL_SURFACE('',#413,0.1055);
#367=CYLINDRICAL_SURFACE('',#416,0.125);
#368=CYLINDRICAL_SURFACE('',#418,0.125);
#369=CYLINDRICAL_SURFACE('',#420,0.0937499999999998);
#370=CYLINDRICAL_SURFACE('',#422,0.0937499999999998);
#371=ADVANCED_FACE('',(#45),#363,.F.);
#372=ADVANCED_FACE('',(#46,#15,#16),#33,.T.);
#373=ADVANCED_FACE('',(#47),#364,.F.);
#374=ADVANCED_FACE('',(#48,#17,#18),#34,.T.);
#375=ADVANCED_FACE('',(#49,#19),#365,.F.);
#376=ADVANCED_FACE('',(#50,#20),#366,.F.);
#377=ADVANCED_FACE('',(#51,#21),#367,.F.);
#378=ADVANCED_FACE('',(#52,#22),#368,.F.);
#379=ADVANCED_FACE('',(#53,#23),#369,.F.);
#380=ADVANCED_FACE('',(#54,#24),#370,.F.);
#381=ADVANCED_FACE('',(#55),#35,.T.);
#382=ADVANCED_FACE('',(#56),#36,.T.);
#383=ADVANCED_FACE('',(#57,#25,#26),#37,.T.);
#384=ADVANCED_FACE('',(#58),#38,.T.);
#385=ADVANCED_FACE('',(#59),#39,.T.);
#386=ADVANCED_FACE('',(#60,#27,#28),#40,.T.);
#387=ADVANCED_FACE('',(#61),#41,.T.);
#388=ADVANCED_FACE('',(#62,#29,#30),#42,.T.);
#389=ADVANCED_FACE('',(#63),#43,.T.);
#390=ADVANCED_FACE('',(#64,#31,#32),#44,.F.);
#391=CLOSED_SHELL('',(#371,#372,#373,#374,#375,#376,#377,#378,#379,#380,
#381,#382,#383,#384,#385,#386,#387,#388,#389,#390));
#392=DATE_TIME_ROLE('creation_date');
#393=APPLIED_DATE_AND_TIME_ASSIGNMENT(#394,#392,(#663));
#394=DATE_AND_TIME(#395,#396);
#395=CALENDAR_DATE(2015,20,4);
#396=LOCAL_TIME(2,49,6.,#397);
#397=COORDINATED_UNIVERSAL_TIME_OFFSET(0,0,.BEHIND.);
#398=AXIS2_PLACEMENT_3D('placement',#541,#435,#436);
#399=AXIS2_PLACEMENT_3D('',#542,#437,#438);
#400=AXIS2_PLACEMENT_3D('',#545,#439,#440);
#401=AXIS2_PLACEMENT_3D('',#549,#442,#443);
#402=AXIS2_PLACEMENT_3D('',#551,#445,#446);
#403=AXIS2_PLACEMENT_3D('',#558,#450,#451);
#404=AXIS2_PLACEMENT_3D('',#560,#452,#453);
#405=AXIS2_PLACEMENT_3D('',#561,#454,#455);
#406=AXIS2_PLACEMENT_3D('',#563,#456,#457);
#407=AXIS2_PLACEMENT_3D('',#566,#459,#460);
#408=AXIS2_PLACEMENT_3D('',#567,#461,#462);
#409=AXIS2_PLACEMENT_3D('',#578,#468,#469);
#410=AXIS2_PLACEMENT_3D('',#580,#470,#471);
#411=AXIS2_PLACEMENT_3D('',#581,#472,#473);
#412=AXIS2_PLACEMENT_3D('',#583,#474,#475);
#413=AXIS2_PLACEMENT_3D('',#584,#476,#477);
#414=AXIS2_PLACEMENT_3D('',#586,#478,#479);
#415=AXIS2_PLACEMENT_3D('',#588,#480,#481);
#416=AXIS2_PLACEMENT_3D('',#589,#482,#483);
#417=AXIS2_PLACEMENT_3D('',#591,#484,#485);
#418=AXIS2_PLACEMENT_3D('',#592,#486,#487);
#419=AXIS2_PLACEMENT_3D('',#594,#488,#489);
#420=AXIS2_PLACEMENT_3D('',#595,#490,#491);
#421=AXIS2_PLACEMENT_3D('',#597,#492,#493);
#422=AXIS2_PLACEMENT_3D('',#598,#494,#495);
#423=AXIS2_PLACEMENT_3D('',#600,#496,#497);
#424=AXIS2_PLACEMENT_3D('',#602,#498,#499);
#425=AXIS2_PLACEMENT_3D('',#603,#500,#501);
#426=AXIS2_PLACEMENT_3D('',#607,#504,#505);
#427=AXIS2_PLACEMENT_3D('',#611,#508,#509);
#428=AXIS2_PLACEMENT_3D('',#617,#513,#514);
#429=AXIS2_PLACEMENT_3D('',#623,#518,#519);
#430=AXIS2_PLACEMENT_3D('',#629,#523,#524);
#431=AXIS2_PLACEMENT_3D('',#635,#528,#529);
#432=AXIS2_PLACEMENT_3D('',#639,#532,#533);
#433=AXIS2_PLACEMENT_3D('',#643,#536,#537);
#434=AXIS2_PLACEMENT_3D('',#645,#539,#540);
#435=DIRECTION('axis',(0.,0.,1.));
#436=DIRECTION('refdir',(1.,0.,0.));
#437=DIRECTION('center_axis',(0.,-1.,0.));
#438=DIRECTION('ref_axis',(-0.707106781186547,0.,-0.707106781186549));
#439=DIRECTION('center_axis',(-1.20898804825993E-16,1.,0.));
#440=DIRECTION('ref_axis',(-0.707106781186547,0.,-0.707106781186549));
#441=DIRECTION('',(0.,1.,0.));
#442=DIRECTION('center_axis',(0.,1.,0.));
#443=DIRECTION('ref_axis',(-0.707106781186547,0.,-0.707106781186549));
#444=DIRECTION('',(0.,-1.,0.));
#445=DIRECTION('center_axis',(0.,0.,1.));
#446=DIRECTION('ref_axis',(1.,0.,0.));
#447=DIRECTION('',(1.,1.20898804825993E-16,0.));
#448=DIRECTION('',(3.49676543189026E-16,-1.,0.));
#449=DIRECTION('',(-1.,0.,0.));
#450=DIRECTION('center_axis',(0.,0.,-1.));
#451=DIRECTION('ref_axis',(1.,0.,0.));
#452=DIRECTION('center_axis',(0.,0.,-1.));
#453=DIRECTION('ref_axis',(1.,0.,0.));
#454=DIRECTION('center_axis',(-3.49676543189026E-16,1.,0.));
#455=DIRECTION('ref_axis',(0.707106781186547,4.94517309821662E-16,-0.707106781186549));
#456=DIRECTION('center_axis',(-1.20898804825993E-16,1.,0.));
#457=DIRECTION('ref_axis',(0.707106781186547,4.94517309821662E-16,-0.707106781186549));
#458=DIRECTION('',(-3.49676543189026E-16,1.,0.));
#459=DIRECTION('center_axis',(0.,1.,0.));
#460=DIRECTION('ref_axis',(0.707106781186547,4.94517309821662E-16,-0.707106781186549));
#461=DIRECTION('center_axis',(-1.,-3.49676543189026E-16,0.));
#462=DIRECTION('ref_axis',(0.,-1.,0.));
#463=DIRECTION('',(0.,0.,1.));
#464=DIRECTION('',(3.49676543189026E-16,-1.,0.));
#465=DIRECTION('',(0.,0.,1.));
#466=DIRECTION('',(3.49676543189026E-16,-1.,0.));
#467=DIRECTION('',(0.,0.,1.));
#468=DIRECTION('center_axis',(1.,3.49676543189026E-16,0.));
#469=DIRECTION('ref_axis',(0.,0.,1.));
#470=DIRECTION('center_axis',(1.,3.49676543189026E-16,0.));
#471=DIRECTION('ref_axis',(0.,0.,-1.));
#472=DIRECTION('center_axis',(1.,0.,0.));
#473=DIRECTION('ref_axis',(0.,0.,-1.));
#474=DIRECTION('center_axis',(-1.,0.,0.));
#475=DIRECTION('ref_axis',(0.,0.,-1.));
#476=DIRECTION('center_axis',(1.,0.,0.));
#477=DIRECTION('ref_axis',(0.,0.,-1.));
#478=DIRECTION('center_axis',(-1.,0.,0.));
#479=DIRECTION('ref_axis',(0.,0.,-1.));
#480=DIRECTION('center_axis',(1.,0.,0.));
#481=DIRECTION('ref_axis',(0.,0.,-1.));
#482=DIRECTION('center_axis',(0.,0.,1.));
#483=DIRECTION('ref_axis',(1.,0.,0.));
#484=DIRECTION('center_axis',(0.,0.,1.));
#485=DIRECTION('ref_axis',(1.,0.,0.));
#486=DIRECTION('center_axis',(0.,0.,1.));
#487=DIRECTION('ref_axis',(1.,0.,0.));
#488=DIRECTION('center_axis',(0.,0.,1.));
#489=DIRECTION('ref_axis',(1.,0.,0.));
#490=DIRECTION('center_axis',(-1.,0.,0.));
#491=DIRECTION('ref_axis',(0.,0.,1.));
#492=DIRECTION('center_axis',(-1.,0.,0.));
#493=DIRECTION('ref_axis',(0.,0.,1.));
#494=DIRECTION('center_axis',(-1.,0.,0.));
#495=DIRECTION('ref_axis',(0.,0.,1.));
#496=DIRECTION('center_axis',(-1.,0.,0.));
#497=DIRECTION('ref_axis',(0.,0.,1.));
#498=DIRECTION('center_axis',(1.,0.,0.));
#499=DIRECTION('ref_axis',(0.,0.,1.));
#500=DIRECTION('center_axis',(-1.20898804825993E-16,1.,0.));
#501=DIRECTION('ref_axis',(-1.,-1.40998324127395E-16,0.));
#502=DIRECTION('',(0.,0.,-1.));
#503=DIRECTION('',(-1.,-1.20898804825993E-16,0.));
#504=DIRECTION('center_axis',(0.,0.,1.));
#505=DIRECTION('ref_axis',(1.,0.,0.));
#506=DIRECTION('',(1.,0.,0.));
#507=DIRECTION('',(0.,1.,0.));
#508=DIRECTION('center_axis',(1.,0.,0.));
#509=DIRECTION('ref_axis',(0.,1.,0.));
#510=DIRECTION('',(0.,0.,1.));
#511=DIRECTION('',(0.,1.,0.));
#512=DIRECTION('',(0.,0.,1.));
#513=DIRECTION('center_axis',(0.,0.,1.));
#514=DIRECTION('ref_axis',(1.,0.,0.));
#515=DIRECTION('',(0.,-1.,0.));
#516=DIRECTION('',(1.,0.,0.));
#517=DIRECTION('',(-1.,0.,0.));
#518=DIRECTION('center_axis',(0.,0.,1.));
#519=DIRECTION('ref_axis',(1.,0.,0.));
#520=DIRECTION('',(-1.,0.,0.));
#521=DIRECTION('',(1.,3.49676543189026E-16,0.));
#522=DIRECTION('',(-3.49676543189026E-16,1.,0.));
#523=DIRECTION('center_axis',(1.,0.,0.));
#524=DIRECTION('ref_axis',(0.,1.,0.));
#525=DIRECTION('',(0.,-1.,0.));
#526=DIRECTION('',(0.,0.,1.));
#527=DIRECTION('',(0.,0.,1.));
#528=DIRECTION('center_axis',(0.,-1.,0.));
#529=DIRECTION('ref_axis',(1.,0.,0.));
#530=DIRECTION('',(-1.,0.,0.));
#531=DIRECTION('',(0.,0.,1.));
#532=DIRECTION('center_axis',(-1.,0.,0.));
#533=DIRECTION('ref_axis',(0.,-1.,0.));
#534=DIRECTION('',(0.,1.,0.));
#535=DIRECTION('',(0.,0.,1.));
#536=DIRECTION('center_axis',(0.,1.,0.));
#537=DIRECTION('ref_axis',(-1.,0.,0.));
#538=DIRECTION('',(1.,0.,0.));
#539=DIRECTION('center_axis',(0.,0.,1.));
#540=DIRECTION('ref_axis',(1.,0.,0.));
#541=CARTESIAN_POINT('',(0.,0.,0.));
#542=CARTESIAN_POINT('Origin',(-2.225,-0.25,0.325));
#543=CARTESIAN_POINT('',(-2.225,-0.375000000000001,0.2));
#544=CARTESIAN_POINT('',(-2.35,-0.375000000000001,0.325));
#545=CARTESIAN_POINT('Origin',(-2.225,-0.375,0.325));
#546=CARTESIAN_POINT('',(-2.225,0.5,0.2));
#547=CARTESIAN_POINT('',(-2.225,-0.25,0.2));
#548=CARTESIAN_POINT('',(-2.35,0.5,0.325));
#549=CARTESIAN_POINT('Origin',(-2.225,0.5,0.325));
#550=CARTESIAN_POINT('',(-2.35,-0.25,0.325));
#551=CARTESIAN_POINT('Origin',(0.,0.,0.2));
#552=CARTESIAN_POINT('',(2.225,-0.375,0.2));
#553=CARTESIAN_POINT('',(1.175,-0.375,0.2));
#554=CARTESIAN_POINT('',(2.225,0.5,0.2));
#555=CARTESIAN_POINT('',(2.225,0.25,0.2));
#556=CARTESIAN_POINT('',(-2.6,0.5,0.2));
#557=CARTESIAN_POINT('',(-1.375,3.4622035218538E-16,0.2));
#558=CARTESIAN_POINT('Origin',(-1.25,3.30912267196038E-16,0.2));
#559=CARTESIAN_POINT('',(1.125,4.00586523985415E-17,0.2));
#560=CARTESIAN_POINT('Origin',(1.25,2.47505674091996E-17,0.2));
#561=CARTESIAN_POINT('Origin',(2.225,0.25,0.325));
#562=CARTESIAN_POINT('',(2.35,-0.375,0.325));
#563=CARTESIAN_POINT('Origin',(2.225,-0.375,0.325));
#564=CARTESIAN_POINT('',(2.35,0.5,0.325));
#565=CARTESIAN_POINT('',(2.35,0.25,0.325));
#566=CARTESIAN_POINT('Origin',(2.225,0.5,0.325));
#567=CARTESIAN_POINT('Origin',(2.35,0.5,0.2));
#568=CARTESIAN_POINT('',(2.35,-0.375,0.7));
#569=CARTESIAN_POINT('',(2.35,-0.375,0.2));
#570=CARTESIAN_POINT('',(2.35,-0.5,0.7));
#571=CARTESIAN_POINT('',(2.35,0.0312500000000004,0.7));
#572=CARTESIAN_POINT('',(2.35,-0.5,1.95));
#573=CARTESIAN_POINT('',(2.35,-0.5,0.2));
#574=CARTESIAN_POINT('',(2.35,0.5,1.95));
#575=CARTESIAN_POINT('',(2.35,0.5,1.95));
#576=CARTESIAN_POINT('',(2.35,0.5,0.2));
#577=CARTESIAN_POINT('',(2.35,0.2,1.65625));
#578=CARTESIAN_POINT('Origin',(2.35,0.2,1.75));
#579=CARTESIAN_POINT('',(2.35,3.36756519458021E-16,1.3555));
#580=CARTESIAN_POINT('Origin',(2.35,3.49676543189026E-16,1.25));
#581=CARTESIAN_POINT('Origin',(-3.04291591289468,3.49676543189026E-16,1.25));
#582=CARTESIAN_POINT('',(2.6,3.49676543189026E-16,1.1445));
#583=CARTESIAN_POINT('Origin',(2.6,3.49676543189026E-16,1.25));
#584=CARTESIAN_POINT('Origin',(-3.04291591289468,3.49676543189026E-16,1.25));
#585=CARTESIAN_POINT('',(-2.35,3.6259656692003E-16,1.3555));
#586=CARTESIAN_POINT('Origin',(-2.35,3.49676543189026E-16,1.25));
#587=CARTESIAN_POINT('',(-2.6,3.36756519458021E-16,1.3555));
#588=CARTESIAN_POINT('Origin',(-2.6,3.49676543189026E-16,1.25));
#589=CARTESIAN_POINT('Origin',(1.25,2.47505674091996E-17,0.));
#590=CARTESIAN_POINT('',(1.125,4.00586523985415E-17,0.));
#591=CARTESIAN_POINT('Origin',(1.25,2.47505674091996E-17,0.));
#592=CARTESIAN_POINT('Origin',(-1.25,3.30912267196038E-16,0.));
#593=CARTESIAN_POINT('',(-1.375,3.4622035218538E-16,0.));
#594=CARTESIAN_POINT('Origin',(-1.25,3.30912267196038E-16,0.));
#595=CARTESIAN_POINT('Origin',(2.6,0.2,1.75));
#596=CARTESIAN_POINT('',(2.6,0.2,1.65625));
#597=CARTESIAN_POINT('Origin',(2.6,0.2,1.75));
#598=CARTESIAN_POINT('Origin',(2.6,0.2,1.75));
#599=CARTESIAN_POINT('',(-2.35,0.2,1.65625));
#600=CARTESIAN_POINT('Origin',(-2.35,0.2,1.75));
#601=CARTESIAN_POINT('',(-2.6,0.2,1.65625));
#602=CARTESIAN_POINT('Origin',(-2.6,0.2,1.75));
#603=CARTESIAN_POINT('Origin',(2.35,-0.375,0.2));
#604=CARTESIAN_POINT('',(-2.35,-0.375000000000001,0.7));
#605=CARTESIAN_POINT('',(-2.35,-0.375000000000001,0.2));
#606=CARTESIAN_POINT('',(2.35,-0.375,0.7));
#607=CARTESIAN_POINT('Origin',(3.49676543189026E-16,-0.4375,0.7));
#608=CARTESIAN_POINT('',(-2.35,-0.5,0.7));
#609=CARTESIAN_POINT('',(-2.35,-0.5,0.7));
#610=CARTESIAN_POINT('',(-2.35,-0.46875,0.7));
#611=CARTESIAN_POINT('Origin',(-2.35,-0.5,0.2));
#612=CARTESIAN_POINT('',(-2.35,0.5,1.95));
#613=CARTESIAN_POINT('',(-2.35,0.5,0.2));
#614=CARTESIAN_POINT('',(-2.35,-0.5,1.95));
#615=CARTESIAN_POINT('',(-2.35,-0.5,1.95));
#616=CARTESIAN_POINT('',(-2.35,-0.5,0.2));
#617=CARTESIAN_POINT('Origin',(-2.475,0.,1.95));
#618=CARTESIAN_POINT('',(-2.6,0.5,1.95));
#619=CARTESIAN_POINT('',(-2.6,-0.5,1.95));
#620=CARTESIAN_POINT('',(-2.6,0.5,1.95));
#621=CARTESIAN_POINT('',(-2.6,-0.5,1.95));
#622=CARTESIAN_POINT('',(-2.35,0.5,1.95));
#623=CARTESIAN_POINT('Origin',(2.475,0.,1.95));
#624=CARTESIAN_POINT('',(2.6,0.5,1.95));
#625=CARTESIAN_POINT('',(2.6,0.5,1.95));
#626=CARTESIAN_POINT('',(2.6,-0.5,1.95));
#627=CARTESIAN_POINT('',(2.35,-0.5,1.95));
#628=CARTESIAN_POINT('',(2.6,-0.5,1.95));
#629=CARTESIAN_POINT('Origin',(2.6,-0.5,0.));
#630=CARTESIAN_POINT('',(2.6,0.5,0.));
#631=CARTESIAN_POINT('',(2.6,-0.5,0.));
#632=CARTESIAN_POINT('',(2.6,0.5,0.));
#633=CARTESIAN_POINT('',(2.6,0.5,0.));
#634=CARTESIAN_POINT('',(2.6,-0.5,0.));
#635=CARTESIAN_POINT('Origin',(-2.6,-0.5,0.));
#636=CARTESIAN_POINT('',(-2.6,-0.5,0.));
#637=CARTESIAN_POINT('',(2.6,-0.5,0.));
#638=CARTESIAN_POINT('',(-2.6,-0.5,0.));
#639=CARTESIAN_POINT('Origin',(-2.6,0.5,0.));
#640=CARTESIAN_POINT('',(-2.6,0.5,0.));
#641=CARTESIAN_POINT('',(-2.6,-0.5,0.));
#642=CARTESIAN_POINT('',(-2.6,0.5,0.));
#643=CARTESIAN_POINT('Origin',(2.6,0.5,0.));
#644=CARTESIAN_POINT('',(-2.6,0.5,0.));
#645=CARTESIAN_POINT('Origin',(0.,0.,0.));
#646=UNCERTAINTY_MEASURE_WITH_UNIT(LENGTH_MEASURE(0.000393700787401575),
#650,'DISTANCE_ACCURACY_VALUE',
'Maximum model space distance between geometric entities at asserted c
onnectivities');
#647=UNCERTAINTY_MEASURE_WITH_UNIT(LENGTH_MEASURE(1.E-6),#651,
'DISTANCE_ACCURACY_VALUE',
'Maximum model space distance between geometric entities at asserted c
onnectivities');
#648=(
GEOMETRIC_REPRESENTATION_CONTEXT(3)
GLOBAL_UNCERTAINTY_ASSIGNED_CONTEXT((#646))
GLOBAL_UNIT_ASSIGNED_CONTEXT((#650,#656,#653))
REPRESENTATION_CONTEXT('','3D')
);
#649=(
GEOMETRIC_REPRESENTATION_CONTEXT(3)
GLOBAL_UNCERTAINTY_ASSIGNED_CONTEXT((#647))
GLOBAL_UNIT_ASSIGNED_CONTEXT((#651,#656,#653))
REPRESENTATION_CONTEXT('','3D')
);
#650=(
CONVERSION_BASED_UNIT('__CONSTANT UNIT inch',#652)
LENGTH_UNIT()
NAMED_UNIT(#655)
);
#651=(
LENGTH_UNIT()
NAMED_UNIT(*)
SI_UNIT(.MILLI.,.METRE.)
);
#652=LENGTH_MEASURE_WITH_UNIT(LENGTH_MEASURE(25.4),#651);
#653=(
NAMED_UNIT(*)
SI_UNIT($,.STERADIAN.)
SOLID_ANGLE_UNIT()
);
#654=DIMENSIONAL_EXPONENTS(0.,0.,0.,0.,0.,0.,0.);
#655=DIMENSIONAL_EXPONENTS(1.,0.,0.,0.,0.,0.,0.);
#656=(
CONVERSION_BASED_UNIT('degree',#658)
NAMED_UNIT(#654)
PLANE_ANGLE_UNIT()
);
#657=(
NAMED_UNIT(*)
PLANE_ANGLE_UNIT()
SI_UNIT($,.RADIAN.)
);
#658=PLANE_ANGLE_MEASURE_WITH_UNIT(PLANE_ANGLE_MEASURE(0.01745329252),#657);
#659=SHAPE_DEFINITION_REPRESENTATION(#660,#661);
#660=PRODUCT_DEFINITION_SHAPE('',$,#663);
#661=SHAPE_REPRESENTATION('',(#398),#648);
#662=PRODUCT_DEFINITION_CONTEXT('part definition',#667,'design');
#663=PRODUCT_DEFINITION('U del columpio','U del columpio',#664,#662);
#664=PRODUCT_DEFINITION_FORMATION('',$,#669);
#665=PRODUCT_RELATED_PRODUCT_CATEGORY('U del columpio','U del columpio',
(#669));
#666=APPLICATION_PROTOCOL_DEFINITION('international standard',
'automotive_design',2009,#667);
#667=APPLICATION_CONTEXT(
'Core Data for Automotive Mechanical Design Process');
#668=PRODUCT_CONTEXT('part definition',#667,'mechanical');
#669=PRODUCT('U del columpio','U del columpio',$,(#668));
#670=PRESENTATION_STYLE_ASSIGNMENT((#671));
#671=SURFACE_STYLE_USAGE(.BOTH.,#672);
#672=SURFACE_SIDE_STYLE('',(#673));
#673=SURFACE_STYLE_FILL_AREA(#674);
#674=FILL_AREA_STYLE('',(#675));
#675=FILL_AREA_STYLE_COLOUR('',#676);
#676=COLOUR_RGB('',0.996078431372549,0.996078431372549,1.);
ENDSEC;
END-ISO-10303-21;
