ISO-10303-21;
HEADER;
/* Generated by software containing ST-Developer
 * from STEP Tools, Inc. (www.steptools.com) 
 */

FILE_DESCRIPTION(
/* description */ (''),
/* implementation_level */ '2;1');

FILE_NAME(
/* name */ 
'D:\\DiscoD\\Erbessd Instruments Proyects\\Proyectos 2020\\PIEZAS CHIN
AS EI30\\Link.stp',
/* time_stamp */ '2020-07-31T17:30:17-05:00',
/* author */ ('Armando'),
/* organization */ (''),
/* preprocessor_version */ 'ST-DEVELOPER v16.5',
/* originating_system */ 'Autodesk Inventor 2017',
/* authorisation */ '');

FILE_SCHEMA (('AUTOMOTIVE_DESIGN { 1 0 10303 214 3 1 1 }'));
ENDSEC;

DATA;
#10=MECHANICAL_DESIGN_GEOMETRIC_PRESENTATION_REPRESENTATION('',(#13),#405);
#11=SHAPE_REPRESENTATION_RELATIONSHIP('SRR','None',#417,#12);
#12=ADVANCED_BREP_SHAPE_REPRESENTATION('',(#14),#404);
#13=STYLED_ITEM('',(#426),#14);
#14=MANIFOLD_SOLID_BREP('S\X\F3lido1',#235);
#15=LINE('',#379,#27);
#16=LINE('',#381,#28);
#17=LINE('',#383,#29);
#18=LINE('',#384,#30);
#19=LINE('',#387,#31);
#20=LINE('',#389,#32);
#21=LINE('',#390,#33);
#22=LINE('',#393,#34);
#23=LINE('',#394,#35);
#24=LINE('',#397,#36);
#25=LINE('',#398,#37);
#26=LINE('',#400,#38);
#27=VECTOR('',#319,0.393700787401575);
#28=VECTOR('',#320,0.393700787401575);
#29=VECTOR('',#321,0.393700787401575);
#30=VECTOR('',#322,0.393700787401575);
#31=VECTOR('',#325,0.393700787401575);
#32=VECTOR('',#326,0.393700787401575);
#33=VECTOR('',#327,0.393700787401575);
#34=VECTOR('',#330,0.393700787401575);
#35=VECTOR('',#331,0.393700787401575);
#36=VECTOR('',#334,0.393700787401575);
#37=VECTOR('',#335,0.393700787401575);
#38=VECTOR('',#338,0.393700787401575);
#39=PLANE('',#249);
#40=PLANE('',#251);
#41=PLANE('',#259);
#42=PLANE('',#261);
#43=PLANE('',#265);
#44=PLANE('',#266);
#45=PLANE('',#267);
#46=PLANE('',#268);
#47=PLANE('',#269);
#48=PLANE('',#270);
#49=FACE_BOUND('',#80,.T.);
#50=FACE_BOUND('',#82,.T.);
#51=FACE_BOUND('',#84,.T.);
#52=FACE_BOUND('',#86,.T.);
#53=FACE_BOUND('',#88,.T.);
#54=FACE_BOUND('',#90,.T.);
#55=FACE_BOUND('',#92,.T.);
#56=FACE_BOUND('',#94,.T.);
#57=FACE_BOUND('',#96,.T.);
#58=FACE_BOUND('',#98,.T.);
#59=FACE_BOUND('',#100,.T.);
#60=FACE_BOUND('',#101,.T.);
#61=FACE_BOUND('',#107,.T.);
#62=FACE_BOUND('',#108,.T.);
#63=FACE_OUTER_BOUND('',#79,.T.);
#64=FACE_OUTER_BOUND('',#81,.T.);
#65=FACE_OUTER_BOUND('',#83,.T.);
#66=FACE_OUTER_BOUND('',#85,.T.);
#67=FACE_OUTER_BOUND('',#87,.T.);
#68=FACE_OUTER_BOUND('',#89,.T.);
#69=FACE_OUTER_BOUND('',#91,.T.);
#70=FACE_OUTER_BOUND('',#93,.T.);
#71=FACE_OUTER_BOUND('',#95,.T.);
#72=FACE_OUTER_BOUND('',#97,.T.);
#73=FACE_OUTER_BOUND('',#99,.T.);
#74=FACE_OUTER_BOUND('',#102,.T.);
#75=FACE_OUTER_BOUND('',#103,.T.);
#76=FACE_OUTER_BOUND('',#104,.T.);
#77=FACE_OUTER_BOUND('',#105,.T.);
#78=FACE_OUTER_BOUND('',#106,.T.);
#79=EDGE_LOOP('',(#165));
#80=EDGE_LOOP('',(#166));
#81=EDGE_LOOP('',(#167));
#82=EDGE_LOOP('',(#168));
#83=EDGE_LOOP('',(#169));
#84=EDGE_LOOP('',(#170));
#85=EDGE_LOOP('',(#171));
#86=EDGE_LOOP('',(#172));
#87=EDGE_LOOP('',(#173));
#88=EDGE_LOOP('',(#174));
#89=EDGE_LOOP('',(#175));
#90=EDGE_LOOP('',(#176));
#91=EDGE_LOOP('',(#177));
#92=EDGE_LOOP('',(#178));
#93=EDGE_LOOP('',(#179));
#94=EDGE_LOOP('',(#180));
#95=EDGE_LOOP('',(#181));
#96=EDGE_LOOP('',(#182));
#97=EDGE_LOOP('',(#183));
#98=EDGE_LOOP('',(#184));
#99=EDGE_LOOP('',(#185,#186,#187,#188));
#100=EDGE_LOOP('',(#189));
#101=EDGE_LOOP('',(#190));
#102=EDGE_LOOP('',(#191,#192,#193,#194));
#103=EDGE_LOOP('',(#195,#196,#197,#198));
#104=EDGE_LOOP('',(#199,#200,#201,#202));
#105=EDGE_LOOP('',(#203,#204,#205,#206));
#106=EDGE_LOOP('',(#207,#208,#209,#210));
#107=EDGE_LOOP('',(#211));
#108=EDGE_LOOP('',(#212));
#109=CIRCLE('',#244,0.1875);
#110=CIRCLE('',#245,0.1875);
#111=CIRCLE('',#247,0.1875);
#112=CIRCLE('',#248,0.1875);
#113=CIRCLE('',#250,0.125);
#114=CIRCLE('',#252,0.125);
#115=CIRCLE('',#254,0.1875);
#116=CIRCLE('',#255,0.1875);
#117=CIRCLE('',#257,0.1875);
#118=CIRCLE('',#258,0.1875);
#119=CIRCLE('',#260,0.125);
#120=CIRCLE('',#262,0.125);
#121=VERTEX_POINT('',#343);
#122=VERTEX_POINT('',#345);
#123=VERTEX_POINT('',#348);
#124=VERTEX_POINT('',#350);
#125=VERTEX_POINT('',#353);
#126=VERTEX_POINT('',#356);
#127=VERTEX_POINT('',#359);
#128=VERTEX_POINT('',#361);
#129=VERTEX_POINT('',#364);
#130=VERTEX_POINT('',#366);
#131=VERTEX_POINT('',#369);
#132=VERTEX_POINT('',#372);
#133=VERTEX_POINT('',#377);
#134=VERTEX_POINT('',#378);
#135=VERTEX_POINT('',#380);
#136=VERTEX_POINT('',#382);
#137=VERTEX_POINT('',#386);
#138=VERTEX_POINT('',#388);
#139=VERTEX_POINT('',#392);
#140=VERTEX_POINT('',#396);
#141=EDGE_CURVE('',#121,#121,#109,.T.);
#142=EDGE_CURVE('',#122,#122,#110,.T.);
#143=EDGE_CURVE('',#123,#123,#111,.T.);
#144=EDGE_CURVE('',#124,#124,#112,.T.);
#145=EDGE_CURVE('',#125,#125,#113,.T.);
#146=EDGE_CURVE('',#126,#126,#114,.T.);
#147=EDGE_CURVE('',#127,#127,#115,.T.);
#148=EDGE_CURVE('',#128,#128,#116,.T.);
#149=EDGE_CURVE('',#129,#129,#117,.T.);
#150=EDGE_CURVE('',#130,#130,#118,.T.);
#151=EDGE_CURVE('',#131,#131,#119,.T.);
#152=EDGE_CURVE('',#132,#132,#120,.T.);
#153=EDGE_CURVE('',#133,#134,#15,.T.);
#154=EDGE_CURVE('',#134,#135,#16,.T.);
#155=EDGE_CURVE('',#135,#136,#17,.T.);
#156=EDGE_CURVE('',#136,#133,#18,.T.);
#157=EDGE_CURVE('',#137,#134,#19,.T.);
#158=EDGE_CURVE('',#138,#137,#20,.T.);
#159=EDGE_CURVE('',#138,#135,#21,.T.);
#160=EDGE_CURVE('',#139,#138,#22,.T.);
#161=EDGE_CURVE('',#139,#136,#23,.T.);
#162=EDGE_CURVE('',#140,#139,#24,.T.);
#163=EDGE_CURVE('',#133,#140,#25,.T.);
#164=EDGE_CURVE('',#137,#140,#26,.T.);
#165=ORIENTED_EDGE('',*,*,#141,.F.);
#166=ORIENTED_EDGE('',*,*,#142,.F.);
#167=ORIENTED_EDGE('',*,*,#143,.F.);
#168=ORIENTED_EDGE('',*,*,#144,.F.);
#169=ORIENTED_EDGE('',*,*,#143,.T.);
#170=ORIENTED_EDGE('',*,*,#145,.T.);
#171=ORIENTED_EDGE('',*,*,#141,.T.);
#172=ORIENTED_EDGE('',*,*,#146,.T.);
#173=ORIENTED_EDGE('',*,*,#147,.F.);
#174=ORIENTED_EDGE('',*,*,#148,.F.);
#175=ORIENTED_EDGE('',*,*,#149,.F.);
#176=ORIENTED_EDGE('',*,*,#150,.F.);
#177=ORIENTED_EDGE('',*,*,#149,.T.);
#178=ORIENTED_EDGE('',*,*,#151,.T.);
#179=ORIENTED_EDGE('',*,*,#147,.T.);
#180=ORIENTED_EDGE('',*,*,#152,.T.);
#181=ORIENTED_EDGE('',*,*,#145,.F.);
#182=ORIENTED_EDGE('',*,*,#146,.F.);
#183=ORIENTED_EDGE('',*,*,#151,.F.);
#184=ORIENTED_EDGE('',*,*,#152,.F.);
#185=ORIENTED_EDGE('',*,*,#153,.T.);
#186=ORIENTED_EDGE('',*,*,#154,.T.);
#187=ORIENTED_EDGE('',*,*,#155,.T.);
#188=ORIENTED_EDGE('',*,*,#156,.T.);
#189=ORIENTED_EDGE('',*,*,#144,.T.);
#190=ORIENTED_EDGE('',*,*,#150,.T.);
#191=ORIENTED_EDGE('',*,*,#157,.F.);
#192=ORIENTED_EDGE('',*,*,#158,.F.);
#193=ORIENTED_EDGE('',*,*,#159,.T.);
#194=ORIENTED_EDGE('',*,*,#154,.F.);
#195=ORIENTED_EDGE('',*,*,#159,.F.);
#196=ORIENTED_EDGE('',*,*,#160,.F.);
#197=ORIENTED_EDGE('',*,*,#161,.T.);
#198=ORIENTED_EDGE('',*,*,#155,.F.);
#199=ORIENTED_EDGE('',*,*,#161,.F.);
#200=ORIENTED_EDGE('',*,*,#162,.F.);
#201=ORIENTED_EDGE('',*,*,#163,.F.);
#202=ORIENTED_EDGE('',*,*,#156,.F.);
#203=ORIENTED_EDGE('',*,*,#163,.T.);
#204=ORIENTED_EDGE('',*,*,#164,.F.);
#205=ORIENTED_EDGE('',*,*,#157,.T.);
#206=ORIENTED_EDGE('',*,*,#153,.F.);
#207=ORIENTED_EDGE('',*,*,#164,.T.);
#208=ORIENTED_EDGE('',*,*,#162,.T.);
#209=ORIENTED_EDGE('',*,*,#160,.T.);
#210=ORIENTED_EDGE('',*,*,#158,.T.);
#211=ORIENTED_EDGE('',*,*,#142,.T.);
#212=ORIENTED_EDGE('',*,*,#148,.T.);
#213=CYLINDRICAL_SURFACE('',#243,0.1875);
#214=CYLINDRICAL_SURFACE('',#246,0.1875);
#215=CYLINDRICAL_SURFACE('',#253,0.1875);
#216=CYLINDRICAL_SURFACE('',#256,0.1875);
#217=CYLINDRICAL_SURFACE('',#263,0.125);
#218=CYLINDRICAL_SURFACE('',#264,0.125);
#219=ADVANCED_FACE('',(#63,#49),#213,.T.);
#220=ADVANCED_FACE('',(#64,#50),#214,.T.);
#221=ADVANCED_FACE('',(#65,#51),#39,.F.);
#222=ADVANCED_FACE('',(#66,#52),#40,.T.);
#223=ADVANCED_FACE('',(#67,#53),#215,.T.);
#224=ADVANCED_FACE('',(#68,#54),#216,.T.);
#225=ADVANCED_FACE('',(#69,#55),#41,.F.);
#226=ADVANCED_FACE('',(#70,#56),#42,.T.);
#227=ADVANCED_FACE('',(#71,#57),#217,.F.);
#228=ADVANCED_FACE('',(#72,#58),#218,.F.);
#229=ADVANCED_FACE('',(#73,#59,#60),#43,.T.);
#230=ADVANCED_FACE('',(#74),#44,.T.);
#231=ADVANCED_FACE('',(#75),#45,.T.);
#232=ADVANCED_FACE('',(#76),#46,.T.);
#233=ADVANCED_FACE('',(#77),#47,.T.);
#234=ADVANCED_FACE('',(#78,#61,#62),#48,.T.);
#235=CLOSED_SHELL('',(#219,#220,#221,#222,#223,#224,#225,#226,#227,#228,
#229,#230,#231,#232,#233,#234));
#236=DATE_TIME_ROLE('creation_date');
#237=APPLIED_DATE_AND_TIME_ASSIGNMENT(#238,#236,(#419));
#238=DATE_AND_TIME(#239,#240);
#239=CALENDAR_DATE(2015,6,4);
#240=LOCAL_TIME(20,20,0.,#241);
#241=COORDINATED_UNIVERSAL_TIME_OFFSET(0,0,.BEHIND.);
#242=AXIS2_PLACEMENT_3D('placement',#341,#271,#272);
#243=AXIS2_PLACEMENT_3D('',#342,#273,#274);
#244=AXIS2_PLACEMENT_3D('',#344,#275,#276);
#245=AXIS2_PLACEMENT_3D('',#346,#277,#278);
#246=AXIS2_PLACEMENT_3D('',#347,#279,#280);
#247=AXIS2_PLACEMENT_3D('',#349,#281,#282);
#248=AXIS2_PLACEMENT_3D('',#351,#283,#284);
#249=AXIS2_PLACEMENT_3D('',#352,#285,#286);
#250=AXIS2_PLACEMENT_3D('',#354,#287,#288);
#251=AXIS2_PLACEMENT_3D('',#355,#289,#290);
#252=AXIS2_PLACEMENT_3D('',#357,#291,#292);
#253=AXIS2_PLACEMENT_3D('',#358,#293,#294);
#254=AXIS2_PLACEMENT_3D('',#360,#295,#296);
#255=AXIS2_PLACEMENT_3D('',#362,#297,#298);
#256=AXIS2_PLACEMENT_3D('',#363,#299,#300);
#257=AXIS2_PLACEMENT_3D('',#365,#301,#302);
#258=AXIS2_PLACEMENT_3D('',#367,#303,#304);
#259=AXIS2_PLACEMENT_3D('',#368,#305,#306);
#260=AXIS2_PLACEMENT_3D('',#370,#307,#308);
#261=AXIS2_PLACEMENT_3D('',#371,#309,#310);
#262=AXIS2_PLACEMENT_3D('',#373,#311,#312);
#263=AXIS2_PLACEMENT_3D('',#374,#313,#314);
#264=AXIS2_PLACEMENT_3D('',#375,#315,#316);
#265=AXIS2_PLACEMENT_3D('',#376,#317,#318);
#266=AXIS2_PLACEMENT_3D('',#385,#323,#324);
#267=AXIS2_PLACEMENT_3D('',#391,#328,#329);
#268=AXIS2_PLACEMENT_3D('',#395,#332,#333);
#269=AXIS2_PLACEMENT_3D('',#399,#336,#337);
#270=AXIS2_PLACEMENT_3D('',#401,#339,#340);
#271=DIRECTION('axis',(0.,0.,1.));
#272=DIRECTION('refdir',(1.,0.,0.));
#273=DIRECTION('center_axis',(0.,0.,1.));
#274=DIRECTION('ref_axis',(-1.,0.,0.));
#275=DIRECTION('center_axis',(0.,0.,1.));
#276=DIRECTION('ref_axis',(-1.,0.,0.));
#277=DIRECTION('center_axis',(0.,0.,-1.));
#278=DIRECTION('ref_axis',(-1.,0.,0.));
#279=DIRECTION('center_axis',(0.,0.,1.));
#280=DIRECTION('ref_axis',(-1.,0.,0.));
#281=DIRECTION('center_axis',(0.,0.,-1.));
#282=DIRECTION('ref_axis',(-1.,0.,0.));
#283=DIRECTION('center_axis',(0.,0.,1.));
#284=DIRECTION('ref_axis',(-1.,0.,0.));
#285=DIRECTION('center_axis',(0.,0.,1.));
#286=DIRECTION('ref_axis',(1.,0.,0.));
#287=DIRECTION('center_axis',(0.,0.,1.));
#288=DIRECTION('ref_axis',(-1.,0.,0.));
#289=DIRECTION('center_axis',(0.,0.,1.));
#290=DIRECTION('ref_axis',(1.,0.,0.));
#291=DIRECTION('center_axis',(0.,0.,-1.));
#292=DIRECTION('ref_axis',(-1.,0.,0.));
#293=DIRECTION('center_axis',(0.,0.,1.));
#294=DIRECTION('ref_axis',(-1.,0.,0.));
#295=DIRECTION('center_axis',(0.,0.,1.));
#296=DIRECTION('ref_axis',(-1.,0.,0.));
#297=DIRECTION('center_axis',(0.,0.,-1.));
#298=DIRECTION('ref_axis',(-1.,0.,0.));
#299=DIRECTION('center_axis',(0.,0.,1.));
#300=DIRECTION('ref_axis',(-1.,0.,0.));
#301=DIRECTION('center_axis',(0.,0.,-1.));
#302=DIRECTION('ref_axis',(-1.,0.,0.));
#303=DIRECTION('center_axis',(0.,0.,1.));
#304=DIRECTION('ref_axis',(-1.,0.,0.));
#305=DIRECTION('center_axis',(0.,0.,1.));
#306=DIRECTION('ref_axis',(1.,0.,0.));
#307=DIRECTION('center_axis',(0.,0.,1.));
#308=DIRECTION('ref_axis',(-1.,0.,0.));
#309=DIRECTION('center_axis',(0.,0.,1.));
#310=DIRECTION('ref_axis',(1.,0.,0.));
#311=DIRECTION('center_axis',(0.,0.,-1.));
#312=DIRECTION('ref_axis',(-1.,0.,0.));
#313=DIRECTION('center_axis',(0.,0.,1.));
#314=DIRECTION('ref_axis',(-1.,0.,0.));
#315=DIRECTION('center_axis',(0.,0.,1.));
#316=DIRECTION('ref_axis',(-1.,0.,0.));
#317=DIRECTION('center_axis',(0.,0.,-1.));
#318=DIRECTION('ref_axis',(-1.,0.,0.));
#319=DIRECTION('',(1.,0.,0.));
#320=DIRECTION('',(0.,-1.,0.));
#321=DIRECTION('',(-1.,0.,0.));
#322=DIRECTION('',(0.,1.,0.));
#323=DIRECTION('center_axis',(1.,0.,0.));
#324=DIRECTION('ref_axis',(0.,1.,0.));
#325=DIRECTION('',(0.,0.,-1.));
#326=DIRECTION('',(0.,1.,0.));
#327=DIRECTION('',(0.,0.,-1.));
#328=DIRECTION('center_axis',(0.,-1.,0.));
#329=DIRECTION('ref_axis',(1.,0.,0.));
#330=DIRECTION('',(1.,0.,0.));
#331=DIRECTION('',(0.,0.,-1.));
#332=DIRECTION('center_axis',(-1.,0.,0.));
#333=DIRECTION('ref_axis',(0.,-1.,0.));
#334=DIRECTION('',(0.,-1.,0.));
#335=DIRECTION('',(0.,0.,1.));
#336=DIRECTION('center_axis',(0.,1.,0.));
#337=DIRECTION('ref_axis',(-1.,0.,0.));
#338=DIRECTION('',(-1.,0.,0.));
#339=DIRECTION('center_axis',(0.,0.,1.));
#340=DIRECTION('ref_axis',(1.,0.,0.));
#341=CARTESIAN_POINT('',(0.,0.,0.));
#342=CARTESIAN_POINT('Origin',(3.73969520170688E-16,-0.765,0.));
#343=CARTESIAN_POINT('',(0.1875,-0.765,0.205));
#344=CARTESIAN_POINT('Origin',(3.73969520170688E-16,-0.765,0.205));
#345=CARTESIAN_POINT('',(0.1875,-0.765,0.125));
#346=CARTESIAN_POINT('Origin',(3.73969520170688E-16,-0.765,0.125));
#347=CARTESIAN_POINT('Origin',(3.73969520170688E-16,-0.765,0.));
#348=CARTESIAN_POINT('',(0.1875,-0.765,-0.205));
#349=CARTESIAN_POINT('Origin',(3.73969520170688E-16,-0.765,-0.205));
#350=CARTESIAN_POINT('',(0.1875,-0.765,-0.125));
#351=CARTESIAN_POINT('Origin',(3.73969520170688E-16,-0.765,-0.125));
#352=CARTESIAN_POINT('Origin',(3.53158384753105E-16,-0.765,-0.205));
#353=CARTESIAN_POINT('',(0.125,-0.765,-0.205));
#354=CARTESIAN_POINT('Origin',(3.73969520170688E-16,-0.765,-0.205));
#355=CARTESIAN_POINT('Origin',(3.53158384753105E-16,-0.765,0.205));
#356=CARTESIAN_POINT('',(0.125,-0.765,0.205));
#357=CARTESIAN_POINT('Origin',(3.73969520170688E-16,-0.765,0.205));
#358=CARTESIAN_POINT('Origin',(-7.72400368402429E-19,0.765,0.));
#359=CARTESIAN_POINT('',(0.1875,0.765,0.24));
#360=CARTESIAN_POINT('Origin',(-7.72400368402429E-19,0.765,0.24));
#361=CARTESIAN_POINT('',(0.1875,0.765,0.125));
#362=CARTESIAN_POINT('Origin',(-7.72400368402429E-19,0.765,0.125));
#363=CARTESIAN_POINT('Origin',(-7.72400368402429E-19,0.765,0.));
#364=CARTESIAN_POINT('',(0.1875,0.765,-0.24));
#365=CARTESIAN_POINT('Origin',(-7.72400368402429E-19,0.765,-0.24));
#366=CARTESIAN_POINT('',(0.1875,0.765,-0.125));
#367=CARTESIAN_POINT('Origin',(-7.72400368402429E-19,0.765,-0.125));
#368=CARTESIAN_POINT('Origin',(-1.73386807283326E-17,0.765,-0.24));
#369=CARTESIAN_POINT('',(0.125,0.765,-0.24));
#370=CARTESIAN_POINT('Origin',(-7.72400368402429E-19,0.765,-0.24));
#371=CARTESIAN_POINT('Origin',(-1.73386807283326E-17,0.765,0.24));
#372=CARTESIAN_POINT('',(0.125,0.765,0.24));
#373=CARTESIAN_POINT('Origin',(-7.72400368402429E-19,0.765,0.24));
#374=CARTESIAN_POINT('Origin',(3.73969520170688E-16,-0.765,0.));
#375=CARTESIAN_POINT('Origin',(-7.72400368402429E-19,0.765,0.));
#376=CARTESIAN_POINT('Origin',(0.,0.,-0.125));
#377=CARTESIAN_POINT('',(-0.25,1.,-0.125));
#378=CARTESIAN_POINT('',(0.25,1.,-0.125));
#379=CARTESIAN_POINT('',(-0.25,1.,-0.125));
#380=CARTESIAN_POINT('',(0.25,-1.,-0.125));
#381=CARTESIAN_POINT('',(0.25,1.,-0.125));
#382=CARTESIAN_POINT('',(-0.25,-1.,-0.125));
#383=CARTESIAN_POINT('',(0.25,-1.,-0.125));
#384=CARTESIAN_POINT('',(-0.25,-1.,-0.125));
#385=CARTESIAN_POINT('Origin',(0.25,-1.,0.));
#386=CARTESIAN_POINT('',(0.25,1.,0.125));
#387=CARTESIAN_POINT('',(0.25,1.,0.));
#388=CARTESIAN_POINT('',(0.25,-1.,0.125));
#389=CARTESIAN_POINT('',(0.25,1.,0.125));
#390=CARTESIAN_POINT('',(0.25,-1.,0.));
#391=CARTESIAN_POINT('Origin',(-0.25,-1.,0.));
#392=CARTESIAN_POINT('',(-0.25,-1.,0.125));
#393=CARTESIAN_POINT('',(0.25,-1.,0.125));
#394=CARTESIAN_POINT('',(-0.25,-1.,0.));
#395=CARTESIAN_POINT('Origin',(-0.25,1.,0.));
#396=CARTESIAN_POINT('',(-0.25,1.,0.125));
#397=CARTESIAN_POINT('',(-0.25,-1.,0.125));
#398=CARTESIAN_POINT('',(-0.25,1.,0.));
#399=CARTESIAN_POINT('Origin',(0.25,1.,0.));
#400=CARTESIAN_POINT('',(-0.25,1.,0.125));
#401=CARTESIAN_POINT('Origin',(0.,0.,0.125));
#402=UNCERTAINTY_MEASURE_WITH_UNIT(LENGTH_MEASURE(0.000393700787401575),
#406,'DISTANCE_ACCURACY_VALUE',
'Maximum model space distance between geometric entities at asserted c
onnectivities');
#403=UNCERTAINTY_MEASURE_WITH_UNIT(LENGTH_MEASURE(1.E-6),#407,
'DISTANCE_ACCURACY_VALUE',
'Maximum model space distance between geometric entities at asserted c
onnectivities');
#404=(
GEOMETRIC_REPRESENTATION_CONTEXT(3)
GLOBAL_UNCERTAINTY_ASSIGNED_CONTEXT((#402))
GLOBAL_UNIT_ASSIGNED_CONTEXT((#406,#412,#409))
REPRESENTATION_CONTEXT('','3D')
);
#405=(
GEOMETRIC_REPRESENTATION_CONTEXT(3)
GLOBAL_UNCERTAINTY_ASSIGNED_CONTEXT((#403))
GLOBAL_UNIT_ASSIGNED_CONTEXT((#407,#412,#409))
REPRESENTATION_CONTEXT('','3D')
);
#406=(
CONVERSION_BASED_UNIT('__CONSTANT UNIT inch',#408)
LENGTH_UNIT()
NAMED_UNIT(#411)
);
#407=(
LENGTH_UNIT()
NAMED_UNIT(*)
SI_UNIT(.MILLI.,.METRE.)
);
#408=LENGTH_MEASURE_WITH_UNIT(LENGTH_MEASURE(25.4),#407);
#409=(
NAMED_UNIT(*)
SI_UNIT($,.STERADIAN.)
SOLID_ANGLE_UNIT()
);
#410=DIMENSIONAL_EXPONENTS(0.,0.,0.,0.,0.,0.,0.);
#411=DIMENSIONAL_EXPONENTS(1.,0.,0.,0.,0.,0.,0.);
#412=(
CONVERSION_BASED_UNIT('degree',#414)
NAMED_UNIT(#410)
PLANE_ANGLE_UNIT()
);
#413=(
NAMED_UNIT(*)
PLANE_ANGLE_UNIT()
SI_UNIT($,.RADIAN.)
);
#414=PLANE_ANGLE_MEASURE_WITH_UNIT(PLANE_ANGLE_MEASURE(0.01745329252),#413);
#415=SHAPE_DEFINITION_REPRESENTATION(#416,#417);
#416=PRODUCT_DEFINITION_SHAPE('',$,#419);
#417=SHAPE_REPRESENTATION('',(#242),#404);
#418=PRODUCT_DEFINITION_CONTEXT('part definition',#423,'design');
#419=PRODUCT_DEFINITION('Colgante','Colgante',#420,#418);
#420=PRODUCT_DEFINITION_FORMATION('',$,#425);
#421=PRODUCT_RELATED_PRODUCT_CATEGORY('Colgante','Colgante',(#425));
#422=APPLICATION_PROTOCOL_DEFINITION('international standard',
'automotive_design',2009,#423);
#423=APPLICATION_CONTEXT(
'Core Data for Automotive Mechanical Design Process');
#424=PRODUCT_CONTEXT('part definition',#423,'mechanical');
#425=PRODUCT('Colgante','Colgante',$,(#424));
#426=PRESENTATION_STYLE_ASSIGNMENT((#427));
#427=SURFACE_STYLE_USAGE(.BOTH.,#428);
#428=SURFACE_SIDE_STYLE('',(#429));
#429=SURFACE_STYLE_FILL_AREA(#430);
#430=FILL_AREA_STYLE('',(#431));
#431=FILL_AREA_STYLE_COLOUR('',#432);
#432=COLOUR_RGB('',0.898039215686275,0.898039215686275,0.898039215686275);
ENDSEC;
END-ISO-10303-21;
