ISO-10303-21;
HEADER;
/* Generated by software containing ST-Developer
 * from STEP Tools, Inc. (www.steptools.com) 
 */

FILE_DESCRIPTION(
/* description */ (''),
/* implementation_level */ '2;1');

FILE_NAME(
/* name */ 
'C:\\Users\\BestBuy2067\\Desktop\\PIEZAS EI30 CHINA\\Archivos STEP\\ax
ial2contra-prueba.stp',
/* time_stamp */ '2020-08-03T09:25:35-05:00',
/* author */ ('EI'),
/* organization */ (''),
/* preprocessor_version */ 'ST-DEVELOPER v16.5',
/* originating_system */ 'Autodesk Inventor 2017',
/* authorisation */ '');

FILE_SCHEMA (('AUTOMOTIVE_DESIGN { 1 0 10303 214 3 1 1 }'));
ENDSEC;

DATA;
#10=MECHANICAL_DESIGN_GEOMETRIC_PRESENTATION_REPRESENTATION('',(#13),#579);
#11=SHAPE_REPRESENTATION_RELATIONSHIP('SRR','None',#591,#12);
#12=ADVANCED_BREP_SHAPE_REPRESENTATION('',(#14),#578);
#13=STYLED_ITEM('',(#600),#14);
#14=MANIFOLD_SOLID_BREP('S\X\F3lido1',#323);
#15=PLANE('',#342);
#16=PLANE('',#346);
#17=PLANE('',#351);
#18=PLANE('',#353);
#19=PLANE('',#355);
#20=PLANE('',#359);
#21=PLANE('',#360);
#22=LINE('',#519,#42);
#23=LINE('',#522,#43);
#24=LINE('',#525,#44);
#25=LINE('',#529,#45);
#26=LINE('',#533,#46);
#27=LINE('',#536,#47);
#28=LINE('',#539,#48);
#29=LINE('',#540,#49);
#30=LINE('',#544,#50);
#31=LINE('',#549,#51);
#32=LINE('',#550,#52);
#33=LINE('',#553,#53);
#34=LINE('',#557,#54);
#35=LINE('',#559,#55);
#36=LINE('',#560,#56);
#37=LINE('',#562,#57);
#38=LINE('',#564,#58);
#39=LINE('',#567,#59);
#40=LINE('',#569,#60);
#41=LINE('',#570,#61);
#42=VECTOR('',#395,0.393700787401575);
#43=VECTOR('',#398,0.393700787401575);
#44=VECTOR('',#401,0.393700787401575);
#45=VECTOR('',#404,0.393700787401575);
#46=VECTOR('',#407,0.393700787401575);
#47=VECTOR('',#410,0.393700787401575);
#48=VECTOR('',#413,0.393700787401575);
#49=VECTOR('',#414,0.393700787401575);
#50=VECTOR('',#419,0.393700787401575);
#51=VECTOR('',#424,0.393700787401575);
#52=VECTOR('',#425,0.393700787401575);
#53=VECTOR('',#428,0.393700787401575);
#54=VECTOR('',#431,0.393700787401575);
#55=VECTOR('',#432,0.393700787401575);
#56=VECTOR('',#433,0.393700787401575);
#57=VECTOR('',#436,0.393700787401575);
#58=VECTOR('',#439,0.393700787401575);
#59=VECTOR('',#442,0.393700787401575);
#60=VECTOR('',#443,0.393700787401575);
#61=VECTOR('',#444,0.393700787401575);
#62=FACE_BOUND('',#114,.T.);
#63=FACE_BOUND('',#116,.T.);
#64=FACE_BOUND('',#118,.T.);
#65=FACE_BOUND('',#120,.T.);
#66=FACE_BOUND('',#122,.T.);
#67=FACE_BOUND('',#123,.T.);
#68=FACE_BOUND('',#126,.T.);
#69=FACE_BOUND('',#127,.T.);
#70=FACE_BOUND('',#128,.T.);
#71=FACE_BOUND('',#129,.T.);
#72=FACE_BOUND('',#134,.T.);
#73=FACE_BOUND('',#135,.T.);
#74=FACE_BOUND('',#136,.T.);
#75=FACE_BOUND('',#138,.T.);
#76=FACE_BOUND('',#141,.T.);
#77=CIRCLE('',#326,0.097);
#78=CIRCLE('',#328,0.097);
#79=CIRCLE('',#329,0.097);
#80=CIRCLE('',#331,0.097);
#81=CIRCLE('',#332,0.097);
#82=CIRCLE('',#334,0.097);
#83=CIRCLE('',#335,0.097);
#84=CIRCLE('',#337,0.25);
#85=CIRCLE('',#338,0.25);
#86=CIRCLE('',#340,0.125);
#87=CIRCLE('',#341,0.125);
#88=CIRCLE('',#343,0.125);
#89=CIRCLE('',#344,0.125);
#90=CIRCLE('',#345,0.125);
#91=CIRCLE('',#348,0.125);
#92=CIRCLE('',#350,0.125);
#93=CIRCLE('',#352,0.125);
#94=CIRCLE('',#357,0.375);
#95=CIRCLE('',#358,0.375);
#96=FACE_OUTER_BOUND('',#113,.T.);
#97=FACE_OUTER_BOUND('',#115,.T.);
#98=FACE_OUTER_BOUND('',#117,.T.);
#99=FACE_OUTER_BOUND('',#119,.T.);
#100=FACE_OUTER_BOUND('',#121,.T.);
#101=FACE_OUTER_BOUND('',#124,.T.);
#102=FACE_OUTER_BOUND('',#125,.T.);
#103=FACE_OUTER_BOUND('',#130,.T.);
#104=FACE_OUTER_BOUND('',#131,.T.);
#105=FACE_OUTER_BOUND('',#132,.T.);
#106=FACE_OUTER_BOUND('',#133,.T.);
#107=FACE_OUTER_BOUND('',#137,.T.);
#108=FACE_OUTER_BOUND('',#139,.T.);
#109=FACE_OUTER_BOUND('',#140,.T.);
#110=FACE_OUTER_BOUND('',#142,.T.);
#111=FACE_OUTER_BOUND('',#143,.T.);
#112=FACE_OUTER_BOUND('',#144,.T.);
#113=EDGE_LOOP('',(#216));
#114=EDGE_LOOP('',(#217));
#115=EDGE_LOOP('',(#218));
#116=EDGE_LOOP('',(#219));
#117=EDGE_LOOP('',(#220));
#118=EDGE_LOOP('',(#221));
#119=EDGE_LOOP('',(#222));
#120=EDGE_LOOP('',(#223));
#121=EDGE_LOOP('',(#224));
#122=EDGE_LOOP('',(#225));
#123=EDGE_LOOP('',(#226));
#124=EDGE_LOOP('',(#227,#228,#229,#230));
#125=EDGE_LOOP('',(#231,#232,#233,#234,#235,#236,#237,#238));
#126=EDGE_LOOP('',(#239));
#127=EDGE_LOOP('',(#240));
#128=EDGE_LOOP('',(#241));
#129=EDGE_LOOP('',(#242));
#130=EDGE_LOOP('',(#243,#244,#245,#246));
#131=EDGE_LOOP('',(#247,#248,#249,#250));
#132=EDGE_LOOP('',(#251,#252,#253,#254));
#133=EDGE_LOOP('',(#255,#256,#257,#258,#259,#260));
#134=EDGE_LOOP('',(#261));
#135=EDGE_LOOP('',(#262));
#136=EDGE_LOOP('',(#263));
#137=EDGE_LOOP('',(#264,#265,#266,#267));
#138=EDGE_LOOP('',(#268));
#139=EDGE_LOOP('',(#269,#270,#271,#272));
#140=EDGE_LOOP('',(#273,#274,#275,#276,#277,#278));
#141=EDGE_LOOP('',(#279));
#142=EDGE_LOOP('',(#280,#281,#282,#283));
#143=EDGE_LOOP('',(#284,#285,#286,#287,#288,#289));
#144=EDGE_LOOP('',(#290,#291,#292,#293,#294,#295));
#145=B_SPLINE_CURVE_WITH_KNOTS('',3,(#458,#459,#460,#461,#462,#463,#464,
#465,#466,#467,#468,#469,#470,#471,#472,#473,#474,#475,#476,#477,#478,#479,
#480,#481,#482,#483,#484,#485,#486,#487,#488,#489,#490,#491),
 .UNSPECIFIED.,.T.,.F.,(4,2,2,2,2,2,2,2,2,2,2,2,2,2,2,2,4),(0.,0.0939284853819285,
0.187856970763857,0.281702166901806,0.375547363039756,0.469392559177705,
0.563237755315654,0.657166240697583,0.751094726079511,0.84502321146144,
0.938951696843368,1.03279689298132,1.12664208911927,1.22048728525722,1.31433248139517,
1.40826096677709,1.50218945215902),.UNSPECIFIED.);
#146=VERTEX_POINT('',#457);
#147=VERTEX_POINT('',#492);
#148=VERTEX_POINT('',#495);
#149=VERTEX_POINT('',#497);
#150=VERTEX_POINT('',#500);
#151=VERTEX_POINT('',#502);
#152=VERTEX_POINT('',#505);
#153=VERTEX_POINT('',#507);
#154=VERTEX_POINT('',#510);
#155=VERTEX_POINT('',#512);
#156=VERTEX_POINT('',#515);
#157=VERTEX_POINT('',#516);
#158=VERTEX_POINT('',#518);
#159=VERTEX_POINT('',#520);
#160=VERTEX_POINT('',#524);
#161=VERTEX_POINT('',#526);
#162=VERTEX_POINT('',#528);
#163=VERTEX_POINT('',#530);
#164=VERTEX_POINT('',#532);
#165=VERTEX_POINT('',#534);
#166=VERTEX_POINT('',#538);
#167=VERTEX_POINT('',#542);
#168=VERTEX_POINT('',#546);
#169=VERTEX_POINT('',#547);
#170=VERTEX_POINT('',#552);
#171=VERTEX_POINT('',#554);
#172=VERTEX_POINT('',#556);
#173=VERTEX_POINT('',#558);
#174=VERTEX_POINT('',#566);
#175=VERTEX_POINT('',#568);
#176=EDGE_CURVE('',#146,#146,#145,.T.);
#177=EDGE_CURVE('',#147,#147,#77,.T.);
#178=EDGE_CURVE('',#148,#148,#78,.T.);
#179=EDGE_CURVE('',#149,#149,#79,.T.);
#180=EDGE_CURVE('',#150,#150,#80,.T.);
#181=EDGE_CURVE('',#151,#151,#81,.T.);
#182=EDGE_CURVE('',#152,#152,#82,.T.);
#183=EDGE_CURVE('',#153,#153,#83,.T.);
#184=EDGE_CURVE('',#154,#154,#84,.T.);
#185=EDGE_CURVE('',#155,#155,#85,.T.);
#186=EDGE_CURVE('',#156,#157,#86,.T.);
#187=EDGE_CURVE('',#157,#158,#22,.T.);
#188=EDGE_CURVE('',#158,#159,#87,.T.);
#189=EDGE_CURVE('',#159,#156,#23,.T.);
#190=EDGE_CURVE('',#160,#156,#24,.T.);
#191=EDGE_CURVE('',#161,#160,#88,.T.);
#192=EDGE_CURVE('',#161,#162,#25,.T.);
#193=EDGE_CURVE('',#163,#162,#89,.T.);
#194=EDGE_CURVE('',#163,#164,#26,.T.);
#195=EDGE_CURVE('',#165,#164,#90,.T.);
#196=EDGE_CURVE('',#157,#165,#27,.T.);
#197=EDGE_CURVE('',#166,#159,#28,.T.);
#198=EDGE_CURVE('',#160,#166,#29,.T.);
#199=EDGE_CURVE('',#166,#167,#91,.T.);
#200=EDGE_CURVE('',#167,#161,#30,.T.);
#201=EDGE_CURVE('',#168,#169,#92,.T.);
#202=EDGE_CURVE('',#169,#165,#31,.T.);
#203=EDGE_CURVE('',#164,#168,#32,.T.);
#204=EDGE_CURVE('',#170,#168,#33,.T.);
#205=EDGE_CURVE('',#171,#170,#93,.T.);
#206=EDGE_CURVE('',#171,#172,#34,.T.);
#207=EDGE_CURVE('',#172,#173,#35,.T.);
#208=EDGE_CURVE('',#169,#173,#36,.T.);
#209=EDGE_CURVE('',#170,#163,#37,.T.);
#210=EDGE_CURVE('',#162,#171,#38,.T.);
#211=EDGE_CURVE('',#174,#158,#39,.T.);
#212=EDGE_CURVE('',#175,#174,#40,.T.);
#213=EDGE_CURVE('',#175,#167,#41,.T.);
#214=EDGE_CURVE('',#172,#175,#94,.T.);
#215=EDGE_CURVE('',#173,#174,#95,.T.);
#216=ORIENTED_EDGE('',*,*,#176,.F.);
#217=ORIENTED_EDGE('',*,*,#177,.F.);
#218=ORIENTED_EDGE('',*,*,#178,.F.);
#219=ORIENTED_EDGE('',*,*,#179,.F.);
#220=ORIENTED_EDGE('',*,*,#180,.F.);
#221=ORIENTED_EDGE('',*,*,#181,.F.);
#222=ORIENTED_EDGE('',*,*,#182,.F.);
#223=ORIENTED_EDGE('',*,*,#183,.F.);
#224=ORIENTED_EDGE('',*,*,#184,.F.);
#225=ORIENTED_EDGE('',*,*,#176,.T.);
#226=ORIENTED_EDGE('',*,*,#185,.F.);
#227=ORIENTED_EDGE('',*,*,#186,.T.);
#228=ORIENTED_EDGE('',*,*,#187,.T.);
#229=ORIENTED_EDGE('',*,*,#188,.T.);
#230=ORIENTED_EDGE('',*,*,#189,.T.);
#231=ORIENTED_EDGE('',*,*,#186,.F.);
#232=ORIENTED_EDGE('',*,*,#190,.F.);
#233=ORIENTED_EDGE('',*,*,#191,.F.);
#234=ORIENTED_EDGE('',*,*,#192,.T.);
#235=ORIENTED_EDGE('',*,*,#193,.F.);
#236=ORIENTED_EDGE('',*,*,#194,.T.);
#237=ORIENTED_EDGE('',*,*,#195,.F.);
#238=ORIENTED_EDGE('',*,*,#196,.F.);
#239=ORIENTED_EDGE('',*,*,#178,.T.);
#240=ORIENTED_EDGE('',*,*,#180,.T.);
#241=ORIENTED_EDGE('',*,*,#182,.T.);
#242=ORIENTED_EDGE('',*,*,#185,.T.);
#243=ORIENTED_EDGE('',*,*,#189,.F.);
#244=ORIENTED_EDGE('',*,*,#197,.F.);
#245=ORIENTED_EDGE('',*,*,#198,.F.);
#246=ORIENTED_EDGE('',*,*,#190,.T.);
#247=ORIENTED_EDGE('',*,*,#191,.T.);
#248=ORIENTED_EDGE('',*,*,#198,.T.);
#249=ORIENTED_EDGE('',*,*,#199,.T.);
#250=ORIENTED_EDGE('',*,*,#200,.T.);
#251=ORIENTED_EDGE('',*,*,#201,.T.);
#252=ORIENTED_EDGE('',*,*,#202,.T.);
#253=ORIENTED_EDGE('',*,*,#195,.T.);
#254=ORIENTED_EDGE('',*,*,#203,.T.);
#255=ORIENTED_EDGE('',*,*,#201,.F.);
#256=ORIENTED_EDGE('',*,*,#204,.F.);
#257=ORIENTED_EDGE('',*,*,#205,.F.);
#258=ORIENTED_EDGE('',*,*,#206,.T.);
#259=ORIENTED_EDGE('',*,*,#207,.T.);
#260=ORIENTED_EDGE('',*,*,#208,.F.);
#261=ORIENTED_EDGE('',*,*,#179,.T.);
#262=ORIENTED_EDGE('',*,*,#181,.T.);
#263=ORIENTED_EDGE('',*,*,#184,.T.);
#264=ORIENTED_EDGE('',*,*,#203,.F.);
#265=ORIENTED_EDGE('',*,*,#194,.F.);
#266=ORIENTED_EDGE('',*,*,#209,.F.);
#267=ORIENTED_EDGE('',*,*,#204,.T.);
#268=ORIENTED_EDGE('',*,*,#177,.T.);
#269=ORIENTED_EDGE('',*,*,#205,.T.);
#270=ORIENTED_EDGE('',*,*,#209,.T.);
#271=ORIENTED_EDGE('',*,*,#193,.T.);
#272=ORIENTED_EDGE('',*,*,#210,.T.);
#273=ORIENTED_EDGE('',*,*,#188,.F.);
#274=ORIENTED_EDGE('',*,*,#211,.F.);
#275=ORIENTED_EDGE('',*,*,#212,.F.);
#276=ORIENTED_EDGE('',*,*,#213,.T.);
#277=ORIENTED_EDGE('',*,*,#199,.F.);
#278=ORIENTED_EDGE('',*,*,#197,.T.);
#279=ORIENTED_EDGE('',*,*,#183,.T.);
#280=ORIENTED_EDGE('',*,*,#214,.T.);
#281=ORIENTED_EDGE('',*,*,#212,.T.);
#282=ORIENTED_EDGE('',*,*,#215,.F.);
#283=ORIENTED_EDGE('',*,*,#207,.F.);
#284=ORIENTED_EDGE('',*,*,#187,.F.);
#285=ORIENTED_EDGE('',*,*,#196,.T.);
#286=ORIENTED_EDGE('',*,*,#202,.F.);
#287=ORIENTED_EDGE('',*,*,#208,.T.);
#288=ORIENTED_EDGE('',*,*,#215,.T.);
#289=ORIENTED_EDGE('',*,*,#211,.T.);
#290=ORIENTED_EDGE('',*,*,#200,.F.);
#291=ORIENTED_EDGE('',*,*,#213,.F.);
#292=ORIENTED_EDGE('',*,*,#214,.F.);
#293=ORIENTED_EDGE('',*,*,#206,.F.);
#294=ORIENTED_EDGE('',*,*,#210,.F.);
#295=ORIENTED_EDGE('',*,*,#192,.F.);
#296=CYLINDRICAL_SURFACE('',#325,0.097);
#297=CYLINDRICAL_SURFACE('',#327,0.097);
#298=CYLINDRICAL_SURFACE('',#330,0.097);
#299=CYLINDRICAL_SURFACE('',#333,0.097);
#300=CYLINDRICAL_SURFACE('',#336,0.25);
#301=CYLINDRICAL_SURFACE('',#339,0.125);
#302=CYLINDRICAL_SURFACE('',#347,0.125);
#303=CYLINDRICAL_SURFACE('',#349,0.125);
#304=CYLINDRICAL_SURFACE('',#354,0.125);
#305=CYLINDRICAL_SURFACE('',#356,0.375);
#306=ADVANCED_FACE('',(#96,#62),#296,.F.);
#307=ADVANCED_FACE('',(#97,#63),#297,.F.);
#308=ADVANCED_FACE('',(#98,#64),#298,.F.);
#309=ADVANCED_FACE('',(#99,#65),#299,.F.);
#310=ADVANCED_FACE('',(#100,#66,#67),#300,.F.);
#311=ADVANCED_FACE('',(#101),#301,.T.);
#312=ADVANCED_FACE('',(#102,#68,#69,#70,#71),#15,.T.);
#313=ADVANCED_FACE('',(#103),#16,.T.);
#314=ADVANCED_FACE('',(#104),#302,.T.);
#315=ADVANCED_FACE('',(#105),#303,.T.);
#316=ADVANCED_FACE('',(#106,#72,#73,#74),#17,.T.);
#317=ADVANCED_FACE('',(#107,#75),#18,.T.);
#318=ADVANCED_FACE('',(#108),#304,.T.);
#319=ADVANCED_FACE('',(#109,#76),#19,.T.);
#320=ADVANCED_FACE('',(#110),#305,.F.);
#321=ADVANCED_FACE('',(#111),#20,.T.);
#322=ADVANCED_FACE('',(#112),#21,.F.);
#323=CLOSED_SHELL('',(#306,#307,#308,#309,#310,#311,#312,#313,#314,#315,
#316,#317,#318,#319,#320,#321,#322));
#324=AXIS2_PLACEMENT_3D('placement',#455,#361,#362);
#325=AXIS2_PLACEMENT_3D('',#456,#363,#364);
#326=AXIS2_PLACEMENT_3D('',#493,#365,#366);
#327=AXIS2_PLACEMENT_3D('',#494,#367,#368);
#328=AXIS2_PLACEMENT_3D('',#496,#369,#370);
#329=AXIS2_PLACEMENT_3D('',#498,#371,#372);
#330=AXIS2_PLACEMENT_3D('',#499,#373,#374);
#331=AXIS2_PLACEMENT_3D('',#501,#375,#376);
#332=AXIS2_PLACEMENT_3D('',#503,#377,#378);
#333=AXIS2_PLACEMENT_3D('',#504,#379,#380);
#334=AXIS2_PLACEMENT_3D('',#506,#381,#382);
#335=AXIS2_PLACEMENT_3D('',#508,#383,#384);
#336=AXIS2_PLACEMENT_3D('',#509,#385,#386);
#337=AXIS2_PLACEMENT_3D('',#511,#387,#388);
#338=AXIS2_PLACEMENT_3D('',#513,#389,#390);
#339=AXIS2_PLACEMENT_3D('',#514,#391,#392);
#340=AXIS2_PLACEMENT_3D('',#517,#393,#394);
#341=AXIS2_PLACEMENT_3D('',#521,#396,#397);
#342=AXIS2_PLACEMENT_3D('',#523,#399,#400);
#343=AXIS2_PLACEMENT_3D('',#527,#402,#403);
#344=AXIS2_PLACEMENT_3D('',#531,#405,#406);
#345=AXIS2_PLACEMENT_3D('',#535,#408,#409);
#346=AXIS2_PLACEMENT_3D('',#537,#411,#412);
#347=AXIS2_PLACEMENT_3D('',#541,#415,#416);
#348=AXIS2_PLACEMENT_3D('',#543,#417,#418);
#349=AXIS2_PLACEMENT_3D('',#545,#420,#421);
#350=AXIS2_PLACEMENT_3D('',#548,#422,#423);
#351=AXIS2_PLACEMENT_3D('',#551,#426,#427);
#352=AXIS2_PLACEMENT_3D('',#555,#429,#430);
#353=AXIS2_PLACEMENT_3D('',#561,#434,#435);
#354=AXIS2_PLACEMENT_3D('',#563,#437,#438);
#355=AXIS2_PLACEMENT_3D('',#565,#440,#441);
#356=AXIS2_PLACEMENT_3D('',#571,#445,#446);
#357=AXIS2_PLACEMENT_3D('',#572,#447,#448);
#358=AXIS2_PLACEMENT_3D('',#573,#449,#450);
#359=AXIS2_PLACEMENT_3D('',#574,#451,#452);
#360=AXIS2_PLACEMENT_3D('',#575,#453,#454);
#361=DIRECTION('axis',(0.,0.,1.));
#362=DIRECTION('refdir',(1.,0.,0.));
#363=DIRECTION('center_axis',(-1.,-1.74838271594513E-16,0.));
#364=DIRECTION('ref_axis',(0.,0.,1.));
#365=DIRECTION('center_axis',(1.,1.74838271594513E-16,0.));
#366=DIRECTION('ref_axis',(0.,0.,1.));
#367=DIRECTION('center_axis',(-1.92818255187042E-32,-1.,0.));
#368=DIRECTION('ref_axis',(1.,-1.92818255187042E-32,0.));
#369=DIRECTION('center_axis',(0.,-1.,0.));
#370=DIRECTION('ref_axis',(1.,-1.92818255187042E-32,0.));
#371=DIRECTION('center_axis',(0.,1.,0.));
#372=DIRECTION('ref_axis',(1.,-1.92818255187042E-32,0.));
#373=DIRECTION('center_axis',(-1.92818255187042E-32,-1.,0.));
#374=DIRECTION('ref_axis',(1.,-1.92818255187042E-32,0.));
#375=DIRECTION('center_axis',(0.,-1.,0.));
#376=DIRECTION('ref_axis',(1.,-1.92818255187042E-32,0.));
#377=DIRECTION('center_axis',(0.,1.,0.));
#378=DIRECTION('ref_axis',(1.,-1.92818255187042E-32,0.));
#379=DIRECTION('center_axis',(-1.92818255187042E-32,-1.,0.));
#380=DIRECTION('ref_axis',(1.,-1.92818255187042E-32,0.));
#381=DIRECTION('center_axis',(0.,-1.,0.));
#382=DIRECTION('ref_axis',(1.,-1.92818255187042E-32,0.));
#383=DIRECTION('center_axis',(1.92818255187042E-32,1.,0.));
#384=DIRECTION('ref_axis',(1.,-1.92818255187042E-32,0.));
#385=DIRECTION('center_axis',(0.,1.,0.));
#386=DIRECTION('ref_axis',(1.,0.,0.));
#387=DIRECTION('center_axis',(0.,1.,0.));
#388=DIRECTION('ref_axis',(1.,0.,0.));
#389=DIRECTION('center_axis',(0.,-1.,0.));
#390=DIRECTION('ref_axis',(1.,0.,0.));
#391=DIRECTION('center_axis',(0.,1.,0.));
#392=DIRECTION('ref_axis',(0.707106781186547,0.,0.707106781186549));
#393=DIRECTION('center_axis',(0.,-1.,0.));
#394=DIRECTION('ref_axis',(0.707106781186547,0.,0.707106781186549));
#395=DIRECTION('',(0.,-1.,0.));
#396=DIRECTION('center_axis',(1.92818255187042E-32,1.,0.));
#397=DIRECTION('ref_axis',(0.707106781186547,0.,0.707106781186549));
#398=DIRECTION('',(0.,1.,0.));
#399=DIRECTION('center_axis',(0.,1.,0.));
#400=DIRECTION('ref_axis',(-1.,0.,0.));
#401=DIRECTION('',(0.,0.,1.));
#402=DIRECTION('center_axis',(0.,-1.,0.));
#403=DIRECTION('ref_axis',(0.707106781186546,0.,-0.707106781186549));
#404=DIRECTION('',(-1.,0.,0.));
#405=DIRECTION('center_axis',(0.,-1.,0.));
#406=DIRECTION('ref_axis',(-0.707106781186547,0.,-0.707106781186548));
#407=DIRECTION('',(0.,0.,1.));
#408=DIRECTION('center_axis',(0.,-1.,0.));
#409=DIRECTION('ref_axis',(-0.707106781186548,0.,0.707106781186547));
#410=DIRECTION('',(-1.,0.,0.));
#411=DIRECTION('center_axis',(1.,0.,0.));
#412=DIRECTION('ref_axis',(0.,1.,0.));
#413=DIRECTION('',(0.,0.,1.));
#414=DIRECTION('',(0.,-1.,0.));
#415=DIRECTION('center_axis',(0.,1.,0.));
#416=DIRECTION('ref_axis',(0.707106781186546,0.,-0.707106781186549));
#417=DIRECTION('center_axis',(1.92818255187042E-32,1.,0.));
#418=DIRECTION('ref_axis',(0.707106781186546,0.,-0.707106781186549));
#419=DIRECTION('',(0.,1.,0.));
#420=DIRECTION('center_axis',(1.74838271594513E-16,-1.,0.));
#421=DIRECTION('ref_axis',(-0.707106781186548,0.,0.707106781186547));
#422=DIRECTION('center_axis',(0.,1.,0.));
#423=DIRECTION('ref_axis',(-0.707106781186548,0.,0.707106781186547));
#424=DIRECTION('',(-1.74838271594513E-16,1.,0.));
#425=DIRECTION('',(1.74838271594513E-16,-1.,0.));
#426=DIRECTION('center_axis',(0.,-1.,0.));
#427=DIRECTION('ref_axis',(1.,0.,0.));
#428=DIRECTION('',(0.,0.,1.));
#429=DIRECTION('center_axis',(0.,1.,0.));
#430=DIRECTION('ref_axis',(-0.707106781186547,0.,-0.707106781186548));
#431=DIRECTION('',(1.,0.,0.));
#432=DIRECTION('',(0.,0.,1.));
#433=DIRECTION('',(1.,0.,0.));
#434=DIRECTION('center_axis',(-1.,-1.74838271594513E-16,0.));
#435=DIRECTION('ref_axis',(1.74838271594513E-16,-1.,0.));
#436=DIRECTION('',(-1.74838271594513E-16,1.,0.));
#437=DIRECTION('center_axis',(1.74838271594513E-16,-1.,0.));
#438=DIRECTION('ref_axis',(-0.707106781186547,0.,-0.707106781186548));
#439=DIRECTION('',(1.74838271594513E-16,-1.,0.));
#440=DIRECTION('center_axis',(-1.92818255187042E-32,-1.,0.));
#441=DIRECTION('ref_axis',(1.,-1.92818255187042E-32,0.));
#442=DIRECTION('',(1.,-1.92818255187042E-32,0.));
#443=DIRECTION('',(0.,0.,1.));
#444=DIRECTION('',(1.,-1.92818255187042E-32,0.));
#445=DIRECTION('center_axis',(0.,0.,1.));
#446=DIRECTION('ref_axis',(-0.991071249821234,-0.133333333333333,0.));
#447=DIRECTION('center_axis',(0.,0.,-1.));
#448=DIRECTION('ref_axis',(-0.991071249821234,-0.133333333333333,0.));
#449=DIRECTION('center_axis',(0.,0.,-1.));
#450=DIRECTION('ref_axis',(-0.991071249821234,-0.133333333333333,0.));
#451=DIRECTION('center_axis',(0.,0.,1.));
#452=DIRECTION('ref_axis',(1.,0.,0.));
#453=DIRECTION('center_axis',(0.,0.,1.));
#454=DIRECTION('ref_axis',(1.,0.,0.));
#455=CARTESIAN_POINT('',(0.,0.,0.));
#456=CARTESIAN_POINT('Origin',(0.275,0.325,0.625));
#457=CARTESIAN_POINT('',(0.519585156728131,0.325,0.722));
#458=CARTESIAN_POINT('Ctrl Pts',(0.519585156728131,0.325,0.722));
#459=CARTESIAN_POINT('Ctrl Pts',(0.519585156728131,0.337326572884767,0.722));
#460=CARTESIAN_POINT('Ctrl Pts',(0.518491487244027,0.350373123967944,0.719509909185069));
#461=CARTESIAN_POINT('Ctrl Pts',(0.514679842583196,0.374225852534817,0.709573849723292));
#462=CARTESIAN_POINT('Ctrl Pts',(0.512030720431939,0.385045290293604,0.702133425256586));
#463=CARTESIAN_POINT('Ctrl Pts',(0.507157547811503,0.402125848972159,0.685052866578031));
#464=CARTESIAN_POINT('Ctrl Pts',(0.504598354516542,0.409572036790012,0.674230531139005));
#465=CARTESIAN_POINT('Ctrl Pts',(0.500997695494145,0.419512484498219,0.650366615153364));
#466=CARTESIAN_POINT('Ctrl Pts',(0.5,0.422,0.637315642537788));
#467=CARTESIAN_POINT('Ctrl Pts',(0.5,0.422,0.612684357462211));
#468=CARTESIAN_POINT('Ctrl Pts',(0.500997695494145,0.419512484498219,0.599633384846636));
#469=CARTESIAN_POINT('Ctrl Pts',(0.504598354516542,0.409572036790012,0.575769468860995));
#470=CARTESIAN_POINT('Ctrl Pts',(0.507157547811503,0.402125848972159,0.564947133421969));
#471=CARTESIAN_POINT('Ctrl Pts',(0.512030720431939,0.385045290293604,0.547866574743414));
#472=CARTESIAN_POINT('Ctrl Pts',(0.514679842583196,0.374225852534817,0.540426150276707));
#473=CARTESIAN_POINT('Ctrl Pts',(0.518491487244027,0.350373123967944,0.530490090814931));
#474=CARTESIAN_POINT('Ctrl Pts',(0.519585156728131,0.337326572884767,0.528));
#475=CARTESIAN_POINT('Ctrl Pts',(0.519585156728131,0.312673427115232,0.528));
#476=CARTESIAN_POINT('Ctrl Pts',(0.518491487244027,0.299626876032056,0.530490090814931));
#477=CARTESIAN_POINT('Ctrl Pts',(0.514679842583196,0.275774147465182,0.540426150276708));
#478=CARTESIAN_POINT('Ctrl Pts',(0.512030720431939,0.264954709706395,0.547866574743414));
#479=CARTESIAN_POINT('Ctrl Pts',(0.507157547811503,0.24787415102784,0.564947133421969));
#480=CARTESIAN_POINT('Ctrl Pts',(0.504598354516542,0.240427963209987,0.575769468860995));
#481=CARTESIAN_POINT('Ctrl Pts',(0.500997695494145,0.230487515501781,0.599633384846636));
#482=CARTESIAN_POINT('Ctrl Pts',(0.5,0.227999999999999,0.612684357462211));
#483=CARTESIAN_POINT('Ctrl Pts',(0.5,0.227999999999999,0.637315642537789));
#484=CARTESIAN_POINT('Ctrl Pts',(0.500997695494145,0.230487515501781,0.650366615153363));
#485=CARTESIAN_POINT('Ctrl Pts',(0.504598354516542,0.240427963209987,0.674230531139005));
#486=CARTESIAN_POINT('Ctrl Pts',(0.507157547811503,0.24787415102784,0.685052866578031));
#487=CARTESIAN_POINT('Ctrl Pts',(0.512030720431939,0.264954709706395,0.702133425256586));
#488=CARTESIAN_POINT('Ctrl Pts',(0.514679842583196,0.275774147465182,0.709573849723292));
#489=CARTESIAN_POINT('Ctrl Pts',(0.518491487244027,0.299626876032056,0.719509909185069));
#490=CARTESIAN_POINT('Ctrl Pts',(0.519585156728131,0.312673427115232,0.722));
#491=CARTESIAN_POINT('Ctrl Pts',(0.519585156728131,0.325,0.722));
#492=CARTESIAN_POINT('',(-5.68224382682166E-17,0.325,0.722));
#493=CARTESIAN_POINT('Origin',(-4.37095678986282E-17,0.325,0.625));
#494=CARTESIAN_POINT('Origin',(0.25,3.11247489949718,0.325));
#495=CARTESIAN_POINT('',(0.153,0.75,0.325));
#496=CARTESIAN_POINT('Origin',(0.25,0.75,0.325));
#497=CARTESIAN_POINT('',(0.347,3.66287529859514E-32,0.325));
#498=CARTESIAN_POINT('Origin',(0.25,0.,0.325));
#499=CARTESIAN_POINT('Origin',(0.25,3.11247489949718,0.925));
#500=CARTESIAN_POINT('',(0.153,0.75,0.925));
#501=CARTESIAN_POINT('Origin',(0.25,0.75,0.925));
#502=CARTESIAN_POINT('',(0.347,3.66287529859514E-32,0.925));
#503=CARTESIAN_POINT('Origin',(0.25,0.,0.925));
#504=CARTESIAN_POINT('Origin',(2.49832585934148,3.11247489949718,0.625));
#505=CARTESIAN_POINT('',(2.40132585934148,0.75,0.625));
#506=CARTESIAN_POINT('Origin',(2.49832585934148,0.75,0.625));
#507=CARTESIAN_POINT('',(2.59532585934148,-6.72307394306167E-33,0.625));
#508=CARTESIAN_POINT('Origin',(2.49832585934148,0.,0.625));
#509=CARTESIAN_POINT('Origin',(0.75,-2.36247489949718,0.625));
#510=CARTESIAN_POINT('',(0.5,0.,0.625));
#511=CARTESIAN_POINT('Origin',(0.75,0.,0.625));
#512=CARTESIAN_POINT('',(1.,0.75,0.625));
#513=CARTESIAN_POINT('Origin',(0.75,0.75,0.625));
#514=CARTESIAN_POINT('Origin',(2.625,0.197708413123857,1.125));
#515=CARTESIAN_POINT('',(2.75,0.75,1.125));
#516=CARTESIAN_POINT('',(2.625,0.75,1.25));
#517=CARTESIAN_POINT('Origin',(2.625,0.75,1.125));
#518=CARTESIAN_POINT('',(2.625,-7.29524554565671E-33,1.25));
#519=CARTESIAN_POINT('',(2.625,0.197708413123857,1.25));
#520=CARTESIAN_POINT('',(2.75,-9.70547373549473E-33,1.125));
#521=CARTESIAN_POINT('Origin',(2.625,0.,1.125));
#522=CARTESIAN_POINT('',(2.75,0.197708413123857,1.125));
#523=CARTESIAN_POINT('Origin',(2.75,0.75,0.));
#524=CARTESIAN_POINT('',(2.75,0.75,0.125));
#525=CARTESIAN_POINT('',(2.75,0.75,0.));
#526=CARTESIAN_POINT('',(2.625,0.75,0.));
#527=CARTESIAN_POINT('Origin',(2.625,0.75,0.125));
#528=CARTESIAN_POINT('',(0.125,0.75,0.));
#529=CARTESIAN_POINT('',(2.75,0.75,0.));
#530=CARTESIAN_POINT('',(-1.31128703695885E-16,0.75,0.125));
#531=CARTESIAN_POINT('Origin',(0.125,0.749999999999999,0.125));
#532=CARTESIAN_POINT('',(-1.31128703695885E-16,0.75,1.125));
#533=CARTESIAN_POINT('',(-1.31128703695885E-16,0.75,0.));
#534=CARTESIAN_POINT('',(0.125,0.75,1.25));
#535=CARTESIAN_POINT('Origin',(0.125,0.749999999999999,1.125));
#536=CARTESIAN_POINT('',(2.75,0.75,1.25));
#537=CARTESIAN_POINT('Origin',(2.75,0.,0.));
#538=CARTESIAN_POINT('',(2.75,-9.70547373549473E-33,0.125));
#539=CARTESIAN_POINT('',(2.75,-9.70547373549473E-33,0.));
#540=CARTESIAN_POINT('',(2.75,0.197708413123857,0.125));
#541=CARTESIAN_POINT('Origin',(2.625,0.197708413123857,0.125));
#542=CARTESIAN_POINT('',(2.625,-7.29524554565671E-33,0.));
#543=CARTESIAN_POINT('Origin',(2.625,0.,0.125));
#544=CARTESIAN_POINT('',(2.625,0.197708413123857,0.));
#545=CARTESIAN_POINT('Origin',(0.125,0.572708413123856,1.125));
#546=CARTESIAN_POINT('',(0.,0.,1.125));
#547=CARTESIAN_POINT('',(0.125,0.,1.25));
#548=CARTESIAN_POINT('Origin',(0.125,0.,1.125));
#549=CARTESIAN_POINT('',(0.125,0.572708413123856,1.25));
#550=CARTESIAN_POINT('',(-1.09273919746571E-16,0.572708413123856,1.125));
#551=CARTESIAN_POINT('Origin',(0.,0.,0.));
#552=CARTESIAN_POINT('',(0.,0.,0.125));
#553=CARTESIAN_POINT('',(0.,0.,0.));
#554=CARTESIAN_POINT('',(0.125,0.,0.));
#555=CARTESIAN_POINT('Origin',(0.125,0.,0.125));
#556=CARTESIAN_POINT('',(1.50334828131704,0.,0.));
#557=CARTESIAN_POINT('',(0.,0.,0.));
#558=CARTESIAN_POINT('',(1.50334828131704,0.,1.25));
#559=CARTESIAN_POINT('',(1.50334828131704,0.,0.));
#560=CARTESIAN_POINT('',(0.,0.,1.25));
#561=CARTESIAN_POINT('Origin',(-1.31128703695885E-16,0.75,0.));
#562=CARTESIAN_POINT('',(-1.09273919746571E-16,0.572708413123856,0.125));
#563=CARTESIAN_POINT('Origin',(0.125,0.572708413123856,0.125));
#564=CARTESIAN_POINT('',(0.125,0.572708413123856,0.));
#565=CARTESIAN_POINT('Origin',(2.24665171868296,0.,0.));
#566=CARTESIAN_POINT('',(2.24665171868296,0.,1.25));
#567=CARTESIAN_POINT('',(2.24665171868296,0.,1.25));
#568=CARTESIAN_POINT('',(2.24665171868296,0.,0.));
#569=CARTESIAN_POINT('',(2.24665171868296,0.,0.));
#570=CARTESIAN_POINT('',(2.24665171868296,0.,0.));
#571=CARTESIAN_POINT('Origin',(1.875,-0.05,0.));
#572=CARTESIAN_POINT('Origin',(1.875,-0.05,0.));
#573=CARTESIAN_POINT('Origin',(1.875,-0.05,1.25));
#574=CARTESIAN_POINT('Origin',(1.37960333041175,0.395416826247714,1.25));
#575=CARTESIAN_POINT('Origin',(1.37960333041175,0.395416826247714,0.));
#576=UNCERTAINTY_MEASURE_WITH_UNIT(LENGTH_MEASURE(0.000393700787401575),
#580,'DISTANCE_ACCURACY_VALUE',
'Maximum model space distance between geometric entities at asserted c
onnectivities');
#577=UNCERTAINTY_MEASURE_WITH_UNIT(LENGTH_MEASURE(1.E-6),#581,
'DISTANCE_ACCURACY_VALUE',
'Maximum model space distance between geometric entities at asserted c
onnectivities');
#578=(
GEOMETRIC_REPRESENTATION_CONTEXT(3)
GLOBAL_UNCERTAINTY_ASSIGNED_CONTEXT((#576))
GLOBAL_UNIT_ASSIGNED_CONTEXT((#580,#586,#583))
REPRESENTATION_CONTEXT('','3D')
);
#579=(
GEOMETRIC_REPRESENTATION_CONTEXT(3)
GLOBAL_UNCERTAINTY_ASSIGNED_CONTEXT((#577))
GLOBAL_UNIT_ASSIGNED_CONTEXT((#581,#586,#583))
REPRESENTATION_CONTEXT('','3D')
);
#580=(
CONVERSION_BASED_UNIT('__CONSTANT UNIT inch',#582)
LENGTH_UNIT()
NAMED_UNIT(#585)
);
#581=(
LENGTH_UNIT()
NAMED_UNIT(*)
SI_UNIT(.MILLI.,.METRE.)
);
#582=LENGTH_MEASURE_WITH_UNIT(LENGTH_MEASURE(25.4),#581);
#583=(
NAMED_UNIT(*)
SI_UNIT($,.STERADIAN.)
SOLID_ANGLE_UNIT()
);
#584=DIMENSIONAL_EXPONENTS(0.,0.,0.,0.,0.,0.,0.);
#585=DIMENSIONAL_EXPONENTS(1.,0.,0.,0.,0.,0.,0.);
#586=(
CONVERSION_BASED_UNIT('degree',#588)
NAMED_UNIT(#584)
PLANE_ANGLE_UNIT()
);
#587=(
NAMED_UNIT(*)
PLANE_ANGLE_UNIT()
SI_UNIT($,.RADIAN.)
);
#588=PLANE_ANGLE_MEASURE_WITH_UNIT(PLANE_ANGLE_MEASURE(0.01745329252),#587);
#589=SHAPE_DEFINITION_REPRESENTATION(#590,#591);
#590=PRODUCT_DEFINITION_SHAPE('',$,#593);
#591=SHAPE_REPRESENTATION('',(#324),#578);
#592=PRODUCT_DEFINITION_CONTEXT('part definition',#597,'design');
#593=PRODUCT_DEFINITION('axial2contra','axial2contra',#594,#592);
#594=PRODUCT_DEFINITION_FORMATION('',$,#599);
#595=PRODUCT_RELATED_PRODUCT_CATEGORY('axial2contra','axial2contra',(#599));
#596=APPLICATION_PROTOCOL_DEFINITION('international standard',
'automotive_design',2009,#597);
#597=APPLICATION_CONTEXT(
'Core Data for Automotive Mechanical Design Process');
#598=PRODUCT_CONTEXT('part definition',#597,'mechanical');
#599=PRODUCT('axial2contra','axial2contra',$,(#598));
#600=PRESENTATION_STYLE_ASSIGNMENT((#601));
#601=SURFACE_STYLE_USAGE(.BOTH.,#602);
#602=SURFACE_SIDE_STYLE('',(#603));
#603=SURFACE_STYLE_FILL_AREA(#604);
#604=FILL_AREA_STYLE('',(#605));
#605=FILL_AREA_STYLE_COLOUR('',#606);
#606=COLOUR_RGB('',0.996078431372549,0.996078431372549,1.);
ENDSEC;
END-ISO-10303-21;
