ISO-10303-21;
HEADER;
/* Generated by software containing ST-Developer
 * from STEP Tools, Inc. (www.steptools.com) 
 */

FILE_DESCRIPTION(
/* description */ (''),
/* implementation_level */ '2;1');

FILE_NAME(
/* name */ 
'C:\\Users\\BestBuy2067\\Desktop\\PIEZAS EI30 CHINA\\Archivos STEP\\ro
daja aluminio.stp',
/* time_stamp */ '2020-08-03T09:42:23-05:00',
/* author */ ('EI'),
/* organization */ (''),
/* preprocessor_version */ 'ST-DEVELOPER v16.5',
/* originating_system */ 'Autodesk Inventor 2017',
/* authorisation */ '');

FILE_SCHEMA (('AUTOMOTIVE_DESIGN { 1 0 10303 214 3 1 1 }'));
ENDSEC;

DATA;
#10=MECHANICAL_DESIGN_GEOMETRIC_PRESENTATION_REPRESENTATION('',(#13),#143);
#11=SHAPE_REPRESENTATION_RELATIONSHIP('SRR','None',#155,#12);
#12=ADVANCED_BREP_SHAPE_REPRESENTATION('',(#14),#142);
#13=STYLED_ITEM('',(#164),#14);
#14=MANIFOLD_SOLID_BREP('S\X\F3lido1',#81);
#15=PLANE('',#86);
#16=PLANE('',#93);
#17=PLANE('',#94);
#18=FACE_BOUND('',#31,.T.);
#19=FACE_BOUND('',#33,.T.);
#20=FACE_BOUND('',#35,.T.);
#21=FACE_BOUND('',#37,.T.);
#22=FACE_BOUND('',#39,.T.);
#23=FACE_BOUND('',#41,.T.);
#24=FACE_OUTER_BOUND('',#30,.T.);
#25=FACE_OUTER_BOUND('',#32,.T.);
#26=FACE_OUTER_BOUND('',#34,.T.);
#27=FACE_OUTER_BOUND('',#36,.T.);
#28=FACE_OUTER_BOUND('',#38,.T.);
#29=FACE_OUTER_BOUND('',#40,.T.);
#30=EDGE_LOOP('',(#60));
#31=EDGE_LOOP('',(#61));
#32=EDGE_LOOP('',(#62));
#33=EDGE_LOOP('',(#63));
#34=EDGE_LOOP('',(#64));
#35=EDGE_LOOP('',(#65));
#36=EDGE_LOOP('',(#66));
#37=EDGE_LOOP('',(#67));
#38=EDGE_LOOP('',(#68));
#39=EDGE_LOOP('',(#69));
#40=EDGE_LOOP('',(#70));
#41=EDGE_LOOP('',(#71));
#42=CIRCLE('',#84,0.15748031496063);
#43=CIRCLE('',#85,0.15748031496063);
#44=CIRCLE('',#87,0.0984251968503937);
#45=CIRCLE('',#89,0.0984251968503937);
#46=CIRCLE('',#91,0.25);
#47=CIRCLE('',#92,0.25);
#48=VERTEX_POINT('',#123);
#49=VERTEX_POINT('',#125);
#50=VERTEX_POINT('',#128);
#51=VERTEX_POINT('',#131);
#52=VERTEX_POINT('',#134);
#53=VERTEX_POINT('',#136);
#54=EDGE_CURVE('',#48,#48,#42,.T.);
#55=EDGE_CURVE('',#49,#49,#43,.T.);
#56=EDGE_CURVE('',#50,#50,#44,.T.);
#57=EDGE_CURVE('',#51,#51,#45,.T.);
#58=EDGE_CURVE('',#52,#52,#46,.T.);
#59=EDGE_CURVE('',#53,#53,#47,.T.);
#60=ORIENTED_EDGE('',*,*,#54,.F.);
#61=ORIENTED_EDGE('',*,*,#55,.F.);
#62=ORIENTED_EDGE('',*,*,#54,.T.);
#63=ORIENTED_EDGE('',*,*,#56,.T.);
#64=ORIENTED_EDGE('',*,*,#56,.F.);
#65=ORIENTED_EDGE('',*,*,#57,.F.);
#66=ORIENTED_EDGE('',*,*,#58,.F.);
#67=ORIENTED_EDGE('',*,*,#59,.F.);
#68=ORIENTED_EDGE('',*,*,#59,.T.);
#69=ORIENTED_EDGE('',*,*,#57,.T.);
#70=ORIENTED_EDGE('',*,*,#58,.T.);
#71=ORIENTED_EDGE('',*,*,#55,.T.);
#72=CYLINDRICAL_SURFACE('',#83,0.15748031496063);
#73=CYLINDRICAL_SURFACE('',#88,0.0984251968503937);
#74=CYLINDRICAL_SURFACE('',#90,0.25);
#75=ADVANCED_FACE('',(#24,#18),#72,.T.);
#76=ADVANCED_FACE('',(#25,#19),#15,.T.);
#77=ADVANCED_FACE('',(#26,#20),#73,.F.);
#78=ADVANCED_FACE('',(#27,#21),#74,.T.);
#79=ADVANCED_FACE('',(#28,#22),#16,.F.);
#80=ADVANCED_FACE('',(#29,#23),#17,.T.);
#81=CLOSED_SHELL('',(#75,#76,#77,#78,#79,#80));
#82=AXIS2_PLACEMENT_3D('placement',#121,#95,#96);
#83=AXIS2_PLACEMENT_3D('',#122,#97,#98);
#84=AXIS2_PLACEMENT_3D('',#124,#99,#100);
#85=AXIS2_PLACEMENT_3D('',#126,#101,#102);
#86=AXIS2_PLACEMENT_3D('',#127,#103,#104);
#87=AXIS2_PLACEMENT_3D('',#129,#105,#106);
#88=AXIS2_PLACEMENT_3D('',#130,#107,#108);
#89=AXIS2_PLACEMENT_3D('',#132,#109,#110);
#90=AXIS2_PLACEMENT_3D('',#133,#111,#112);
#91=AXIS2_PLACEMENT_3D('',#135,#113,#114);
#92=AXIS2_PLACEMENT_3D('',#137,#115,#116);
#93=AXIS2_PLACEMENT_3D('',#138,#117,#118);
#94=AXIS2_PLACEMENT_3D('',#139,#119,#120);
#95=DIRECTION('axis',(0.,0.,1.));
#96=DIRECTION('refdir',(1.,0.,0.));
#97=DIRECTION('center_axis',(0.,0.,1.));
#98=DIRECTION('ref_axis',(-1.,0.,0.));
#99=DIRECTION('center_axis',(0.,0.,1.));
#100=DIRECTION('ref_axis',(-1.,0.,0.));
#101=DIRECTION('center_axis',(0.,0.,-1.));
#102=DIRECTION('ref_axis',(-1.,0.,0.));
#103=DIRECTION('center_axis',(0.,0.,1.));
#104=DIRECTION('ref_axis',(1.,0.,0.));
#105=DIRECTION('center_axis',(0.,0.,-1.));
#106=DIRECTION('ref_axis',(-1.,0.,0.));
#107=DIRECTION('center_axis',(0.,0.,1.));
#108=DIRECTION('ref_axis',(-1.,0.,0.));
#109=DIRECTION('center_axis',(0.,0.,1.));
#110=DIRECTION('ref_axis',(-1.,0.,0.));
#111=DIRECTION('center_axis',(0.,0.,1.));
#112=DIRECTION('ref_axis',(-1.,0.,0.));
#113=DIRECTION('center_axis',(0.,0.,1.));
#114=DIRECTION('ref_axis',(-1.,0.,0.));
#115=DIRECTION('center_axis',(0.,0.,-1.));
#116=DIRECTION('ref_axis',(-1.,0.,0.));
#117=DIRECTION('center_axis',(0.,0.,1.));
#118=DIRECTION('ref_axis',(1.,0.,0.));
#119=DIRECTION('center_axis',(0.,0.,1.));
#120=DIRECTION('ref_axis',(1.,0.,0.));
#121=CARTESIAN_POINT('',(0.,0.,0.));
#122=CARTESIAN_POINT('Origin',(0.,0.,0.1));
#123=CARTESIAN_POINT('',(0.15748031496063,1.92857763645252E-17,0.38));
#124=CARTESIAN_POINT('Origin',(0.,0.,0.38));
#125=CARTESIAN_POINT('',(0.15748031496063,1.92857763645252E-17,0.1));
#126=CARTESIAN_POINT('Origin',(0.,0.,0.1));
#127=CARTESIAN_POINT('Origin',(-1.52663879986984E-17,-2.27653999472022E-18,
0.38));
#128=CARTESIAN_POINT('',(0.0984251968503937,1.20536102278283E-17,0.38));
#129=CARTESIAN_POINT('Origin',(0.,0.,0.38));
#130=CARTESIAN_POINT('Origin',(0.,0.,0.));
#131=CARTESIAN_POINT('',(0.0984251968503937,1.20536102278283E-17,0.));
#132=CARTESIAN_POINT('Origin',(0.,0.,0.));
#133=CARTESIAN_POINT('Origin',(0.,0.,0.));
#134=CARTESIAN_POINT('',(0.25,3.06161699786838E-17,0.1));
#135=CARTESIAN_POINT('Origin',(0.,0.,0.1));
#136=CARTESIAN_POINT('',(0.25,3.06161699786838E-17,0.));
#137=CARTESIAN_POINT('Origin',(0.,0.,0.));
#138=CARTESIAN_POINT('Origin',(-2.54960025631204E-17,5.73616376622417E-18,
0.));
#139=CARTESIAN_POINT('Origin',(-2.54960025631204E-17,5.73616376622417E-18,
0.1));
#140=UNCERTAINTY_MEASURE_WITH_UNIT(LENGTH_MEASURE(0.000393700787401575),
#144,'DISTANCE_ACCURACY_VALUE',
'Maximum model space distance between geometric entities at asserted c
onnectivities');
#141=UNCERTAINTY_MEASURE_WITH_UNIT(LENGTH_MEASURE(1.E-6),#145,
'DISTANCE_ACCURACY_VALUE',
'Maximum model space distance between geometric entities at asserted c
onnectivities');
#142=(
GEOMETRIC_REPRESENTATION_CONTEXT(3)
GLOBAL_UNCERTAINTY_ASSIGNED_CONTEXT((#140))
GLOBAL_UNIT_ASSIGNED_CONTEXT((#144,#150,#147))
REPRESENTATION_CONTEXT('','3D')
);
#143=(
GEOMETRIC_REPRESENTATION_CONTEXT(3)
GLOBAL_UNCERTAINTY_ASSIGNED_CONTEXT((#141))
GLOBAL_UNIT_ASSIGNED_CONTEXT((#145,#150,#147))
REPRESENTATION_CONTEXT('','3D')
);
#144=(
CONVERSION_BASED_UNIT('__CONSTANT UNIT inch',#146)
LENGTH_UNIT()
NAMED_UNIT(#149)
);
#145=(
LENGTH_UNIT()
NAMED_UNIT(*)
SI_UNIT(.MILLI.,.METRE.)
);
#146=LENGTH_MEASURE_WITH_UNIT(LENGTH_MEASURE(25.4),#145);
#147=(
NAMED_UNIT(*)
SI_UNIT($,.STERADIAN.)
SOLID_ANGLE_UNIT()
);
#148=DIMENSIONAL_EXPONENTS(0.,0.,0.,0.,0.,0.,0.);
#149=DIMENSIONAL_EXPONENTS(1.,0.,0.,0.,0.,0.,0.);
#150=(
CONVERSION_BASED_UNIT('degree',#152)
NAMED_UNIT(#148)
PLANE_ANGLE_UNIT()
);
#151=(
NAMED_UNIT(*)
PLANE_ANGLE_UNIT()
SI_UNIT($,.RADIAN.)
);
#152=PLANE_ANGLE_MEASURE_WITH_UNIT(PLANE_ANGLE_MEASURE(0.01745329252),#151);
#153=SHAPE_DEFINITION_REPRESENTATION(#154,#155);
#154=PRODUCT_DEFINITION_SHAPE('',$,#157);
#155=SHAPE_REPRESENTATION('',(#82),#142);
#156=PRODUCT_DEFINITION_CONTEXT('part definition',#161,'design');
#157=PRODUCT_DEFINITION('rodaja aluminio','rodaja aluminio',#158,#156);
#158=PRODUCT_DEFINITION_FORMATION('',$,#163);
#159=PRODUCT_RELATED_PRODUCT_CATEGORY('rodaja aluminio',
'rodaja aluminio',(#163));
#160=APPLICATION_PROTOCOL_DEFINITION('international standard',
'automotive_design',2009,#161);
#161=APPLICATION_CONTEXT(
'Core Data for Automotive Mechanical Design Process');
#162=PRODUCT_CONTEXT('part definition',#161,'mechanical');
#163=PRODUCT('rodaja aluminio','rodaja aluminio',$,(#162));
#164=PRESENTATION_STYLE_ASSIGNMENT((#165));
#165=SURFACE_STYLE_USAGE(.BOTH.,#166);
#166=SURFACE_SIDE_STYLE('',(#167));
#167=SURFACE_STYLE_FILL_AREA(#168);
#168=FILL_AREA_STYLE('',(#169));
#169=FILL_AREA_STYLE_COLOUR('',#170);
#170=COLOUR_RGB('',0.996078431372549,0.996078431372549,1.);
ENDSEC;
END-ISO-10303-21;
