ISO-10303-21;
HEADER;
/* Generated by software containing ST-Developer
 * from STEP Tools, Inc. (www.steptools.com) 
 */

FILE_DESCRIPTION(
/* description */ (''),
/* implementation_level */ '2;1');

FILE_NAME(
/* name */ 
'C:\\Users\\BestBuy2067\\Desktop\\PIEZAS EI30 CHINA\\Archivos STEP\\ax
ialopticocontra_1.stp',
/* time_stamp */ '2020-08-03T09:39:12-05:00',
/* author */ ('EI'),
/* organization */ (''),
/* preprocessor_version */ 'ST-DEVELOPER v16.5',
/* originating_system */ 'Autodesk Inventor 2017',
/* authorisation */ '');

FILE_SCHEMA (('AUTOMOTIVE_DESIGN { 1 0 10303 214 3 1 1 }'));
ENDSEC;

DATA;
#10=MECHANICAL_DESIGN_GEOMETRIC_PRESENTATION_REPRESENTATION('',(#13),#481);
#11=SHAPE_REPRESENTATION_RELATIONSHIP('SRR','None',#493,#12);
#12=ADVANCED_BREP_SHAPE_REPRESENTATION('',(#14),#480);
#13=STYLED_ITEM('',(#502),#14);
#14=MANIFOLD_SOLID_BREP('S\X\F3lido1',#283);
#15=PLANE('',#297);
#16=PLANE('',#299);
#17=PLANE('',#305);
#18=PLANE('',#307);
#19=PLANE('',#310);
#20=PLANE('',#314);
#21=PLANE('',#315);
#22=LINE('',#421,#42);
#23=LINE('',#424,#43);
#24=LINE('',#427,#44);
#25=LINE('',#431,#45);
#26=LINE('',#433,#46);
#27=LINE('',#434,#47);
#28=LINE('',#437,#48);
#29=LINE('',#438,#49);
#30=LINE('',#442,#50);
#31=LINE('',#448,#51);
#32=LINE('',#451,#52);
#33=LINE('',#453,#53);
#34=LINE('',#455,#54);
#35=LINE('',#458,#55);
#36=LINE('',#461,#56);
#37=LINE('',#462,#57);
#38=LINE('',#466,#58);
#39=LINE('',#469,#59);
#40=LINE('',#471,#60);
#41=LINE('',#472,#61);
#42=VECTOR('',#340,0.393700787401575);
#43=VECTOR('',#343,0.393700787401575);
#44=VECTOR('',#346,0.393700787401575);
#45=VECTOR('',#349,0.393700787401575);
#46=VECTOR('',#350,0.393700787401575);
#47=VECTOR('',#351,0.393700787401575);
#48=VECTOR('',#354,0.393700787401575);
#49=VECTOR('',#355,0.393700787401575);
#50=VECTOR('',#360,0.393700787401575);
#51=VECTOR('',#365,0.393700787401575);
#52=VECTOR('',#368,0.393700787401575);
#53=VECTOR('',#371,0.393700787401575);
#54=VECTOR('',#372,0.393700787401575);
#55=VECTOR('',#375,0.393700787401575);
#56=VECTOR('',#378,0.393700787401575);
#57=VECTOR('',#379,0.393700787401575);
#58=VECTOR('',#384,0.393700787401575);
#59=VECTOR('',#387,0.393700787401575);
#60=VECTOR('',#388,0.393700787401575);
#61=VECTOR('',#389,0.393700787401575);
#62=FACE_BOUND('',#87,.T.);
#63=FACE_BOUND('',#89,.T.);
#64=FACE_BOUND('',#91,.T.);
#65=FACE_BOUND('',#94,.T.);
#66=FACE_BOUND('',#95,.T.);
#67=FACE_BOUND('',#100,.T.);
#68=FACE_BOUND('',#101,.T.);
#69=FACE_BOUND('',#102,.T.);
#70=FACE_BOUND('',#106,.T.);
#71=FACE_OUTER_BOUND('',#86,.T.);
#72=FACE_OUTER_BOUND('',#88,.T.);
#73=FACE_OUTER_BOUND('',#90,.T.);
#74=FACE_OUTER_BOUND('',#92,.T.);
#75=FACE_OUTER_BOUND('',#93,.T.);
#76=FACE_OUTER_BOUND('',#96,.T.);
#77=FACE_OUTER_BOUND('',#97,.T.);
#78=FACE_OUTER_BOUND('',#98,.T.);
#79=FACE_OUTER_BOUND('',#99,.T.);
#80=FACE_OUTER_BOUND('',#103,.T.);
#81=FACE_OUTER_BOUND('',#104,.T.);
#82=FACE_OUTER_BOUND('',#105,.T.);
#83=FACE_OUTER_BOUND('',#107,.T.);
#84=FACE_OUTER_BOUND('',#108,.T.);
#85=FACE_OUTER_BOUND('',#109,.T.);
#86=EDGE_LOOP('',(#188));
#87=EDGE_LOOP('',(#189));
#88=EDGE_LOOP('',(#190));
#89=EDGE_LOOP('',(#191));
#90=EDGE_LOOP('',(#192));
#91=EDGE_LOOP('',(#193));
#92=EDGE_LOOP('',(#194,#195,#196,#197));
#93=EDGE_LOOP('',(#198,#199,#200,#201,#202,#203));
#94=EDGE_LOOP('',(#204));
#95=EDGE_LOOP('',(#205));
#96=EDGE_LOOP('',(#206,#207,#208,#209));
#97=EDGE_LOOP('',(#210,#211,#212,#213));
#98=EDGE_LOOP('',(#214,#215,#216,#217));
#99=EDGE_LOOP('',(#218,#219,#220,#221,#222,#223,#224,#225));
#100=EDGE_LOOP('',(#226));
#101=EDGE_LOOP('',(#227));
#102=EDGE_LOOP('',(#228));
#103=EDGE_LOOP('',(#229,#230,#231,#232));
#104=EDGE_LOOP('',(#233,#234,#235,#236));
#105=EDGE_LOOP('',(#237,#238,#239,#240,#241,#242));
#106=EDGE_LOOP('',(#243));
#107=EDGE_LOOP('',(#244,#245,#246,#247));
#108=EDGE_LOOP('',(#248,#249,#250,#251,#252,#253));
#109=EDGE_LOOP('',(#254,#255,#256,#257,#258,#259));
#110=CIRCLE('',#286,0.131);
#111=CIRCLE('',#287,0.131);
#112=CIRCLE('',#289,0.097);
#113=CIRCLE('',#290,0.097);
#114=CIRCLE('',#292,0.097);
#115=CIRCLE('',#293,0.097);
#116=CIRCLE('',#295,0.125);
#117=CIRCLE('',#296,0.125);
#118=CIRCLE('',#298,0.125);
#119=CIRCLE('',#301,0.125);
#120=CIRCLE('',#303,0.125);
#121=CIRCLE('',#304,0.125);
#122=CIRCLE('',#306,0.125);
#123=CIRCLE('',#309,0.125);
#124=CIRCLE('',#312,0.375);
#125=CIRCLE('',#313,0.375);
#126=VERTEX_POINT('',#402);
#127=VERTEX_POINT('',#404);
#128=VERTEX_POINT('',#407);
#129=VERTEX_POINT('',#409);
#130=VERTEX_POINT('',#412);
#131=VERTEX_POINT('',#414);
#132=VERTEX_POINT('',#417);
#133=VERTEX_POINT('',#418);
#134=VERTEX_POINT('',#420);
#135=VERTEX_POINT('',#422);
#136=VERTEX_POINT('',#426);
#137=VERTEX_POINT('',#428);
#138=VERTEX_POINT('',#430);
#139=VERTEX_POINT('',#432);
#140=VERTEX_POINT('',#436);
#141=VERTEX_POINT('',#440);
#142=VERTEX_POINT('',#444);
#143=VERTEX_POINT('',#445);
#144=VERTEX_POINT('',#447);
#145=VERTEX_POINT('',#449);
#146=VERTEX_POINT('',#454);
#147=VERTEX_POINT('',#456);
#148=VERTEX_POINT('',#460);
#149=VERTEX_POINT('',#464);
#150=VERTEX_POINT('',#468);
#151=VERTEX_POINT('',#470);
#152=EDGE_CURVE('',#126,#126,#110,.T.);
#153=EDGE_CURVE('',#127,#127,#111,.T.);
#154=EDGE_CURVE('',#128,#128,#112,.T.);
#155=EDGE_CURVE('',#129,#129,#113,.T.);
#156=EDGE_CURVE('',#130,#130,#114,.T.);
#157=EDGE_CURVE('',#131,#131,#115,.T.);
#158=EDGE_CURVE('',#132,#133,#116,.T.);
#159=EDGE_CURVE('',#133,#134,#22,.T.);
#160=EDGE_CURVE('',#134,#135,#117,.T.);
#161=EDGE_CURVE('',#135,#132,#23,.T.);
#162=EDGE_CURVE('',#136,#132,#24,.T.);
#163=EDGE_CURVE('',#137,#136,#118,.T.);
#164=EDGE_CURVE('',#137,#138,#25,.T.);
#165=EDGE_CURVE('',#138,#139,#26,.T.);
#166=EDGE_CURVE('',#133,#139,#27,.T.);
#167=EDGE_CURVE('',#140,#135,#28,.T.);
#168=EDGE_CURVE('',#136,#140,#29,.T.);
#169=EDGE_CURVE('',#140,#141,#119,.T.);
#170=EDGE_CURVE('',#141,#137,#30,.T.);
#171=EDGE_CURVE('',#142,#143,#120,.T.);
#172=EDGE_CURVE('',#143,#144,#31,.T.);
#173=EDGE_CURVE('',#144,#145,#121,.T.);
#174=EDGE_CURVE('',#145,#142,#32,.T.);
#175=EDGE_CURVE('',#143,#134,#33,.T.);
#176=EDGE_CURVE('',#146,#142,#34,.T.);
#177=EDGE_CURVE('',#147,#146,#122,.T.);
#178=EDGE_CURVE('',#147,#141,#35,.T.);
#179=EDGE_CURVE('',#148,#145,#36,.T.);
#180=EDGE_CURVE('',#146,#148,#37,.T.);
#181=EDGE_CURVE('',#148,#149,#123,.T.);
#182=EDGE_CURVE('',#149,#147,#38,.T.);
#183=EDGE_CURVE('',#150,#144,#39,.T.);
#184=EDGE_CURVE('',#151,#150,#40,.T.);
#185=EDGE_CURVE('',#151,#149,#41,.T.);
#186=EDGE_CURVE('',#138,#151,#124,.T.);
#187=EDGE_CURVE('',#139,#150,#125,.T.);
#188=ORIENTED_EDGE('',*,*,#152,.F.);
#189=ORIENTED_EDGE('',*,*,#153,.F.);
#190=ORIENTED_EDGE('',*,*,#154,.F.);
#191=ORIENTED_EDGE('',*,*,#155,.F.);
#192=ORIENTED_EDGE('',*,*,#156,.F.);
#193=ORIENTED_EDGE('',*,*,#157,.F.);
#194=ORIENTED_EDGE('',*,*,#158,.T.);
#195=ORIENTED_EDGE('',*,*,#159,.T.);
#196=ORIENTED_EDGE('',*,*,#160,.T.);
#197=ORIENTED_EDGE('',*,*,#161,.T.);
#198=ORIENTED_EDGE('',*,*,#158,.F.);
#199=ORIENTED_EDGE('',*,*,#162,.F.);
#200=ORIENTED_EDGE('',*,*,#163,.F.);
#201=ORIENTED_EDGE('',*,*,#164,.T.);
#202=ORIENTED_EDGE('',*,*,#165,.T.);
#203=ORIENTED_EDGE('',*,*,#166,.F.);
#204=ORIENTED_EDGE('',*,*,#154,.T.);
#205=ORIENTED_EDGE('',*,*,#156,.T.);
#206=ORIENTED_EDGE('',*,*,#161,.F.);
#207=ORIENTED_EDGE('',*,*,#167,.F.);
#208=ORIENTED_EDGE('',*,*,#168,.F.);
#209=ORIENTED_EDGE('',*,*,#162,.T.);
#210=ORIENTED_EDGE('',*,*,#163,.T.);
#211=ORIENTED_EDGE('',*,*,#168,.T.);
#212=ORIENTED_EDGE('',*,*,#169,.T.);
#213=ORIENTED_EDGE('',*,*,#170,.T.);
#214=ORIENTED_EDGE('',*,*,#171,.T.);
#215=ORIENTED_EDGE('',*,*,#172,.T.);
#216=ORIENTED_EDGE('',*,*,#173,.T.);
#217=ORIENTED_EDGE('',*,*,#174,.T.);
#218=ORIENTED_EDGE('',*,*,#160,.F.);
#219=ORIENTED_EDGE('',*,*,#175,.F.);
#220=ORIENTED_EDGE('',*,*,#171,.F.);
#221=ORIENTED_EDGE('',*,*,#176,.F.);
#222=ORIENTED_EDGE('',*,*,#177,.F.);
#223=ORIENTED_EDGE('',*,*,#178,.T.);
#224=ORIENTED_EDGE('',*,*,#169,.F.);
#225=ORIENTED_EDGE('',*,*,#167,.T.);
#226=ORIENTED_EDGE('',*,*,#153,.T.);
#227=ORIENTED_EDGE('',*,*,#155,.T.);
#228=ORIENTED_EDGE('',*,*,#157,.T.);
#229=ORIENTED_EDGE('',*,*,#174,.F.);
#230=ORIENTED_EDGE('',*,*,#179,.F.);
#231=ORIENTED_EDGE('',*,*,#180,.F.);
#232=ORIENTED_EDGE('',*,*,#176,.T.);
#233=ORIENTED_EDGE('',*,*,#177,.T.);
#234=ORIENTED_EDGE('',*,*,#180,.T.);
#235=ORIENTED_EDGE('',*,*,#181,.T.);
#236=ORIENTED_EDGE('',*,*,#182,.T.);
#237=ORIENTED_EDGE('',*,*,#173,.F.);
#238=ORIENTED_EDGE('',*,*,#183,.F.);
#239=ORIENTED_EDGE('',*,*,#184,.F.);
#240=ORIENTED_EDGE('',*,*,#185,.T.);
#241=ORIENTED_EDGE('',*,*,#181,.F.);
#242=ORIENTED_EDGE('',*,*,#179,.T.);
#243=ORIENTED_EDGE('',*,*,#152,.T.);
#244=ORIENTED_EDGE('',*,*,#186,.T.);
#245=ORIENTED_EDGE('',*,*,#184,.T.);
#246=ORIENTED_EDGE('',*,*,#187,.F.);
#247=ORIENTED_EDGE('',*,*,#165,.F.);
#248=ORIENTED_EDGE('',*,*,#159,.F.);
#249=ORIENTED_EDGE('',*,*,#166,.T.);
#250=ORIENTED_EDGE('',*,*,#187,.T.);
#251=ORIENTED_EDGE('',*,*,#183,.T.);
#252=ORIENTED_EDGE('',*,*,#172,.F.);
#253=ORIENTED_EDGE('',*,*,#175,.T.);
#254=ORIENTED_EDGE('',*,*,#170,.F.);
#255=ORIENTED_EDGE('',*,*,#178,.F.);
#256=ORIENTED_EDGE('',*,*,#182,.F.);
#257=ORIENTED_EDGE('',*,*,#185,.F.);
#258=ORIENTED_EDGE('',*,*,#186,.F.);
#259=ORIENTED_EDGE('',*,*,#164,.F.);
#260=CYLINDRICAL_SURFACE('',#285,0.131);
#261=CYLINDRICAL_SURFACE('',#288,0.097);
#262=CYLINDRICAL_SURFACE('',#291,0.097);
#263=CYLINDRICAL_SURFACE('',#294,0.125);
#264=CYLINDRICAL_SURFACE('',#300,0.125);
#265=CYLINDRICAL_SURFACE('',#302,0.125);
#266=CYLINDRICAL_SURFACE('',#308,0.125);
#267=CYLINDRICAL_SURFACE('',#311,0.375);
#268=ADVANCED_FACE('',(#71,#62),#260,.F.);
#269=ADVANCED_FACE('',(#72,#63),#261,.F.);
#270=ADVANCED_FACE('',(#73,#64),#262,.F.);
#271=ADVANCED_FACE('',(#74),#263,.T.);
#272=ADVANCED_FACE('',(#75,#65,#66),#15,.T.);
#273=ADVANCED_FACE('',(#76),#16,.T.);
#274=ADVANCED_FACE('',(#77),#264,.T.);
#275=ADVANCED_FACE('',(#78),#265,.T.);
#276=ADVANCED_FACE('',(#79,#67,#68,#69),#17,.T.);
#277=ADVANCED_FACE('',(#80),#18,.T.);
#278=ADVANCED_FACE('',(#81),#266,.T.);
#279=ADVANCED_FACE('',(#82,#70),#19,.T.);
#280=ADVANCED_FACE('',(#83),#267,.F.);
#281=ADVANCED_FACE('',(#84),#20,.T.);
#282=ADVANCED_FACE('',(#85),#21,.F.);
#283=CLOSED_SHELL('',(#268,#269,#270,#271,#272,#273,#274,#275,#276,#277,
#278,#279,#280,#281,#282));
#284=AXIS2_PLACEMENT_3D('placement',#400,#316,#317);
#285=AXIS2_PLACEMENT_3D('',#401,#318,#319);
#286=AXIS2_PLACEMENT_3D('',#403,#320,#321);
#287=AXIS2_PLACEMENT_3D('',#405,#322,#323);
#288=AXIS2_PLACEMENT_3D('',#406,#324,#325);
#289=AXIS2_PLACEMENT_3D('',#408,#326,#327);
#290=AXIS2_PLACEMENT_3D('',#410,#328,#329);
#291=AXIS2_PLACEMENT_3D('',#411,#330,#331);
#292=AXIS2_PLACEMENT_3D('',#413,#332,#333);
#293=AXIS2_PLACEMENT_3D('',#415,#334,#335);
#294=AXIS2_PLACEMENT_3D('',#416,#336,#337);
#295=AXIS2_PLACEMENT_3D('',#419,#338,#339);
#296=AXIS2_PLACEMENT_3D('',#423,#341,#342);
#297=AXIS2_PLACEMENT_3D('',#425,#344,#345);
#298=AXIS2_PLACEMENT_3D('',#429,#347,#348);
#299=AXIS2_PLACEMENT_3D('',#435,#352,#353);
#300=AXIS2_PLACEMENT_3D('',#439,#356,#357);
#301=AXIS2_PLACEMENT_3D('',#441,#358,#359);
#302=AXIS2_PLACEMENT_3D('',#443,#361,#362);
#303=AXIS2_PLACEMENT_3D('',#446,#363,#364);
#304=AXIS2_PLACEMENT_3D('',#450,#366,#367);
#305=AXIS2_PLACEMENT_3D('',#452,#369,#370);
#306=AXIS2_PLACEMENT_3D('',#457,#373,#374);
#307=AXIS2_PLACEMENT_3D('',#459,#376,#377);
#308=AXIS2_PLACEMENT_3D('',#463,#380,#381);
#309=AXIS2_PLACEMENT_3D('',#465,#382,#383);
#310=AXIS2_PLACEMENT_3D('',#467,#385,#386);
#311=AXIS2_PLACEMENT_3D('',#473,#390,#391);
#312=AXIS2_PLACEMENT_3D('',#474,#392,#393);
#313=AXIS2_PLACEMENT_3D('',#475,#394,#395);
#314=AXIS2_PLACEMENT_3D('',#476,#396,#397);
#315=AXIS2_PLACEMENT_3D('',#477,#398,#399);
#316=DIRECTION('axis',(0.,0.,1.));
#317=DIRECTION('refdir',(1.,0.,0.));
#318=DIRECTION('center_axis',(0.,1.,0.));
#319=DIRECTION('ref_axis',(1.,0.,0.));
#320=DIRECTION('center_axis',(0.,1.,0.));
#321=DIRECTION('ref_axis',(1.,0.,0.));
#322=DIRECTION('center_axis',(0.,-1.,0.));
#323=DIRECTION('ref_axis',(1.,0.,0.));
#324=DIRECTION('center_axis',(0.,1.,0.));
#325=DIRECTION('ref_axis',(1.,0.,0.));
#326=DIRECTION('center_axis',(0.,1.,0.));
#327=DIRECTION('ref_axis',(1.,0.,0.));
#328=DIRECTION('center_axis',(0.,-1.,0.));
#329=DIRECTION('ref_axis',(1.,0.,0.));
#330=DIRECTION('center_axis',(0.,1.,0.));
#331=DIRECTION('ref_axis',(1.,0.,0.));
#332=DIRECTION('center_axis',(0.,1.,0.));
#333=DIRECTION('ref_axis',(1.,0.,0.));
#334=DIRECTION('center_axis',(0.,-1.,0.));
#335=DIRECTION('ref_axis',(1.,0.,0.));
#336=DIRECTION('center_axis',(0.,-1.,0.));
#337=DIRECTION('ref_axis',(-0.707106781186548,0.,0.707106781186548));
#338=DIRECTION('center_axis',(0.,1.,0.));
#339=DIRECTION('ref_axis',(-0.707106781186548,0.,0.707106781186548));
#340=DIRECTION('',(0.,1.,0.));
#341=DIRECTION('center_axis',(0.,-1.,0.));
#342=DIRECTION('ref_axis',(-0.707106781186548,0.,0.707106781186548));
#343=DIRECTION('',(0.,-1.,0.));
#344=DIRECTION('center_axis',(0.,-1.,0.));
#345=DIRECTION('ref_axis',(1.,0.,0.));
#346=DIRECTION('',(0.,0.,1.));
#347=DIRECTION('center_axis',(0.,1.,0.));
#348=DIRECTION('ref_axis',(-0.707106781186547,0.,-0.707106781186548));
#349=DIRECTION('',(1.,0.,0.));
#350=DIRECTION('',(0.,0.,1.));
#351=DIRECTION('',(1.,0.,0.));
#352=DIRECTION('center_axis',(-1.,0.,0.));
#353=DIRECTION('ref_axis',(0.,-1.,0.));
#354=DIRECTION('',(0.,0.,1.));
#355=DIRECTION('',(0.,1.,0.));
#356=DIRECTION('center_axis',(0.,-1.,0.));
#357=DIRECTION('ref_axis',(-0.707106781186547,0.,-0.707106781186548));
#358=DIRECTION('center_axis',(0.,-1.,0.));
#359=DIRECTION('ref_axis',(-0.707106781186547,0.,-0.707106781186548));
#360=DIRECTION('',(0.,-1.,0.));
#361=DIRECTION('center_axis',(0.,1.,0.));
#362=DIRECTION('ref_axis',(0.707106781186548,0.,0.707106781186548));
#363=DIRECTION('center_axis',(0.,-1.,0.));
#364=DIRECTION('ref_axis',(0.707106781186548,0.,0.707106781186548));
#365=DIRECTION('',(0.,-1.,0.));
#366=DIRECTION('center_axis',(0.,1.,0.));
#367=DIRECTION('ref_axis',(0.707106781186548,0.,0.707106781186548));
#368=DIRECTION('',(0.,1.,0.));
#369=DIRECTION('center_axis',(0.,1.,0.));
#370=DIRECTION('ref_axis',(-1.,0.,0.));
#371=DIRECTION('',(-1.,0.,0.));
#372=DIRECTION('',(0.,0.,1.));
#373=DIRECTION('center_axis',(0.,-1.,0.));
#374=DIRECTION('ref_axis',(0.707106781186547,0.,-0.707106781186548));
#375=DIRECTION('',(-1.,0.,0.));
#376=DIRECTION('center_axis',(1.,0.,0.));
#377=DIRECTION('ref_axis',(0.,1.,0.));
#378=DIRECTION('',(0.,0.,1.));
#379=DIRECTION('',(0.,-1.,0.));
#380=DIRECTION('center_axis',(0.,1.,0.));
#381=DIRECTION('ref_axis',(0.707106781186547,0.,-0.707106781186548));
#382=DIRECTION('center_axis',(0.,1.,0.));
#383=DIRECTION('ref_axis',(0.707106781186547,0.,-0.707106781186548));
#384=DIRECTION('',(0.,1.,0.));
#385=DIRECTION('center_axis',(0.,-1.,0.));
#386=DIRECTION('ref_axis',(1.,0.,0.));
#387=DIRECTION('',(1.,0.,0.));
#388=DIRECTION('',(0.,0.,1.));
#389=DIRECTION('',(1.,0.,0.));
#390=DIRECTION('center_axis',(0.,0.,1.));
#391=DIRECTION('ref_axis',(-0.991071249821234,-0.133333333333333,0.));
#392=DIRECTION('center_axis',(0.,0.,-1.));
#393=DIRECTION('ref_axis',(-0.991071249821234,-0.133333333333333,0.));
#394=DIRECTION('center_axis',(0.,0.,-1.));
#395=DIRECTION('ref_axis',(-0.991071249821234,-0.133333333333333,0.));
#396=DIRECTION('center_axis',(0.,0.,1.));
#397=DIRECTION('ref_axis',(1.,0.,0.));
#398=DIRECTION('center_axis',(0.,0.,1.));
#399=DIRECTION('ref_axis',(1.,0.,0.));
#400=CARTESIAN_POINT('',(0.,0.,0.));
#401=CARTESIAN_POINT('Origin',(1.12332585934148,0.313,0.625));
#402=CARTESIAN_POINT('',(0.992325859341481,0.,0.625));
#403=CARTESIAN_POINT('Origin',(1.12332585934148,0.,0.625));
#404=CARTESIAN_POINT('',(1.25432585934148,0.75,0.625));
#405=CARTESIAN_POINT('Origin',(1.12332585934148,0.75,0.625));
#406=CARTESIAN_POINT('Origin',(-1.125,-2.36247489949718,0.325));
#407=CARTESIAN_POINT('',(-1.222,0.,0.325));
#408=CARTESIAN_POINT('Origin',(-1.125,0.,0.325));
#409=CARTESIAN_POINT('',(-1.028,0.75,0.325));
#410=CARTESIAN_POINT('Origin',(-1.125,0.75,0.325));
#411=CARTESIAN_POINT('Origin',(-1.125,-2.36247489949718,0.925));
#412=CARTESIAN_POINT('',(-1.222,0.,0.925));
#413=CARTESIAN_POINT('Origin',(-1.125,0.,0.925));
#414=CARTESIAN_POINT('',(-1.028,0.75,0.925));
#415=CARTESIAN_POINT('Origin',(-1.125,0.75,0.925));
#416=CARTESIAN_POINT('Origin',(-1.25,0.572708413123857,1.125));
#417=CARTESIAN_POINT('',(-1.375,0.,1.125));
#418=CARTESIAN_POINT('',(-1.25,0.,1.25));
#419=CARTESIAN_POINT('Origin',(-1.25,0.,1.125));
#420=CARTESIAN_POINT('',(-1.25,0.75,1.25));
#421=CARTESIAN_POINT('',(-1.25,0.572708413123857,1.25));
#422=CARTESIAN_POINT('',(-1.375,0.75,1.125));
#423=CARTESIAN_POINT('Origin',(-1.25,0.75,1.125));
#424=CARTESIAN_POINT('',(-1.375,0.572708413123857,1.125));
#425=CARTESIAN_POINT('Origin',(-1.375,0.,0.));
#426=CARTESIAN_POINT('',(-1.375,0.,0.125));
#427=CARTESIAN_POINT('',(-1.375,0.,0.));
#428=CARTESIAN_POINT('',(-1.25,0.,0.));
#429=CARTESIAN_POINT('Origin',(-1.25,0.,0.125));
#430=CARTESIAN_POINT('',(0.128348281317037,0.,0.));
#431=CARTESIAN_POINT('',(-1.375,0.,0.));
#432=CARTESIAN_POINT('',(0.128348281317037,0.,1.25));
#433=CARTESIAN_POINT('',(0.128348281317037,0.,0.));
#434=CARTESIAN_POINT('',(-1.375,0.,1.25));
#435=CARTESIAN_POINT('Origin',(-1.375,0.75,0.));
#436=CARTESIAN_POINT('',(-1.375,0.75,0.125));
#437=CARTESIAN_POINT('',(-1.375,0.75,0.));
#438=CARTESIAN_POINT('',(-1.375,0.572708413123857,0.125));
#439=CARTESIAN_POINT('Origin',(-1.25,0.572708413123857,0.125));
#440=CARTESIAN_POINT('',(-1.25,0.75,0.));
#441=CARTESIAN_POINT('Origin',(-1.25,0.75,0.125));
#442=CARTESIAN_POINT('',(-1.25,0.572708413123857,0.));
#443=CARTESIAN_POINT('Origin',(1.25,0.197708413123857,1.125));
#444=CARTESIAN_POINT('',(1.375,0.75,1.125));
#445=CARTESIAN_POINT('',(1.25,0.75,1.25));
#446=CARTESIAN_POINT('Origin',(1.25,0.75,1.125));
#447=CARTESIAN_POINT('',(1.25,0.,1.25));
#448=CARTESIAN_POINT('',(1.25,0.197708413123857,1.25));
#449=CARTESIAN_POINT('',(1.375,0.,1.125));
#450=CARTESIAN_POINT('Origin',(1.25,0.,1.125));
#451=CARTESIAN_POINT('',(1.375,0.197708413123857,1.125));
#452=CARTESIAN_POINT('Origin',(1.375,0.75,0.));
#453=CARTESIAN_POINT('',(1.375,0.75,1.25));
#454=CARTESIAN_POINT('',(1.375,0.75,0.125));
#455=CARTESIAN_POINT('',(1.375,0.75,0.));
#456=CARTESIAN_POINT('',(1.25,0.75,0.));
#457=CARTESIAN_POINT('Origin',(1.25,0.75,0.125));
#458=CARTESIAN_POINT('',(1.375,0.75,0.));
#459=CARTESIAN_POINT('Origin',(1.375,0.,0.));
#460=CARTESIAN_POINT('',(1.375,0.,0.125));
#461=CARTESIAN_POINT('',(1.375,0.,0.));
#462=CARTESIAN_POINT('',(1.375,0.197708413123857,0.125));
#463=CARTESIAN_POINT('Origin',(1.25,0.197708413123857,0.125));
#464=CARTESIAN_POINT('',(1.25,0.,0.));
#465=CARTESIAN_POINT('Origin',(1.25,0.,0.125));
#466=CARTESIAN_POINT('',(1.25,0.197708413123857,0.));
#467=CARTESIAN_POINT('Origin',(0.871651718682962,0.,0.));
#468=CARTESIAN_POINT('',(0.871651718682962,0.,1.25));
#469=CARTESIAN_POINT('',(0.871651718682962,0.,1.25));
#470=CARTESIAN_POINT('',(0.871651718682962,0.,0.));
#471=CARTESIAN_POINT('',(0.871651718682962,0.,0.));
#472=CARTESIAN_POINT('',(0.871651718682962,0.,0.));
#473=CARTESIAN_POINT('Origin',(0.5,-0.05,0.));
#474=CARTESIAN_POINT('Origin',(0.5,-0.05,0.));
#475=CARTESIAN_POINT('Origin',(0.5,-0.05,1.25));
#476=CARTESIAN_POINT('Origin',(0.00460333041174766,0.395416826247714,1.25));
#477=CARTESIAN_POINT('Origin',(0.00460333041174766,0.395416826247714,0.));
#478=UNCERTAINTY_MEASURE_WITH_UNIT(LENGTH_MEASURE(0.000393700787401575),
#482,'DISTANCE_ACCURACY_VALUE',
'Maximum model space distance between geometric entities at asserted c
onnectivities');
#479=UNCERTAINTY_MEASURE_WITH_UNIT(LENGTH_MEASURE(1.E-6),#483,
'DISTANCE_ACCURACY_VALUE',
'Maximum model space distance between geometric entities at asserted c
onnectivities');
#480=(
GEOMETRIC_REPRESENTATION_CONTEXT(3)
GLOBAL_UNCERTAINTY_ASSIGNED_CONTEXT((#478))
GLOBAL_UNIT_ASSIGNED_CONTEXT((#482,#488,#485))
REPRESENTATION_CONTEXT('','3D')
);
#481=(
GEOMETRIC_REPRESENTATION_CONTEXT(3)
GLOBAL_UNCERTAINTY_ASSIGNED_CONTEXT((#479))
GLOBAL_UNIT_ASSIGNED_CONTEXT((#483,#488,#485))
REPRESENTATION_CONTEXT('','3D')
);
#482=(
CONVERSION_BASED_UNIT('__CONSTANT UNIT inch',#484)
LENGTH_UNIT()
NAMED_UNIT(#487)
);
#483=(
LENGTH_UNIT()
NAMED_UNIT(*)
SI_UNIT(.MILLI.,.METRE.)
);
#484=LENGTH_MEASURE_WITH_UNIT(LENGTH_MEASURE(25.4),#483);
#485=(
NAMED_UNIT(*)
SI_UNIT($,.STERADIAN.)
SOLID_ANGLE_UNIT()
);
#486=DIMENSIONAL_EXPONENTS(0.,0.,0.,0.,0.,0.,0.);
#487=DIMENSIONAL_EXPONENTS(1.,0.,0.,0.,0.,0.,0.);
#488=(
CONVERSION_BASED_UNIT('degree',#490)
NAMED_UNIT(#486)
PLANE_ANGLE_UNIT()
);
#489=(
NAMED_UNIT(*)
PLANE_ANGLE_UNIT()
SI_UNIT($,.RADIAN.)
);
#490=PLANE_ANGLE_MEASURE_WITH_UNIT(PLANE_ANGLE_MEASURE(0.01745329252),#489);
#491=SHAPE_DEFINITION_REPRESENTATION(#492,#493);
#492=PRODUCT_DEFINITION_SHAPE('',$,#495);
#493=SHAPE_REPRESENTATION('',(#284),#480);
#494=PRODUCT_DEFINITION_CONTEXT('part definition',#499,'design');
#495=PRODUCT_DEFINITION('axialopticocontra_1','axialopticocontra_1',#496,
#494);
#496=PRODUCT_DEFINITION_FORMATION('',$,#501);
#497=PRODUCT_RELATED_PRODUCT_CATEGORY('axialopticocontra_1',
'axialopticocontra_1',(#501));
#498=APPLICATION_PROTOCOL_DEFINITION('international standard',
'automotive_design',2009,#499);
#499=APPLICATION_CONTEXT(
'Core Data for Automotive Mechanical Design Process');
#500=PRODUCT_CONTEXT('part definition',#499,'mechanical');
#501=PRODUCT('axialopticocontra_1','axialopticocontra_1',$,(#500));
#502=PRESENTATION_STYLE_ASSIGNMENT((#503));
#503=SURFACE_STYLE_USAGE(.BOTH.,#504);
#504=SURFACE_SIDE_STYLE('',(#505));
#505=SURFACE_STYLE_FILL_AREA(#506);
#506=FILL_AREA_STYLE('',(#507));
#507=FILL_AREA_STYLE_COLOUR('',#508);
#508=COLOUR_RGB('',0.956862745098039,0.956862745098039,0.956862745098039);
ENDSEC;
END-ISO-10303-21;
