ISO-10303-21;
HEADER;
/* Generated by software containing ST-Developer
 * from STEP Tools, Inc. (www.steptools.com) 
 */

FILE_DESCRIPTION(
/* description */ (''),
/* implementation_level */ '2;1');

FILE_NAME(
/* name */ 
'C:\\Users\\BestBuy2067\\Desktop\\PIEZAS EI30 CHINA\\Archivos STEP\\So
porte rodamientos inferior 1.stp',
/* time_stamp */ '2020-08-03T09:44:55-05:00',
/* author */ ('EI'),
/* organization */ (''),
/* preprocessor_version */ 'ST-DEVELOPER v16.5',
/* originating_system */ 'Autodesk Inventor 2017',
/* authorisation */ '');

FILE_SCHEMA (('AUTOMOTIVE_DESIGN { 1 0 10303 214 3 1 1 }'));
ENDSEC;

DATA;
#10=MECHANICAL_DESIGN_GEOMETRIC_PRESENTATION_REPRESENTATION('',(#13),#925);
#11=SHAPE_REPRESENTATION_RELATIONSHIP('SRR','None',#937,#12);
#12=ADVANCED_BREP_SHAPE_REPRESENTATION('',(#14),#924);
#13=STYLED_ITEM('',(#946),#14);
#14=MANIFOLD_SOLID_BREP('S\X\F3lido1',#549);
#15=LINE('',#785,#55);
#16=LINE('',#788,#56);
#17=LINE('',#791,#57);
#18=LINE('',#793,#58);
#19=LINE('',#794,#59);
#20=LINE('',#799,#60);
#21=LINE('',#802,#61);
#22=LINE('',#803,#62);
#23=LINE('',#814,#63);
#24=LINE('',#817,#64);
#25=LINE('',#820,#65);
#26=LINE('',#822,#66);
#27=LINE('',#823,#67);
#28=LINE('',#828,#68);
#29=LINE('',#831,#69);
#30=LINE('',#832,#70);
#31=LINE('',#841,#71);
#32=LINE('',#843,#72);
#33=LINE('',#845,#73);
#34=LINE('',#846,#74);
#35=LINE('',#850,#75);
#36=LINE('',#852,#76);
#37=LINE('',#854,#77);
#38=LINE('',#855,#78);
#39=LINE('',#857,#79);
#40=LINE('',#858,#80);
#41=LINE('',#869,#81);
#42=LINE('',#871,#82);
#43=LINE('',#872,#83);
#44=LINE('',#877,#84);
#45=LINE('',#879,#85);
#46=LINE('',#880,#86);
#47=LINE('',#885,#87);
#48=LINE('',#887,#88);
#49=LINE('',#888,#89);
#50=LINE('',#913,#90);
#51=LINE('',#914,#91);
#52=LINE('',#917,#92);
#53=LINE('',#918,#93);
#54=LINE('',#920,#94);
#55=VECTOR('',#629,0.393700787401575);
#56=VECTOR('',#632,0.393700787401575);
#57=VECTOR('',#635,0.393700787401575);
#58=VECTOR('',#636,0.393700787401575);
#59=VECTOR('',#637,0.393700787401575);
#60=VECTOR('',#642,0.393700787401575);
#61=VECTOR('',#647,0.393700787401575);
#62=VECTOR('',#648,0.393700787401575);
#63=VECTOR('',#659,0.393700787401575);
#64=VECTOR('',#662,0.393700787401575);
#65=VECTOR('',#665,0.393700787401575);
#66=VECTOR('',#666,0.393700787401575);
#67=VECTOR('',#667,0.393700787401575);
#68=VECTOR('',#672,0.393700787401575);
#69=VECTOR('',#677,0.393700787401575);
#70=VECTOR('',#678,0.393700787401575);
#71=VECTOR('',#687,0.393700787401575);
#72=VECTOR('',#688,0.393700787401575);
#73=VECTOR('',#689,0.393700787401575);
#74=VECTOR('',#690,0.393700787401575);
#75=VECTOR('',#693,0.393700787401575);
#76=VECTOR('',#694,0.393700787401575);
#77=VECTOR('',#695,0.393700787401575);
#78=VECTOR('',#696,0.393700787401575);
#79=VECTOR('',#699,0.393700787401575);
#80=VECTOR('',#700,0.393700787401575);
#81=VECTOR('',#711,0.393700787401575);
#82=VECTOR('',#712,0.393700787401575);
#83=VECTOR('',#713,0.393700787401575);
#84=VECTOR('',#718,0.393700787401575);
#85=VECTOR('',#719,0.393700787401575);
#86=VECTOR('',#720,0.393700787401575);
#87=VECTOR('',#725,0.393700787401575);
#88=VECTOR('',#726,0.393700787401575);
#89=VECTOR('',#727,0.393700787401575);
#90=VECTOR('',#762,0.393700787401575);
#91=VECTOR('',#763,0.393700787401575);
#92=VECTOR('',#766,0.393700787401575);
#93=VECTOR('',#767,0.393700787401575);
#94=VECTOR('',#770,0.393700787401575);
#95=PLANE('',#560);
#96=PLANE('',#564);
#97=PLANE('',#568);
#98=PLANE('',#569);
#99=PLANE('',#575);
#100=PLANE('',#579);
#101=PLANE('',#580);
#102=PLANE('',#583);
#103=PLANE('',#584);
#104=PLANE('',#585);
#105=PLANE('',#590);
#106=PLANE('',#592);
#107=PLANE('',#594);
#108=PLANE('',#597);
#109=PLANE('',#601);
#110=PLANE('',#611);
#111=PLANE('',#612);
#112=PLANE('',#613);
#113=PLANE('',#614);
#114=FACE_BOUND('',#173,.T.);
#115=FACE_BOUND('',#180,.T.);
#116=FACE_BOUND('',#181,.T.);
#117=FACE_BOUND('',#187,.T.);
#118=FACE_BOUND('',#188,.T.);
#119=FACE_BOUND('',#192,.T.);
#120=FACE_BOUND('',#193,.T.);
#121=FACE_BOUND('',#194,.T.);
#122=FACE_BOUND('',#195,.T.);
#123=FACE_BOUND('',#197,.T.);
#124=FACE_BOUND('',#199,.T.);
#125=FACE_BOUND('',#200,.T.);
#126=FACE_BOUND('',#203,.T.);
#127=FACE_BOUND('',#205,.T.);
#128=FACE_BOUND('',#207,.T.);
#129=FACE_BOUND('',#209,.T.);
#130=FACE_BOUND('',#211,.T.);
#131=FACE_BOUND('',#213,.T.);
#132=FACE_BOUND('',#215,.T.);
#133=FACE_BOUND('',#217,.T.);
#134=FACE_BOUND('',#219,.T.);
#135=FACE_BOUND('',#221,.T.);
#136=FACE_BOUND('',#226,.T.);
#137=FACE_BOUND('',#227,.T.);
#138=FACE_BOUND('',#228,.T.);
#139=FACE_BOUND('',#229,.T.);
#140=FACE_OUTER_BOUND('',#172,.T.);
#141=FACE_OUTER_BOUND('',#174,.T.);
#142=FACE_OUTER_BOUND('',#175,.T.);
#143=FACE_OUTER_BOUND('',#176,.T.);
#144=FACE_OUTER_BOUND('',#177,.T.);
#145=FACE_OUTER_BOUND('',#178,.T.);
#146=FACE_OUTER_BOUND('',#179,.T.);
#147=FACE_OUTER_BOUND('',#182,.T.);
#148=FACE_OUTER_BOUND('',#183,.T.);
#149=FACE_OUTER_BOUND('',#184,.T.);
#150=FACE_OUTER_BOUND('',#185,.T.);
#151=FACE_OUTER_BOUND('',#186,.T.);
#152=FACE_OUTER_BOUND('',#189,.T.);
#153=FACE_OUTER_BOUND('',#190,.T.);
#154=FACE_OUTER_BOUND('',#191,.T.);
#155=FACE_OUTER_BOUND('',#196,.T.);
#156=FACE_OUTER_BOUND('',#198,.T.);
#157=FACE_OUTER_BOUND('',#201,.T.);
#158=FACE_OUTER_BOUND('',#202,.T.);
#159=FACE_OUTER_BOUND('',#204,.T.);
#160=FACE_OUTER_BOUND('',#206,.T.);
#161=FACE_OUTER_BOUND('',#208,.T.);
#162=FACE_OUTER_BOUND('',#210,.T.);
#163=FACE_OUTER_BOUND('',#212,.T.);
#164=FACE_OUTER_BOUND('',#214,.T.);
#165=FACE_OUTER_BOUND('',#216,.T.);
#166=FACE_OUTER_BOUND('',#218,.T.);
#167=FACE_OUTER_BOUND('',#220,.T.);
#168=FACE_OUTER_BOUND('',#222,.T.);
#169=FACE_OUTER_BOUND('',#223,.T.);
#170=FACE_OUTER_BOUND('',#224,.T.);
#171=FACE_OUTER_BOUND('',#225,.T.);
#172=EDGE_LOOP('',(#372));
#173=EDGE_LOOP('',(#373));
#174=EDGE_LOOP('',(#374));
#175=EDGE_LOOP('',(#375,#376,#377,#378));
#176=EDGE_LOOP('',(#379,#380,#381,#382));
#177=EDGE_LOOP('',(#383,#384,#385,#386));
#178=EDGE_LOOP('',(#387,#388,#389,#390));
#179=EDGE_LOOP('',(#391,#392,#393,#394));
#180=EDGE_LOOP('',(#395));
#181=EDGE_LOOP('',(#396));
#182=EDGE_LOOP('',(#397,#398,#399,#400));
#183=EDGE_LOOP('',(#401,#402,#403,#404));
#184=EDGE_LOOP('',(#405,#406,#407,#408));
#185=EDGE_LOOP('',(#409,#410,#411,#412));
#186=EDGE_LOOP('',(#413,#414,#415,#416));
#187=EDGE_LOOP('',(#417));
#188=EDGE_LOOP('',(#418));
#189=EDGE_LOOP('',(#419,#420,#421,#422));
#190=EDGE_LOOP('',(#423,#424,#425,#426));
#191=EDGE_LOOP('',(#427,#428,#429,#430));
#192=EDGE_LOOP('',(#431));
#193=EDGE_LOOP('',(#432));
#194=EDGE_LOOP('',(#433));
#195=EDGE_LOOP('',(#434));
#196=EDGE_LOOP('',(#435,#436,#437,#438));
#197=EDGE_LOOP('',(#439));
#198=EDGE_LOOP('',(#440,#441,#442,#443));
#199=EDGE_LOOP('',(#444));
#200=EDGE_LOOP('',(#445));
#201=EDGE_LOOP('',(#446,#447,#448,#449,#450,#451,#452,#453));
#202=EDGE_LOOP('',(#454));
#203=EDGE_LOOP('',(#455));
#204=EDGE_LOOP('',(#456));
#205=EDGE_LOOP('',(#457));
#206=EDGE_LOOP('',(#458));
#207=EDGE_LOOP('',(#459));
#208=EDGE_LOOP('',(#460));
#209=EDGE_LOOP('',(#461));
#210=EDGE_LOOP('',(#462));
#211=EDGE_LOOP('',(#463));
#212=EDGE_LOOP('',(#464));
#213=EDGE_LOOP('',(#465));
#214=EDGE_LOOP('',(#466));
#215=EDGE_LOOP('',(#467));
#216=EDGE_LOOP('',(#468));
#217=EDGE_LOOP('',(#469));
#218=EDGE_LOOP('',(#470));
#219=EDGE_LOOP('',(#471));
#220=EDGE_LOOP('',(#472));
#221=EDGE_LOOP('',(#473));
#222=EDGE_LOOP('',(#474,#475,#476,#477));
#223=EDGE_LOOP('',(#478,#479,#480,#481,#482,#483,#484,#485));
#224=EDGE_LOOP('',(#486,#487,#488,#489));
#225=EDGE_LOOP('',(#490,#491,#492,#493));
#226=EDGE_LOOP('',(#494,#495,#496,#497));
#227=EDGE_LOOP('',(#498,#499,#500,#501));
#228=EDGE_LOOP('',(#502));
#229=EDGE_LOOP('',(#503));
#230=CIRCLE('',#558,0.125);
#231=CIRCLE('',#559,0.125);
#232=CIRCLE('',#562,0.1875);
#233=CIRCLE('',#563,0.1875);
#234=CIRCLE('',#566,0.1875);
#235=CIRCLE('',#567,0.1875);
#236=CIRCLE('',#570,0.09375);
#237=CIRCLE('',#571,0.09375);
#238=CIRCLE('',#573,0.1875);
#239=CIRCLE('',#574,0.1875);
#240=CIRCLE('',#577,0.1875);
#241=CIRCLE('',#578,0.1875);
#242=CIRCLE('',#581,0.09375);
#243=CIRCLE('',#582,0.09375);
#244=CIRCLE('',#586,0.09375);
#245=CIRCLE('',#587,0.09375);
#246=CIRCLE('',#588,0.09375);
#247=CIRCLE('',#589,0.09375);
#248=CIRCLE('',#591,0.3125);
#249=CIRCLE('',#593,0.3125);
#250=CIRCLE('',#596,0.3125);
#251=CIRCLE('',#598,0.25);
#252=CIRCLE('',#600,0.3125);
#253=CIRCLE('',#602,0.25);
#254=CIRCLE('',#604,0.25);
#255=CIRCLE('',#606,0.25);
#256=VERTEX_POINT('',#775);
#257=VERTEX_POINT('',#777);
#258=VERTEX_POINT('',#781);
#259=VERTEX_POINT('',#782);
#260=VERTEX_POINT('',#784);
#261=VERTEX_POINT('',#786);
#262=VERTEX_POINT('',#790);
#263=VERTEX_POINT('',#792);
#264=VERTEX_POINT('',#796);
#265=VERTEX_POINT('',#798);
#266=VERTEX_POINT('',#805);
#267=VERTEX_POINT('',#807);
#268=VERTEX_POINT('',#810);
#269=VERTEX_POINT('',#811);
#270=VERTEX_POINT('',#813);
#271=VERTEX_POINT('',#815);
#272=VERTEX_POINT('',#819);
#273=VERTEX_POINT('',#821);
#274=VERTEX_POINT('',#825);
#275=VERTEX_POINT('',#827);
#276=VERTEX_POINT('',#834);
#277=VERTEX_POINT('',#836);
#278=VERTEX_POINT('',#839);
#279=VERTEX_POINT('',#840);
#280=VERTEX_POINT('',#842);
#281=VERTEX_POINT('',#844);
#282=VERTEX_POINT('',#848);
#283=VERTEX_POINT('',#849);
#284=VERTEX_POINT('',#851);
#285=VERTEX_POINT('',#853);
#286=VERTEX_POINT('',#859);
#287=VERTEX_POINT('',#861);
#288=VERTEX_POINT('',#863);
#289=VERTEX_POINT('',#865);
#290=VERTEX_POINT('',#868);
#291=VERTEX_POINT('',#870);
#292=VERTEX_POINT('',#873);
#293=VERTEX_POINT('',#876);
#294=VERTEX_POINT('',#878);
#295=VERTEX_POINT('',#881);
#296=VERTEX_POINT('',#884);
#297=VERTEX_POINT('',#886);
#298=VERTEX_POINT('',#890);
#299=VERTEX_POINT('',#893);
#300=VERTEX_POINT('',#896);
#301=VERTEX_POINT('',#899);
#302=VERTEX_POINT('',#902);
#303=VERTEX_POINT('',#905);
#304=VERTEX_POINT('',#912);
#305=VERTEX_POINT('',#916);
#306=EDGE_CURVE('',#256,#256,#230,.T.);
#307=EDGE_CURVE('',#257,#257,#231,.T.);
#308=EDGE_CURVE('',#258,#259,#232,.T.);
#309=EDGE_CURVE('',#258,#260,#15,.T.);
#310=EDGE_CURVE('',#260,#261,#233,.T.);
#311=EDGE_CURVE('',#259,#261,#16,.T.);
#312=EDGE_CURVE('',#262,#258,#17,.T.);
#313=EDGE_CURVE('',#262,#263,#18,.T.);
#314=EDGE_CURVE('',#263,#260,#19,.T.);
#315=EDGE_CURVE('',#264,#262,#234,.T.);
#316=EDGE_CURVE('',#264,#265,#20,.T.);
#317=EDGE_CURVE('',#265,#263,#235,.T.);
#318=EDGE_CURVE('',#259,#264,#21,.T.);
#319=EDGE_CURVE('',#261,#265,#22,.T.);
#320=EDGE_CURVE('',#266,#266,#236,.T.);
#321=EDGE_CURVE('',#267,#267,#237,.T.);
#322=EDGE_CURVE('',#268,#269,#238,.T.);
#323=EDGE_CURVE('',#268,#270,#23,.T.);
#324=EDGE_CURVE('',#270,#271,#239,.T.);
#325=EDGE_CURVE('',#269,#271,#24,.T.);
#326=EDGE_CURVE('',#272,#268,#25,.T.);
#327=EDGE_CURVE('',#272,#273,#26,.T.);
#328=EDGE_CURVE('',#273,#270,#27,.T.);
#329=EDGE_CURVE('',#274,#272,#240,.T.);
#330=EDGE_CURVE('',#274,#275,#28,.T.);
#331=EDGE_CURVE('',#275,#273,#241,.T.);
#332=EDGE_CURVE('',#269,#274,#29,.T.);
#333=EDGE_CURVE('',#271,#275,#30,.T.);
#334=EDGE_CURVE('',#276,#276,#242,.T.);
#335=EDGE_CURVE('',#277,#277,#243,.T.);
#336=EDGE_CURVE('',#278,#279,#31,.T.);
#337=EDGE_CURVE('',#280,#278,#32,.T.);
#338=EDGE_CURVE('',#280,#281,#33,.T.);
#339=EDGE_CURVE('',#279,#281,#34,.T.);
#340=EDGE_CURVE('',#282,#283,#35,.T.);
#341=EDGE_CURVE('',#284,#282,#36,.T.);
#342=EDGE_CURVE('',#284,#285,#37,.T.);
#343=EDGE_CURVE('',#283,#285,#38,.T.);
#344=EDGE_CURVE('',#281,#284,#39,.T.);
#345=EDGE_CURVE('',#285,#280,#40,.T.);
#346=EDGE_CURVE('',#286,#286,#244,.T.);
#347=EDGE_CURVE('',#287,#287,#245,.T.);
#348=EDGE_CURVE('',#288,#288,#246,.T.);
#349=EDGE_CURVE('',#289,#289,#247,.T.);
#350=EDGE_CURVE('',#279,#290,#41,.T.);
#351=EDGE_CURVE('',#290,#291,#42,.T.);
#352=EDGE_CURVE('',#291,#278,#43,.T.);
#353=EDGE_CURVE('',#292,#292,#248,.T.);
#354=EDGE_CURVE('',#283,#293,#44,.T.);
#355=EDGE_CURVE('',#293,#294,#45,.T.);
#356=EDGE_CURVE('',#294,#282,#46,.T.);
#357=EDGE_CURVE('',#295,#295,#249,.T.);
#358=EDGE_CURVE('',#296,#291,#47,.T.);
#359=EDGE_CURVE('',#297,#296,#48,.T.);
#360=EDGE_CURVE('',#297,#293,#49,.T.);
#361=EDGE_CURVE('',#298,#298,#250,.T.);
#362=EDGE_CURVE('',#299,#299,#251,.T.);
#363=EDGE_CURVE('',#300,#300,#252,.T.);
#364=EDGE_CURVE('',#301,#301,#253,.T.);
#365=EDGE_CURVE('',#302,#302,#254,.T.);
#366=EDGE_CURVE('',#303,#303,#255,.T.);
#367=EDGE_CURVE('',#296,#304,#50,.T.);
#368=EDGE_CURVE('',#304,#290,#51,.T.);
#369=EDGE_CURVE('',#305,#294,#52,.T.);
#370=EDGE_CURVE('',#304,#305,#53,.T.);
#371=EDGE_CURVE('',#305,#297,#54,.T.);
#372=ORIENTED_EDGE('',*,*,#306,.T.);
#373=ORIENTED_EDGE('',*,*,#307,.F.);
#374=ORIENTED_EDGE('',*,*,#306,.F.);
#375=ORIENTED_EDGE('',*,*,#308,.F.);
#376=ORIENTED_EDGE('',*,*,#309,.T.);
#377=ORIENTED_EDGE('',*,*,#310,.T.);
#378=ORIENTED_EDGE('',*,*,#311,.F.);
#379=ORIENTED_EDGE('',*,*,#312,.F.);
#380=ORIENTED_EDGE('',*,*,#313,.T.);
#381=ORIENTED_EDGE('',*,*,#314,.T.);
#382=ORIENTED_EDGE('',*,*,#309,.F.);
#383=ORIENTED_EDGE('',*,*,#315,.F.);
#384=ORIENTED_EDGE('',*,*,#316,.T.);
#385=ORIENTED_EDGE('',*,*,#317,.T.);
#386=ORIENTED_EDGE('',*,*,#313,.F.);
#387=ORIENTED_EDGE('',*,*,#318,.F.);
#388=ORIENTED_EDGE('',*,*,#311,.T.);
#389=ORIENTED_EDGE('',*,*,#319,.T.);
#390=ORIENTED_EDGE('',*,*,#316,.F.);
#391=ORIENTED_EDGE('',*,*,#319,.F.);
#392=ORIENTED_EDGE('',*,*,#310,.F.);
#393=ORIENTED_EDGE('',*,*,#314,.F.);
#394=ORIENTED_EDGE('',*,*,#317,.F.);
#395=ORIENTED_EDGE('',*,*,#320,.F.);
#396=ORIENTED_EDGE('',*,*,#321,.F.);
#397=ORIENTED_EDGE('',*,*,#322,.F.);
#398=ORIENTED_EDGE('',*,*,#323,.T.);
#399=ORIENTED_EDGE('',*,*,#324,.T.);
#400=ORIENTED_EDGE('',*,*,#325,.F.);
#401=ORIENTED_EDGE('',*,*,#326,.F.);
#402=ORIENTED_EDGE('',*,*,#327,.T.);
#403=ORIENTED_EDGE('',*,*,#328,.T.);
#404=ORIENTED_EDGE('',*,*,#323,.F.);
#405=ORIENTED_EDGE('',*,*,#329,.F.);
#406=ORIENTED_EDGE('',*,*,#330,.T.);
#407=ORIENTED_EDGE('',*,*,#331,.T.);
#408=ORIENTED_EDGE('',*,*,#327,.F.);
#409=ORIENTED_EDGE('',*,*,#332,.F.);
#410=ORIENTED_EDGE('',*,*,#325,.T.);
#411=ORIENTED_EDGE('',*,*,#333,.T.);
#412=ORIENTED_EDGE('',*,*,#330,.F.);
#413=ORIENTED_EDGE('',*,*,#333,.F.);
#414=ORIENTED_EDGE('',*,*,#324,.F.);
#415=ORIENTED_EDGE('',*,*,#328,.F.);
#416=ORIENTED_EDGE('',*,*,#331,.F.);
#417=ORIENTED_EDGE('',*,*,#334,.F.);
#418=ORIENTED_EDGE('',*,*,#335,.F.);
#419=ORIENTED_EDGE('',*,*,#336,.F.);
#420=ORIENTED_EDGE('',*,*,#337,.F.);
#421=ORIENTED_EDGE('',*,*,#338,.T.);
#422=ORIENTED_EDGE('',*,*,#339,.F.);
#423=ORIENTED_EDGE('',*,*,#340,.F.);
#424=ORIENTED_EDGE('',*,*,#341,.F.);
#425=ORIENTED_EDGE('',*,*,#342,.T.);
#426=ORIENTED_EDGE('',*,*,#343,.F.);
#427=ORIENTED_EDGE('',*,*,#342,.F.);
#428=ORIENTED_EDGE('',*,*,#344,.F.);
#429=ORIENTED_EDGE('',*,*,#338,.F.);
#430=ORIENTED_EDGE('',*,*,#345,.F.);
#431=ORIENTED_EDGE('',*,*,#346,.F.);
#432=ORIENTED_EDGE('',*,*,#347,.F.);
#433=ORIENTED_EDGE('',*,*,#348,.F.);
#434=ORIENTED_EDGE('',*,*,#349,.F.);
#435=ORIENTED_EDGE('',*,*,#336,.T.);
#436=ORIENTED_EDGE('',*,*,#350,.T.);
#437=ORIENTED_EDGE('',*,*,#351,.T.);
#438=ORIENTED_EDGE('',*,*,#352,.T.);
#439=ORIENTED_EDGE('',*,*,#353,.T.);
#440=ORIENTED_EDGE('',*,*,#340,.T.);
#441=ORIENTED_EDGE('',*,*,#354,.T.);
#442=ORIENTED_EDGE('',*,*,#355,.T.);
#443=ORIENTED_EDGE('',*,*,#356,.T.);
#444=ORIENTED_EDGE('',*,*,#307,.T.);
#445=ORIENTED_EDGE('',*,*,#357,.T.);
#446=ORIENTED_EDGE('',*,*,#343,.T.);
#447=ORIENTED_EDGE('',*,*,#345,.T.);
#448=ORIENTED_EDGE('',*,*,#337,.T.);
#449=ORIENTED_EDGE('',*,*,#352,.F.);
#450=ORIENTED_EDGE('',*,*,#358,.F.);
#451=ORIENTED_EDGE('',*,*,#359,.F.);
#452=ORIENTED_EDGE('',*,*,#360,.T.);
#453=ORIENTED_EDGE('',*,*,#354,.F.);
#454=ORIENTED_EDGE('',*,*,#361,.T.);
#455=ORIENTED_EDGE('',*,*,#357,.F.);
#456=ORIENTED_EDGE('',*,*,#361,.F.);
#457=ORIENTED_EDGE('',*,*,#362,.F.);
#458=ORIENTED_EDGE('',*,*,#363,.T.);
#459=ORIENTED_EDGE('',*,*,#353,.F.);
#460=ORIENTED_EDGE('',*,*,#363,.F.);
#461=ORIENTED_EDGE('',*,*,#364,.F.);
#462=ORIENTED_EDGE('',*,*,#364,.T.);
#463=ORIENTED_EDGE('',*,*,#365,.F.);
#464=ORIENTED_EDGE('',*,*,#362,.T.);
#465=ORIENTED_EDGE('',*,*,#366,.F.);
#466=ORIENTED_EDGE('',*,*,#321,.T.);
#467=ORIENTED_EDGE('',*,*,#349,.T.);
#468=ORIENTED_EDGE('',*,*,#335,.T.);
#469=ORIENTED_EDGE('',*,*,#348,.T.);
#470=ORIENTED_EDGE('',*,*,#320,.T.);
#471=ORIENTED_EDGE('',*,*,#347,.T.);
#472=ORIENTED_EDGE('',*,*,#334,.T.);
#473=ORIENTED_EDGE('',*,*,#346,.T.);
#474=ORIENTED_EDGE('',*,*,#367,.F.);
#475=ORIENTED_EDGE('',*,*,#358,.T.);
#476=ORIENTED_EDGE('',*,*,#351,.F.);
#477=ORIENTED_EDGE('',*,*,#368,.F.);
#478=ORIENTED_EDGE('',*,*,#341,.T.);
#479=ORIENTED_EDGE('',*,*,#356,.F.);
#480=ORIENTED_EDGE('',*,*,#369,.F.);
#481=ORIENTED_EDGE('',*,*,#370,.F.);
#482=ORIENTED_EDGE('',*,*,#368,.T.);
#483=ORIENTED_EDGE('',*,*,#350,.F.);
#484=ORIENTED_EDGE('',*,*,#339,.T.);
#485=ORIENTED_EDGE('',*,*,#344,.T.);
#486=ORIENTED_EDGE('',*,*,#371,.F.);
#487=ORIENTED_EDGE('',*,*,#369,.T.);
#488=ORIENTED_EDGE('',*,*,#355,.F.);
#489=ORIENTED_EDGE('',*,*,#360,.F.);
#490=ORIENTED_EDGE('',*,*,#359,.T.);
#491=ORIENTED_EDGE('',*,*,#367,.T.);
#492=ORIENTED_EDGE('',*,*,#370,.T.);
#493=ORIENTED_EDGE('',*,*,#371,.T.);
#494=ORIENTED_EDGE('',*,*,#308,.T.);
#495=ORIENTED_EDGE('',*,*,#318,.T.);
#496=ORIENTED_EDGE('',*,*,#315,.T.);
#497=ORIENTED_EDGE('',*,*,#312,.T.);
#498=ORIENTED_EDGE('',*,*,#322,.T.);
#499=ORIENTED_EDGE('',*,*,#332,.T.);
#500=ORIENTED_EDGE('',*,*,#329,.T.);
#501=ORIENTED_EDGE('',*,*,#326,.T.);
#502=ORIENTED_EDGE('',*,*,#365,.T.);
#503=ORIENTED_EDGE('',*,*,#366,.T.);
#504=CYLINDRICAL_SURFACE('',#557,0.125);
#505=CYLINDRICAL_SURFACE('',#561,0.1875);
#506=CYLINDRICAL_SURFACE('',#565,0.1875);
#507=CYLINDRICAL_SURFACE('',#572,0.1875);
#508=CYLINDRICAL_SURFACE('',#576,0.1875);
#509=CYLINDRICAL_SURFACE('',#595,0.3125);
#510=CYLINDRICAL_SURFACE('',#599,0.3125);
#511=CYLINDRICAL_SURFACE('',#603,0.25);
#512=CYLINDRICAL_SURFACE('',#605,0.25);
#513=CYLINDRICAL_SURFACE('',#607,0.09375);
#514=CYLINDRICAL_SURFACE('',#608,0.09375);
#515=CYLINDRICAL_SURFACE('',#609,0.09375);
#516=CYLINDRICAL_SURFACE('',#610,0.09375);
#517=ADVANCED_FACE('',(#140,#114),#504,.F.);
#518=ADVANCED_FACE('',(#141),#95,.T.);
#519=ADVANCED_FACE('',(#142),#505,.F.);
#520=ADVANCED_FACE('',(#143),#96,.F.);
#521=ADVANCED_FACE('',(#144),#506,.F.);
#522=ADVANCED_FACE('',(#145),#97,.F.);
#523=ADVANCED_FACE('',(#146,#115,#116),#98,.F.);
#524=ADVANCED_FACE('',(#147),#507,.F.);
#525=ADVANCED_FACE('',(#148),#99,.F.);
#526=ADVANCED_FACE('',(#149),#508,.F.);
#527=ADVANCED_FACE('',(#150),#100,.F.);
#528=ADVANCED_FACE('',(#151,#117,#118),#101,.F.);
#529=ADVANCED_FACE('',(#152),#102,.F.);
#530=ADVANCED_FACE('',(#153),#103,.F.);
#531=ADVANCED_FACE('',(#154,#119,#120,#121,#122),#104,.F.);
#532=ADVANCED_FACE('',(#155,#123),#105,.T.);
#533=ADVANCED_FACE('',(#156,#124,#125),#106,.T.);
#534=ADVANCED_FACE('',(#157),#107,.T.);
#535=ADVANCED_FACE('',(#158,#126),#509,.F.);
#536=ADVANCED_FACE('',(#159,#127),#108,.T.);
#537=ADVANCED_FACE('',(#160,#128),#510,.F.);
#538=ADVANCED_FACE('',(#161,#129),#109,.T.);
#539=ADVANCED_FACE('',(#162,#130),#511,.F.);
#540=ADVANCED_FACE('',(#163,#131),#512,.F.);
#541=ADVANCED_FACE('',(#164,#132),#513,.F.);
#542=ADVANCED_FACE('',(#165,#133),#514,.F.);
#543=ADVANCED_FACE('',(#166,#134),#515,.F.);
#544=ADVANCED_FACE('',(#167,#135),#516,.F.);
#545=ADVANCED_FACE('',(#168),#110,.T.);
#546=ADVANCED_FACE('',(#169),#111,.T.);
#547=ADVANCED_FACE('',(#170),#112,.T.);
#548=ADVANCED_FACE('',(#171,#136,#137,#138,#139),#113,.F.);
#549=CLOSED_SHELL('',(#517,#518,#519,#520,#521,#522,#523,#524,#525,#526,
#527,#528,#529,#530,#531,#532,#533,#534,#535,#536,#537,#538,#539,#540,#541,
#542,#543,#544,#545,#546,#547,#548));
#550=DATE_TIME_ROLE('creation_date');
#551=APPLIED_DATE_AND_TIME_ASSIGNMENT(#552,#550,(#939));
#552=DATE_AND_TIME(#553,#554);
#553=CALENDAR_DATE(2015,6,4);
#554=LOCAL_TIME(20,0,4.,#555);
#555=COORDINATED_UNIVERSAL_TIME_OFFSET(0,0,.BEHIND.);
#556=AXIS2_PLACEMENT_3D('placement',#773,#615,#616);
#557=AXIS2_PLACEMENT_3D('',#774,#617,#618);
#558=AXIS2_PLACEMENT_3D('',#776,#619,#620);
#559=AXIS2_PLACEMENT_3D('',#778,#621,#622);
#560=AXIS2_PLACEMENT_3D('',#779,#623,#624);
#561=AXIS2_PLACEMENT_3D('',#780,#625,#626);
#562=AXIS2_PLACEMENT_3D('',#783,#627,#628);
#563=AXIS2_PLACEMENT_3D('',#787,#630,#631);
#564=AXIS2_PLACEMENT_3D('',#789,#633,#634);
#565=AXIS2_PLACEMENT_3D('',#795,#638,#639);
#566=AXIS2_PLACEMENT_3D('',#797,#640,#641);
#567=AXIS2_PLACEMENT_3D('',#800,#643,#644);
#568=AXIS2_PLACEMENT_3D('',#801,#645,#646);
#569=AXIS2_PLACEMENT_3D('',#804,#649,#650);
#570=AXIS2_PLACEMENT_3D('',#806,#651,#652);
#571=AXIS2_PLACEMENT_3D('',#808,#653,#654);
#572=AXIS2_PLACEMENT_3D('',#809,#655,#656);
#573=AXIS2_PLACEMENT_3D('',#812,#657,#658);
#574=AXIS2_PLACEMENT_3D('',#816,#660,#661);
#575=AXIS2_PLACEMENT_3D('',#818,#663,#664);
#576=AXIS2_PLACEMENT_3D('',#824,#668,#669);
#577=AXIS2_PLACEMENT_3D('',#826,#670,#671);
#578=AXIS2_PLACEMENT_3D('',#829,#673,#674);
#579=AXIS2_PLACEMENT_3D('',#830,#675,#676);
#580=AXIS2_PLACEMENT_3D('',#833,#679,#680);
#581=AXIS2_PLACEMENT_3D('',#835,#681,#682);
#582=AXIS2_PLACEMENT_3D('',#837,#683,#684);
#583=AXIS2_PLACEMENT_3D('',#838,#685,#686);
#584=AXIS2_PLACEMENT_3D('',#847,#691,#692);
#585=AXIS2_PLACEMENT_3D('',#856,#697,#698);
#586=AXIS2_PLACEMENT_3D('',#860,#701,#702);
#587=AXIS2_PLACEMENT_3D('',#862,#703,#704);
#588=AXIS2_PLACEMENT_3D('',#864,#705,#706);
#589=AXIS2_PLACEMENT_3D('',#866,#707,#708);
#590=AXIS2_PLACEMENT_3D('',#867,#709,#710);
#591=AXIS2_PLACEMENT_3D('',#874,#714,#715);
#592=AXIS2_PLACEMENT_3D('',#875,#716,#717);
#593=AXIS2_PLACEMENT_3D('',#882,#721,#722);
#594=AXIS2_PLACEMENT_3D('',#883,#723,#724);
#595=AXIS2_PLACEMENT_3D('',#889,#728,#729);
#596=AXIS2_PLACEMENT_3D('',#891,#730,#731);
#597=AXIS2_PLACEMENT_3D('',#892,#732,#733);
#598=AXIS2_PLACEMENT_3D('',#894,#734,#735);
#599=AXIS2_PLACEMENT_3D('',#895,#736,#737);
#600=AXIS2_PLACEMENT_3D('',#897,#738,#739);
#601=AXIS2_PLACEMENT_3D('',#898,#740,#741);
#602=AXIS2_PLACEMENT_3D('',#900,#742,#743);
#603=AXIS2_PLACEMENT_3D('',#901,#744,#745);
#604=AXIS2_PLACEMENT_3D('',#903,#746,#747);
#605=AXIS2_PLACEMENT_3D('',#904,#748,#749);
#606=AXIS2_PLACEMENT_3D('',#906,#750,#751);
#607=AXIS2_PLACEMENT_3D('',#907,#752,#753);
#608=AXIS2_PLACEMENT_3D('',#908,#754,#755);
#609=AXIS2_PLACEMENT_3D('',#909,#756,#757);
#610=AXIS2_PLACEMENT_3D('',#910,#758,#759);
#611=AXIS2_PLACEMENT_3D('',#911,#760,#761);
#612=AXIS2_PLACEMENT_3D('',#915,#764,#765);
#613=AXIS2_PLACEMENT_3D('',#919,#768,#769);
#614=AXIS2_PLACEMENT_3D('',#921,#771,#772);
#615=DIRECTION('axis',(0.,0.,1.));
#616=DIRECTION('refdir',(1.,0.,0.));
#617=DIRECTION('center_axis',(0.,0.,-1.));
#618=DIRECTION('ref_axis',(-1.,0.,0.));
#619=DIRECTION('center_axis',(0.,0.,-1.));
#620=DIRECTION('ref_axis',(-1.,0.,0.));
#621=DIRECTION('center_axis',(0.,0.,-1.));
#622=DIRECTION('ref_axis',(-1.,0.,0.));
#623=DIRECTION('center_axis',(0.,0.,1.));
#624=DIRECTION('ref_axis',(1.,0.,0.));
#625=DIRECTION('center_axis',(0.,0.,1.));
#626=DIRECTION('ref_axis',(1.,0.,0.));
#627=DIRECTION('center_axis',(0.,0.,1.));
#628=DIRECTION('ref_axis',(1.,0.,0.));
#629=DIRECTION('',(0.,0.,1.));
#630=DIRECTION('center_axis',(0.,0.,1.));
#631=DIRECTION('ref_axis',(1.,0.,0.));
#632=DIRECTION('',(0.,0.,1.));
#633=DIRECTION('center_axis',(-1.,0.,0.));
#634=DIRECTION('ref_axis',(0.,-1.,0.));
#635=DIRECTION('',(0.,-1.,0.));
#636=DIRECTION('',(0.,0.,1.));
#637=DIRECTION('',(0.,-1.,0.));
#638=DIRECTION('center_axis',(0.,0.,1.));
#639=DIRECTION('ref_axis',(-1.,0.,0.));
#640=DIRECTION('center_axis',(0.,0.,1.));
#641=DIRECTION('ref_axis',(-1.,0.,0.));
#642=DIRECTION('',(0.,0.,1.));
#643=DIRECTION('center_axis',(0.,0.,1.));
#644=DIRECTION('ref_axis',(-1.,0.,0.));
#645=DIRECTION('center_axis',(1.,0.,0.));
#646=DIRECTION('ref_axis',(0.,1.,0.));
#647=DIRECTION('',(0.,1.,0.));
#648=DIRECTION('',(0.,1.,0.));
#649=DIRECTION('center_axis',(0.,0.,1.));
#650=DIRECTION('ref_axis',(1.,0.,0.));
#651=DIRECTION('center_axis',(0.,0.,-1.));
#652=DIRECTION('ref_axis',(-1.,0.,0.));
#653=DIRECTION('center_axis',(0.,0.,-1.));
#654=DIRECTION('ref_axis',(-1.,0.,0.));
#655=DIRECTION('center_axis',(0.,0.,1.));
#656=DIRECTION('ref_axis',(1.,0.,0.));
#657=DIRECTION('center_axis',(0.,0.,1.));
#658=DIRECTION('ref_axis',(1.,0.,0.));
#659=DIRECTION('',(0.,0.,1.));
#660=DIRECTION('center_axis',(0.,0.,1.));
#661=DIRECTION('ref_axis',(1.,0.,0.));
#662=DIRECTION('',(0.,0.,1.));
#663=DIRECTION('center_axis',(-1.,0.,0.));
#664=DIRECTION('ref_axis',(0.,-1.,0.));
#665=DIRECTION('',(0.,-1.,0.));
#666=DIRECTION('',(0.,0.,1.));
#667=DIRECTION('',(0.,-1.,0.));
#668=DIRECTION('center_axis',(0.,0.,1.));
#669=DIRECTION('ref_axis',(-1.,0.,0.));
#670=DIRECTION('center_axis',(0.,0.,1.));
#671=DIRECTION('ref_axis',(-1.,0.,0.));
#672=DIRECTION('',(0.,0.,1.));
#673=DIRECTION('center_axis',(0.,0.,1.));
#674=DIRECTION('ref_axis',(-1.,0.,0.));
#675=DIRECTION('center_axis',(1.,0.,0.));
#676=DIRECTION('ref_axis',(0.,1.,0.));
#677=DIRECTION('',(0.,1.,0.));
#678=DIRECTION('',(0.,1.,0.));
#679=DIRECTION('center_axis',(0.,0.,1.));
#680=DIRECTION('ref_axis',(1.,0.,0.));
#681=DIRECTION('center_axis',(0.,0.,-1.));
#682=DIRECTION('ref_axis',(-1.,0.,0.));
#683=DIRECTION('center_axis',(0.,0.,-1.));
#684=DIRECTION('ref_axis',(-1.,0.,0.));
#685=DIRECTION('center_axis',(1.,-4.89547160464636E-16,0.));
#686=DIRECTION('ref_axis',(-4.22994972382185E-16,-1.,0.));
#687=DIRECTION('',(-4.89547160464636E-16,-1.,0.));
#688=DIRECTION('',(0.,0.,1.));
#689=DIRECTION('',(-4.89547160464636E-16,-1.,0.));
#690=DIRECTION('',(0.,0.,-1.));
#691=DIRECTION('center_axis',(-1.,-8.39223703653662E-16,0.));
#692=DIRECTION('ref_axis',(-8.45989944764369E-16,1.,0.));
#693=DIRECTION('',(-8.39223703653662E-16,1.,0.));
#694=DIRECTION('',(0.,0.,1.));
#695=DIRECTION('',(-8.39223703653662E-16,1.,0.));
#696=DIRECTION('',(0.,0.,-1.));
#697=DIRECTION('center_axis',(0.,0.,-1.));
#698=DIRECTION('ref_axis',(-1.,0.,0.));
#699=DIRECTION('',(-1.,0.,0.));
#700=DIRECTION('',(1.,0.,0.));
#701=DIRECTION('center_axis',(0.,0.,1.));
#702=DIRECTION('ref_axis',(-1.,0.,0.));
#703=DIRECTION('center_axis',(0.,0.,1.));
#704=DIRECTION('ref_axis',(-1.,0.,0.));
#705=DIRECTION('center_axis',(0.,0.,1.));
#706=DIRECTION('ref_axis',(-1.,0.,0.));
#707=DIRECTION('center_axis',(0.,0.,1.));
#708=DIRECTION('ref_axis',(-1.,0.,0.));
#709=DIRECTION('center_axis',(0.,0.,1.));
#710=DIRECTION('ref_axis',(1.,0.,0.));
#711=DIRECTION('',(1.,0.,0.));
#712=DIRECTION('',(0.,1.,0.));
#713=DIRECTION('',(-1.,0.,0.));
#714=DIRECTION('center_axis',(0.,0.,-1.));
#715=DIRECTION('ref_axis',(-1.,0.,0.));
#716=DIRECTION('center_axis',(0.,0.,1.));
#717=DIRECTION('ref_axis',(1.,0.,0.));
#718=DIRECTION('',(-1.,0.,0.));
#719=DIRECTION('',(0.,-1.,0.));
#720=DIRECTION('',(1.,0.,0.));
#721=DIRECTION('center_axis',(0.,0.,-1.));
#722=DIRECTION('ref_axis',(-1.,0.,0.));
#723=DIRECTION('center_axis',(0.,1.,0.));
#724=DIRECTION('ref_axis',(-1.,0.,0.));
#725=DIRECTION('',(0.,0.,1.));
#726=DIRECTION('',(1.,0.,0.));
#727=DIRECTION('',(0.,0.,1.));
#728=DIRECTION('center_axis',(0.,0.,-1.));
#729=DIRECTION('ref_axis',(-1.,0.,0.));
#730=DIRECTION('center_axis',(0.,0.,-1.));
#731=DIRECTION('ref_axis',(-1.,0.,0.));
#732=DIRECTION('center_axis',(0.,0.,1.));
#733=DIRECTION('ref_axis',(1.,0.,0.));
#734=DIRECTION('center_axis',(0.,0.,1.));
#735=DIRECTION('ref_axis',(-1.,0.,0.));
#736=DIRECTION('center_axis',(0.,0.,-1.));
#737=DIRECTION('ref_axis',(-1.,0.,0.));
#738=DIRECTION('center_axis',(0.,0.,-1.));
#739=DIRECTION('ref_axis',(-1.,0.,0.));
#740=DIRECTION('center_axis',(0.,0.,1.));
#741=DIRECTION('ref_axis',(1.,0.,0.));
#742=DIRECTION('center_axis',(0.,0.,1.));
#743=DIRECTION('ref_axis',(-1.,0.,0.));
#744=DIRECTION('center_axis',(0.,0.,1.));
#745=DIRECTION('ref_axis',(-1.,0.,0.));
#746=DIRECTION('center_axis',(0.,0.,1.));
#747=DIRECTION('ref_axis',(-1.,0.,0.));
#748=DIRECTION('center_axis',(0.,0.,1.));
#749=DIRECTION('ref_axis',(-1.,0.,0.));
#750=DIRECTION('center_axis',(0.,0.,1.));
#751=DIRECTION('ref_axis',(-1.,0.,0.));
#752=DIRECTION('center_axis',(0.,0.,1.));
#753=DIRECTION('ref_axis',(-1.,0.,0.));
#754=DIRECTION('center_axis',(0.,0.,1.));
#755=DIRECTION('ref_axis',(-1.,0.,0.));
#756=DIRECTION('center_axis',(0.,0.,1.));
#757=DIRECTION('ref_axis',(-1.,0.,0.));
#758=DIRECTION('center_axis',(0.,0.,1.));
#759=DIRECTION('ref_axis',(-1.,0.,0.));
#760=DIRECTION('center_axis',(1.,0.,0.));
#761=DIRECTION('ref_axis',(0.,1.,0.));
#762=DIRECTION('',(0.,-1.,0.));
#763=DIRECTION('',(0.,0.,1.));
#764=DIRECTION('center_axis',(0.,-1.,0.));
#765=DIRECTION('ref_axis',(1.,0.,0.));
#766=DIRECTION('',(0.,0.,1.));
#767=DIRECTION('',(-1.,0.,0.));
#768=DIRECTION('center_axis',(-1.,0.,0.));
#769=DIRECTION('ref_axis',(0.,-1.,0.));
#770=DIRECTION('',(0.,1.,0.));
#771=DIRECTION('center_axis',(0.,0.,1.));
#772=DIRECTION('ref_axis',(1.,0.,0.));
#773=CARTESIAN_POINT('',(0.,0.,0.));
#774=CARTESIAN_POINT('Origin',(-0.899122372972189,0.222041962830436,0.25));
#775=CARTESIAN_POINT('',(-0.774122372972189,0.222041962830436,0.24));
#776=CARTESIAN_POINT('Origin',(-0.899122372972189,0.222041962830436,0.24));
#777=CARTESIAN_POINT('',(-0.774122372972189,0.222041962830436,0.25));
#778=CARTESIAN_POINT('Origin',(-0.899122372972189,0.222041962830436,0.25));
#779=CARTESIAN_POINT('Origin',(-0.899122372972189,0.222041962830436,0.24));
#780=CARTESIAN_POINT('Origin',(0.25,-0.375,0.));
#781=CARTESIAN_POINT('',(0.0625,-0.375,0.));
#782=CARTESIAN_POINT('',(0.4375,-0.375,0.));
#783=CARTESIAN_POINT('Origin',(0.25,-0.375,0.));
#784=CARTESIAN_POINT('',(0.0625,-0.375,0.125));
#785=CARTESIAN_POINT('',(0.0625,-0.375,0.));
#786=CARTESIAN_POINT('',(0.4375,-0.375,0.125));
#787=CARTESIAN_POINT('Origin',(0.25,-0.375,0.125));
#788=CARTESIAN_POINT('',(0.4375,-0.375,0.));
#789=CARTESIAN_POINT('Origin',(0.0625,0.375,0.));
#790=CARTESIAN_POINT('',(0.0625,0.375,0.));
#791=CARTESIAN_POINT('',(0.0625,0.1875,0.));
#792=CARTESIAN_POINT('',(0.0625,0.375,0.125));
#793=CARTESIAN_POINT('',(0.0625,0.375,0.));
#794=CARTESIAN_POINT('',(0.0625,-0.375,0.125));
#795=CARTESIAN_POINT('Origin',(0.25,0.375,0.));
#796=CARTESIAN_POINT('',(0.4375,0.375,0.));
#797=CARTESIAN_POINT('Origin',(0.25,0.375,0.));
#798=CARTESIAN_POINT('',(0.4375,0.375,0.125));
#799=CARTESIAN_POINT('',(0.4375,0.375,0.));
#800=CARTESIAN_POINT('Origin',(0.25,0.375,0.125));
#801=CARTESIAN_POINT('Origin',(0.4375,-0.375,0.));
#802=CARTESIAN_POINT('',(0.4375,-0.1875,0.));
#803=CARTESIAN_POINT('',(0.4375,0.375,0.125));
#804=CARTESIAN_POINT('Origin',(0.25,3.24882908952368E-17,0.125));
#805=CARTESIAN_POINT('',(0.34375,-0.25,0.125));
#806=CARTESIAN_POINT('Origin',(0.25,-0.25,0.125));
#807=CARTESIAN_POINT('',(0.15625,0.25,0.125));
#808=CARTESIAN_POINT('Origin',(0.25,0.25,0.125));
#809=CARTESIAN_POINT('Origin',(-0.25,-0.375,0.));
#810=CARTESIAN_POINT('',(-0.4375,-0.375,0.));
#811=CARTESIAN_POINT('',(-0.0625,-0.375,0.));
#812=CARTESIAN_POINT('Origin',(-0.25,-0.375,0.));
#813=CARTESIAN_POINT('',(-0.4375,-0.375,0.125));
#814=CARTESIAN_POINT('',(-0.4375,-0.375,0.));
#815=CARTESIAN_POINT('',(-0.0625,-0.375,0.125));
#816=CARTESIAN_POINT('Origin',(-0.25,-0.375,0.125));
#817=CARTESIAN_POINT('',(-0.0625,-0.375,0.));
#818=CARTESIAN_POINT('Origin',(-0.4375,0.375,0.));
#819=CARTESIAN_POINT('',(-0.4375,0.375,0.));
#820=CARTESIAN_POINT('',(-0.4375,0.1875,0.));
#821=CARTESIAN_POINT('',(-0.4375,0.375,0.125));
#822=CARTESIAN_POINT('',(-0.4375,0.375,0.));
#823=CARTESIAN_POINT('',(-0.4375,-0.375,0.125));
#824=CARTESIAN_POINT('Origin',(-0.25,0.375,0.));
#825=CARTESIAN_POINT('',(-0.0625,0.375,0.));
#826=CARTESIAN_POINT('Origin',(-0.25,0.375,0.));
#827=CARTESIAN_POINT('',(-0.0625,0.375,0.125));
#828=CARTESIAN_POINT('',(-0.0625,0.375,0.));
#829=CARTESIAN_POINT('Origin',(-0.25,0.375,0.125));
#830=CARTESIAN_POINT('Origin',(-0.0625,-0.375,0.));
#831=CARTESIAN_POINT('',(-0.0625,-0.1875,0.));
#832=CARTESIAN_POINT('',(-0.0625,0.375,0.125));
#833=CARTESIAN_POINT('Origin',(-0.25,0.,0.125));
#834=CARTESIAN_POINT('',(-0.34375,-0.25,0.125));
#835=CARTESIAN_POINT('Origin',(-0.25,-0.25,0.125));
#836=CARTESIAN_POINT('',(-0.34375,0.25,0.125));
#837=CARTESIAN_POINT('Origin',(-0.25,0.25,0.125));
#838=CARTESIAN_POINT('Origin',(0.480000000000001,0.625,0.25));
#839=CARTESIAN_POINT('',(0.480000000000001,0.625,0.25));
#840=CARTESIAN_POINT('',(0.48,-0.625,0.25));
#841=CARTESIAN_POINT('',(0.480000000000001,0.3125,0.25));
#842=CARTESIAN_POINT('',(0.480000000000001,0.625,0.21));
#843=CARTESIAN_POINT('',(0.480000000000001,0.625,0.125));
#844=CARTESIAN_POINT('',(0.48,-0.625,0.21));
#845=CARTESIAN_POINT('',(0.48,-0.625,0.21));
#846=CARTESIAN_POINT('',(0.48,-0.625,0.125));
#847=CARTESIAN_POINT('Origin',(-0.48,-0.624999999999999,0.25));
#848=CARTESIAN_POINT('',(-0.48,-0.624999999999999,0.25));
#849=CARTESIAN_POINT('',(-0.480000000000001,0.625,0.25));
#850=CARTESIAN_POINT('',(-0.48,-0.3125,0.25));
#851=CARTESIAN_POINT('',(-0.48,-0.624999999999999,0.21));
#852=CARTESIAN_POINT('',(-0.48,-0.625,0.125));
#853=CARTESIAN_POINT('',(-0.480000000000001,0.625,0.21));
#854=CARTESIAN_POINT('',(-0.480000000000001,0.625,0.21));
#855=CARTESIAN_POINT('',(-0.480000000000001,0.625,0.125));
#856=CARTESIAN_POINT('Origin',(1.74838271594513E-16,5.24514814783538E-16,
0.21));
#857=CARTESIAN_POINT('',(-0.9375,-0.625,0.21));
#858=CARTESIAN_POINT('',(0.9375,0.625,0.21));
#859=CARTESIAN_POINT('',(-0.15625,-0.25,0.21));
#860=CARTESIAN_POINT('Origin',(-0.25,-0.25,0.21));
#861=CARTESIAN_POINT('',(0.34375,-0.25,0.21));
#862=CARTESIAN_POINT('Origin',(0.25,-0.25,0.21));
#863=CARTESIAN_POINT('',(-0.15625,0.25,0.21));
#864=CARTESIAN_POINT('Origin',(-0.25,0.25,0.21));
#865=CARTESIAN_POINT('',(0.34375,0.25,0.21));
#866=CARTESIAN_POINT('Origin',(0.25,0.25,0.21));
#867=CARTESIAN_POINT('Origin',(0.,0.,0.25));
#868=CARTESIAN_POINT('',(1.875,-0.625,0.25));
#869=CARTESIAN_POINT('',(1.875,-0.625,0.25));
#870=CARTESIAN_POINT('',(1.875,0.625,0.25));
#871=CARTESIAN_POINT('',(1.875,0.625,0.25));
#872=CARTESIAN_POINT('',(-1.875,0.625,0.25));
#873=CARTESIAN_POINT('',(1.8125,-0.25,0.25));
#874=CARTESIAN_POINT('Origin',(1.5,-0.25,0.25));
#875=CARTESIAN_POINT('Origin',(0.,0.,0.25));
#876=CARTESIAN_POINT('',(-1.875,0.625,0.25));
#877=CARTESIAN_POINT('',(-1.875,0.625,0.25));
#878=CARTESIAN_POINT('',(-1.875,-0.625,0.25));
#879=CARTESIAN_POINT('',(-1.875,-0.625,0.25));
#880=CARTESIAN_POINT('',(1.875,-0.625,0.25));
#881=CARTESIAN_POINT('',(-1.1875,-0.25,0.25));
#882=CARTESIAN_POINT('Origin',(-1.5,-0.25,0.25));
#883=CARTESIAN_POINT('Origin',(1.875,0.625,0.));
#884=CARTESIAN_POINT('',(1.875,0.625,0.));
#885=CARTESIAN_POINT('',(1.875,0.625,0.));
#886=CARTESIAN_POINT('',(-1.875,0.625,0.));
#887=CARTESIAN_POINT('',(-1.875,0.625,0.));
#888=CARTESIAN_POINT('',(-1.875,0.625,0.));
#889=CARTESIAN_POINT('Origin',(-1.5,-0.25,0.25));
#890=CARTESIAN_POINT('',(-1.1875,-0.25,0.054));
#891=CARTESIAN_POINT('Origin',(-1.5,-0.25,0.054));
#892=CARTESIAN_POINT('Origin',(-1.5,-0.25,0.054));
#893=CARTESIAN_POINT('',(-1.25,-0.25,0.054));
#894=CARTESIAN_POINT('Origin',(-1.5,-0.25,0.054));
#895=CARTESIAN_POINT('Origin',(1.5,-0.25,0.25));
#896=CARTESIAN_POINT('',(1.8125,-0.25,0.054));
#897=CARTESIAN_POINT('Origin',(1.5,-0.25,0.054));
#898=CARTESIAN_POINT('Origin',(1.5,-0.25,0.054));
#899=CARTESIAN_POINT('',(1.75,-0.25,0.054));
#900=CARTESIAN_POINT('Origin',(1.5,-0.25,0.054));
#901=CARTESIAN_POINT('Origin',(1.5,-0.25,0.));
#902=CARTESIAN_POINT('',(1.75,-0.25,0.));
#903=CARTESIAN_POINT('Origin',(1.5,-0.25,0.));
#904=CARTESIAN_POINT('Origin',(-1.5,-0.25,0.));
#905=CARTESIAN_POINT('',(-1.25,-0.25,0.));
#906=CARTESIAN_POINT('Origin',(-1.5,-0.25,0.));
#907=CARTESIAN_POINT('Origin',(0.25,0.25,0.));
#908=CARTESIAN_POINT('Origin',(-0.25,0.25,0.));
#909=CARTESIAN_POINT('Origin',(0.25,-0.25,0.));
#910=CARTESIAN_POINT('Origin',(-0.25,-0.25,0.));
#911=CARTESIAN_POINT('Origin',(1.875,-0.625,0.));
#912=CARTESIAN_POINT('',(1.875,-0.625,0.));
#913=CARTESIAN_POINT('',(1.875,0.625,0.));
#914=CARTESIAN_POINT('',(1.875,-0.625,0.));
#915=CARTESIAN_POINT('Origin',(-1.875,-0.625,0.));
#916=CARTESIAN_POINT('',(-1.875,-0.625,0.));
#917=CARTESIAN_POINT('',(-1.875,-0.625,0.));
#918=CARTESIAN_POINT('',(1.875,-0.625,0.));
#919=CARTESIAN_POINT('Origin',(-1.875,0.625,0.));
#920=CARTESIAN_POINT('',(-1.875,-0.625,0.));
#921=CARTESIAN_POINT('Origin',(0.,0.,0.));
#922=UNCERTAINTY_MEASURE_WITH_UNIT(LENGTH_MEASURE(0.000393700787401575),
#926,'DISTANCE_ACCURACY_VALUE',
'Maximum model space distance between geometric entities at asserted c
onnectivities');
#923=UNCERTAINTY_MEASURE_WITH_UNIT(LENGTH_MEASURE(1.E-6),#927,
'DISTANCE_ACCURACY_VALUE',
'Maximum model space distance between geometric entities at asserted c
onnectivities');
#924=(
GEOMETRIC_REPRESENTATION_CONTEXT(3)
GLOBAL_UNCERTAINTY_ASSIGNED_CONTEXT((#922))
GLOBAL_UNIT_ASSIGNED_CONTEXT((#926,#932,#929))
REPRESENTATION_CONTEXT('','3D')
);
#925=(
GEOMETRIC_REPRESENTATION_CONTEXT(3)
GLOBAL_UNCERTAINTY_ASSIGNED_CONTEXT((#923))
GLOBAL_UNIT_ASSIGNED_CONTEXT((#927,#932,#929))
REPRESENTATION_CONTEXT('','3D')
);
#926=(
CONVERSION_BASED_UNIT('__CONSTANT UNIT inch',#928)
LENGTH_UNIT()
NAMED_UNIT(#931)
);
#927=(
LENGTH_UNIT()
NAMED_UNIT(*)
SI_UNIT(.MILLI.,.METRE.)
);
#928=LENGTH_MEASURE_WITH_UNIT(LENGTH_MEASURE(25.4),#927);
#929=(
NAMED_UNIT(*)
SI_UNIT($,.STERADIAN.)
SOLID_ANGLE_UNIT()
);
#930=DIMENSIONAL_EXPONENTS(0.,0.,0.,0.,0.,0.,0.);
#931=DIMENSIONAL_EXPONENTS(1.,0.,0.,0.,0.,0.,0.);
#932=(
CONVERSION_BASED_UNIT('degree',#934)
NAMED_UNIT(#930)
PLANE_ANGLE_UNIT()
);
#933=(
NAMED_UNIT(*)
PLANE_ANGLE_UNIT()
SI_UNIT($,.RADIAN.)
);
#934=PLANE_ANGLE_MEASURE_WITH_UNIT(PLANE_ANGLE_MEASURE(0.01745329252),#933);
#935=SHAPE_DEFINITION_REPRESENTATION(#936,#937);
#936=PRODUCT_DEFINITION_SHAPE('',$,#939);
#937=SHAPE_REPRESENTATION('',(#556),#924);
#938=PRODUCT_DEFINITION_CONTEXT('part definition',#943,'design');
#939=PRODUCT_DEFINITION('Soporte rodamientos inferior 1',
'Soporte rodamientos inferior 1',#940,#938);
#940=PRODUCT_DEFINITION_FORMATION('',$,#945);
#941=PRODUCT_RELATED_PRODUCT_CATEGORY('Soporte rodamientos inferior 1',
'Soporte rodamientos inferior 1',(#945));
#942=APPLICATION_PROTOCOL_DEFINITION('international standard',
'automotive_design',2009,#943);
#943=APPLICATION_CONTEXT(
'Core Data for Automotive Mechanical Design Process');
#944=PRODUCT_CONTEXT('part definition',#943,'mechanical');
#945=PRODUCT('Soporte rodamientos inferior 1',
'Soporte rodamientos inferior 1',$,(#944));
#946=PRESENTATION_STYLE_ASSIGNMENT((#947));
#947=SURFACE_STYLE_USAGE(.BOTH.,#948);
#948=SURFACE_SIDE_STYLE('',(#949));
#949=SURFACE_STYLE_FILL_AREA(#950);
#950=FILL_AREA_STYLE('',(#951));
#951=FILL_AREA_STYLE_COLOUR('',#952);
#952=COLOUR_RGB('',0.898039215686275,0.898039215686275,0.898039215686275);
ENDSEC;
END-ISO-10303-21;
