ISO-10303-21;
HEADER;
/* Generated by software containing ST-Developer
 * from STEP Tools, Inc. (www.steptools.com) 
 */

FILE_DESCRIPTION(
/* description */ (''),
/* implementation_level */ '2;1');

FILE_NAME(
/* name */ 
'C:\\Users\\BestBuy2067\\Desktop\\PIEZAS EI30 CHINA\\Archivos STEP\\So
porte rodamientos inferior 2.stp',
/* time_stamp */ '2020-08-03T09:45:21-05:00',
/* author */ ('EI'),
/* organization */ (''),
/* preprocessor_version */ 'ST-DEVELOPER v16.5',
/* originating_system */ 'Autodesk Inventor 2017',
/* authorisation */ '');

FILE_SCHEMA (('AUTOMOTIVE_DESIGN { 1 0 10303 214 3 1 1 }'));
ENDSEC;

DATA;
#10=MECHANICAL_DESIGN_GEOMETRIC_PRESENTATION_REPRESENTATION('',(#13),#965);
#11=SHAPE_REPRESENTATION_RELATIONSHIP('SRR','None',#977,#12);
#12=ADVANCED_BREP_SHAPE_REPRESENTATION('',(#14),#964);
#13=STYLED_ITEM('',(#986),#14);
#14=MANIFOLD_SOLID_BREP('S\X\F3lido1',#571);
#15=LINE('',#825,#55);
#16=LINE('',#828,#56);
#17=LINE('',#831,#57);
#18=LINE('',#833,#58);
#19=LINE('',#834,#59);
#20=LINE('',#839,#60);
#21=LINE('',#842,#61);
#22=LINE('',#843,#62);
#23=LINE('',#854,#63);
#24=LINE('',#857,#64);
#25=LINE('',#860,#65);
#26=LINE('',#862,#66);
#27=LINE('',#863,#67);
#28=LINE('',#868,#68);
#29=LINE('',#871,#69);
#30=LINE('',#872,#70);
#31=LINE('',#881,#71);
#32=LINE('',#883,#72);
#33=LINE('',#885,#73);
#34=LINE('',#886,#74);
#35=LINE('',#890,#75);
#36=LINE('',#892,#76);
#37=LINE('',#894,#77);
#38=LINE('',#895,#78);
#39=LINE('',#897,#79);
#40=LINE('',#898,#80);
#41=LINE('',#909,#81);
#42=LINE('',#911,#82);
#43=LINE('',#912,#83);
#44=LINE('',#917,#84);
#45=LINE('',#919,#85);
#46=LINE('',#920,#86);
#47=LINE('',#925,#87);
#48=LINE('',#927,#88);
#49=LINE('',#928,#89);
#50=LINE('',#953,#90);
#51=LINE('',#954,#91);
#52=LINE('',#957,#92);
#53=LINE('',#958,#93);
#54=LINE('',#960,#94);
#55=VECTOR('',#663,0.393700787401575);
#56=VECTOR('',#666,0.393700787401575);
#57=VECTOR('',#669,0.393700787401575);
#58=VECTOR('',#670,0.393700787401575);
#59=VECTOR('',#671,0.393700787401575);
#60=VECTOR('',#676,0.393700787401575);
#61=VECTOR('',#681,0.393700787401575);
#62=VECTOR('',#682,0.393700787401575);
#63=VECTOR('',#693,0.393700787401575);
#64=VECTOR('',#696,0.393700787401575);
#65=VECTOR('',#699,0.393700787401575);
#66=VECTOR('',#700,0.393700787401575);
#67=VECTOR('',#701,0.393700787401575);
#68=VECTOR('',#706,0.393700787401575);
#69=VECTOR('',#711,0.393700787401575);
#70=VECTOR('',#712,0.393700787401575);
#71=VECTOR('',#721,0.393700787401575);
#72=VECTOR('',#722,0.393700787401575);
#73=VECTOR('',#723,0.393700787401575);
#74=VECTOR('',#724,0.393700787401575);
#75=VECTOR('',#727,0.393700787401575);
#76=VECTOR('',#728,0.393700787401575);
#77=VECTOR('',#729,0.393700787401575);
#78=VECTOR('',#730,0.393700787401575);
#79=VECTOR('',#733,0.393700787401575);
#80=VECTOR('',#734,0.393700787401575);
#81=VECTOR('',#745,0.393700787401575);
#82=VECTOR('',#746,0.393700787401575);
#83=VECTOR('',#747,0.393700787401575);
#84=VECTOR('',#752,0.393700787401575);
#85=VECTOR('',#753,0.393700787401575);
#86=VECTOR('',#754,0.393700787401575);
#87=VECTOR('',#759,0.393700787401575);
#88=VECTOR('',#760,0.393700787401575);
#89=VECTOR('',#761,0.393700787401575);
#90=VECTOR('',#796,0.393700787401575);
#91=VECTOR('',#797,0.393700787401575);
#92=VECTOR('',#800,0.393700787401575);
#93=VECTOR('',#801,0.393700787401575);
#94=VECTOR('',#804,0.393700787401575);
#95=PLANE('',#582);
#96=PLANE('',#586);
#97=PLANE('',#590);
#98=PLANE('',#594);
#99=PLANE('',#595);
#100=PLANE('',#601);
#101=PLANE('',#605);
#102=PLANE('',#606);
#103=PLANE('',#609);
#104=PLANE('',#610);
#105=PLANE('',#611);
#106=PLANE('',#616);
#107=PLANE('',#618);
#108=PLANE('',#620);
#109=PLANE('',#623);
#110=PLANE('',#627);
#111=PLANE('',#637);
#112=PLANE('',#638);
#113=PLANE('',#639);
#114=PLANE('',#640);
#115=FACE_BOUND('',#178,.T.);
#116=FACE_BOUND('',#181,.T.);
#117=FACE_BOUND('',#188,.T.);
#118=FACE_BOUND('',#189,.T.);
#119=FACE_BOUND('',#195,.T.);
#120=FACE_BOUND('',#196,.T.);
#121=FACE_BOUND('',#200,.T.);
#122=FACE_BOUND('',#201,.T.);
#123=FACE_BOUND('',#202,.T.);
#124=FACE_BOUND('',#203,.T.);
#125=FACE_BOUND('',#205,.T.);
#126=FACE_BOUND('',#207,.T.);
#127=FACE_BOUND('',#208,.T.);
#128=FACE_BOUND('',#209,.T.);
#129=FACE_BOUND('',#212,.T.);
#130=FACE_BOUND('',#214,.T.);
#131=FACE_BOUND('',#216,.T.);
#132=FACE_BOUND('',#218,.T.);
#133=FACE_BOUND('',#220,.T.);
#134=FACE_BOUND('',#222,.T.);
#135=FACE_BOUND('',#224,.T.);
#136=FACE_BOUND('',#226,.T.);
#137=FACE_BOUND('',#228,.T.);
#138=FACE_BOUND('',#230,.T.);
#139=FACE_BOUND('',#235,.T.);
#140=FACE_BOUND('',#236,.T.);
#141=FACE_BOUND('',#237,.T.);
#142=FACE_BOUND('',#238,.T.);
#143=FACE_OUTER_BOUND('',#177,.T.);
#144=FACE_OUTER_BOUND('',#179,.T.);
#145=FACE_OUTER_BOUND('',#180,.T.);
#146=FACE_OUTER_BOUND('',#182,.T.);
#147=FACE_OUTER_BOUND('',#183,.T.);
#148=FACE_OUTER_BOUND('',#184,.T.);
#149=FACE_OUTER_BOUND('',#185,.T.);
#150=FACE_OUTER_BOUND('',#186,.T.);
#151=FACE_OUTER_BOUND('',#187,.T.);
#152=FACE_OUTER_BOUND('',#190,.T.);
#153=FACE_OUTER_BOUND('',#191,.T.);
#154=FACE_OUTER_BOUND('',#192,.T.);
#155=FACE_OUTER_BOUND('',#193,.T.);
#156=FACE_OUTER_BOUND('',#194,.T.);
#157=FACE_OUTER_BOUND('',#197,.T.);
#158=FACE_OUTER_BOUND('',#198,.T.);
#159=FACE_OUTER_BOUND('',#199,.T.);
#160=FACE_OUTER_BOUND('',#204,.T.);
#161=FACE_OUTER_BOUND('',#206,.T.);
#162=FACE_OUTER_BOUND('',#210,.T.);
#163=FACE_OUTER_BOUND('',#211,.T.);
#164=FACE_OUTER_BOUND('',#213,.T.);
#165=FACE_OUTER_BOUND('',#215,.T.);
#166=FACE_OUTER_BOUND('',#217,.T.);
#167=FACE_OUTER_BOUND('',#219,.T.);
#168=FACE_OUTER_BOUND('',#221,.T.);
#169=FACE_OUTER_BOUND('',#223,.T.);
#170=FACE_OUTER_BOUND('',#225,.T.);
#171=FACE_OUTER_BOUND('',#227,.T.);
#172=FACE_OUTER_BOUND('',#229,.T.);
#173=FACE_OUTER_BOUND('',#231,.T.);
#174=FACE_OUTER_BOUND('',#232,.T.);
#175=FACE_OUTER_BOUND('',#233,.T.);
#176=FACE_OUTER_BOUND('',#234,.T.);
#177=EDGE_LOOP('',(#387));
#178=EDGE_LOOP('',(#388));
#179=EDGE_LOOP('',(#389));
#180=EDGE_LOOP('',(#390));
#181=EDGE_LOOP('',(#391));
#182=EDGE_LOOP('',(#392));
#183=EDGE_LOOP('',(#393,#394,#395,#396));
#184=EDGE_LOOP('',(#397,#398,#399,#400));
#185=EDGE_LOOP('',(#401,#402,#403,#404));
#186=EDGE_LOOP('',(#405,#406,#407,#408));
#187=EDGE_LOOP('',(#409,#410,#411,#412));
#188=EDGE_LOOP('',(#413));
#189=EDGE_LOOP('',(#414));
#190=EDGE_LOOP('',(#415,#416,#417,#418));
#191=EDGE_LOOP('',(#419,#420,#421,#422));
#192=EDGE_LOOP('',(#423,#424,#425,#426));
#193=EDGE_LOOP('',(#427,#428,#429,#430));
#194=EDGE_LOOP('',(#431,#432,#433,#434));
#195=EDGE_LOOP('',(#435));
#196=EDGE_LOOP('',(#436));
#197=EDGE_LOOP('',(#437,#438,#439,#440));
#198=EDGE_LOOP('',(#441,#442,#443,#444));
#199=EDGE_LOOP('',(#445,#446,#447,#448));
#200=EDGE_LOOP('',(#449));
#201=EDGE_LOOP('',(#450));
#202=EDGE_LOOP('',(#451));
#203=EDGE_LOOP('',(#452));
#204=EDGE_LOOP('',(#453,#454,#455,#456));
#205=EDGE_LOOP('',(#457));
#206=EDGE_LOOP('',(#458,#459,#460,#461));
#207=EDGE_LOOP('',(#462));
#208=EDGE_LOOP('',(#463));
#209=EDGE_LOOP('',(#464));
#210=EDGE_LOOP('',(#465,#466,#467,#468,#469,#470,#471,#472));
#211=EDGE_LOOP('',(#473));
#212=EDGE_LOOP('',(#474));
#213=EDGE_LOOP('',(#475));
#214=EDGE_LOOP('',(#476));
#215=EDGE_LOOP('',(#477));
#216=EDGE_LOOP('',(#478));
#217=EDGE_LOOP('',(#479));
#218=EDGE_LOOP('',(#480));
#219=EDGE_LOOP('',(#481));
#220=EDGE_LOOP('',(#482));
#221=EDGE_LOOP('',(#483));
#222=EDGE_LOOP('',(#484));
#223=EDGE_LOOP('',(#485));
#224=EDGE_LOOP('',(#486));
#225=EDGE_LOOP('',(#487));
#226=EDGE_LOOP('',(#488));
#227=EDGE_LOOP('',(#489));
#228=EDGE_LOOP('',(#490));
#229=EDGE_LOOP('',(#491));
#230=EDGE_LOOP('',(#492));
#231=EDGE_LOOP('',(#493,#494,#495,#496));
#232=EDGE_LOOP('',(#497,#498,#499,#500,#501,#502,#503,#504));
#233=EDGE_LOOP('',(#505,#506,#507,#508));
#234=EDGE_LOOP('',(#509,#510,#511,#512));
#235=EDGE_LOOP('',(#513,#514,#515,#516));
#236=EDGE_LOOP('',(#517,#518,#519,#520));
#237=EDGE_LOOP('',(#521));
#238=EDGE_LOOP('',(#522));
#239=CIRCLE('',#580,0.125);
#240=CIRCLE('',#581,0.125);
#241=CIRCLE('',#584,0.125);
#242=CIRCLE('',#585,0.125);
#243=CIRCLE('',#588,0.1875);
#244=CIRCLE('',#589,0.1875);
#245=CIRCLE('',#592,0.1875);
#246=CIRCLE('',#593,0.1875);
#247=CIRCLE('',#596,0.09375);
#248=CIRCLE('',#597,0.09375);
#249=CIRCLE('',#599,0.1875);
#250=CIRCLE('',#600,0.1875);
#251=CIRCLE('',#603,0.1875);
#252=CIRCLE('',#604,0.1875);
#253=CIRCLE('',#607,0.09375);
#254=CIRCLE('',#608,0.09375);
#255=CIRCLE('',#612,0.09375);
#256=CIRCLE('',#613,0.09375);
#257=CIRCLE('',#614,0.09375);
#258=CIRCLE('',#615,0.09375);
#259=CIRCLE('',#617,0.3125);
#260=CIRCLE('',#619,0.3125);
#261=CIRCLE('',#622,0.3125);
#262=CIRCLE('',#624,0.25);
#263=CIRCLE('',#626,0.3125);
#264=CIRCLE('',#628,0.25);
#265=CIRCLE('',#630,0.25);
#266=CIRCLE('',#632,0.25);
#267=VERTEX_POINT('',#809);
#268=VERTEX_POINT('',#811);
#269=VERTEX_POINT('',#815);
#270=VERTEX_POINT('',#817);
#271=VERTEX_POINT('',#821);
#272=VERTEX_POINT('',#822);
#273=VERTEX_POINT('',#824);
#274=VERTEX_POINT('',#826);
#275=VERTEX_POINT('',#830);
#276=VERTEX_POINT('',#832);
#277=VERTEX_POINT('',#836);
#278=VERTEX_POINT('',#838);
#279=VERTEX_POINT('',#845);
#280=VERTEX_POINT('',#847);
#281=VERTEX_POINT('',#850);
#282=VERTEX_POINT('',#851);
#283=VERTEX_POINT('',#853);
#284=VERTEX_POINT('',#855);
#285=VERTEX_POINT('',#859);
#286=VERTEX_POINT('',#861);
#287=VERTEX_POINT('',#865);
#288=VERTEX_POINT('',#867);
#289=VERTEX_POINT('',#874);
#290=VERTEX_POINT('',#876);
#291=VERTEX_POINT('',#879);
#292=VERTEX_POINT('',#880);
#293=VERTEX_POINT('',#882);
#294=VERTEX_POINT('',#884);
#295=VERTEX_POINT('',#888);
#296=VERTEX_POINT('',#889);
#297=VERTEX_POINT('',#891);
#298=VERTEX_POINT('',#893);
#299=VERTEX_POINT('',#899);
#300=VERTEX_POINT('',#901);
#301=VERTEX_POINT('',#903);
#302=VERTEX_POINT('',#905);
#303=VERTEX_POINT('',#908);
#304=VERTEX_POINT('',#910);
#305=VERTEX_POINT('',#913);
#306=VERTEX_POINT('',#916);
#307=VERTEX_POINT('',#918);
#308=VERTEX_POINT('',#921);
#309=VERTEX_POINT('',#924);
#310=VERTEX_POINT('',#926);
#311=VERTEX_POINT('',#930);
#312=VERTEX_POINT('',#933);
#313=VERTEX_POINT('',#936);
#314=VERTEX_POINT('',#939);
#315=VERTEX_POINT('',#942);
#316=VERTEX_POINT('',#945);
#317=VERTEX_POINT('',#952);
#318=VERTEX_POINT('',#956);
#319=EDGE_CURVE('',#267,#267,#239,.T.);
#320=EDGE_CURVE('',#268,#268,#240,.T.);
#321=EDGE_CURVE('',#269,#269,#241,.T.);
#322=EDGE_CURVE('',#270,#270,#242,.T.);
#323=EDGE_CURVE('',#271,#272,#243,.T.);
#324=EDGE_CURVE('',#271,#273,#15,.T.);
#325=EDGE_CURVE('',#273,#274,#244,.T.);
#326=EDGE_CURVE('',#272,#274,#16,.T.);
#327=EDGE_CURVE('',#275,#271,#17,.T.);
#328=EDGE_CURVE('',#275,#276,#18,.T.);
#329=EDGE_CURVE('',#276,#273,#19,.T.);
#330=EDGE_CURVE('',#277,#275,#245,.T.);
#331=EDGE_CURVE('',#277,#278,#20,.T.);
#332=EDGE_CURVE('',#278,#276,#246,.T.);
#333=EDGE_CURVE('',#272,#277,#21,.T.);
#334=EDGE_CURVE('',#274,#278,#22,.T.);
#335=EDGE_CURVE('',#279,#279,#247,.T.);
#336=EDGE_CURVE('',#280,#280,#248,.T.);
#337=EDGE_CURVE('',#281,#282,#249,.T.);
#338=EDGE_CURVE('',#281,#283,#23,.T.);
#339=EDGE_CURVE('',#283,#284,#250,.T.);
#340=EDGE_CURVE('',#282,#284,#24,.T.);
#341=EDGE_CURVE('',#285,#281,#25,.T.);
#342=EDGE_CURVE('',#285,#286,#26,.T.);
#343=EDGE_CURVE('',#286,#283,#27,.T.);
#344=EDGE_CURVE('',#287,#285,#251,.T.);
#345=EDGE_CURVE('',#287,#288,#28,.T.);
#346=EDGE_CURVE('',#288,#286,#252,.T.);
#347=EDGE_CURVE('',#282,#287,#29,.T.);
#348=EDGE_CURVE('',#284,#288,#30,.T.);
#349=EDGE_CURVE('',#289,#289,#253,.T.);
#350=EDGE_CURVE('',#290,#290,#254,.T.);
#351=EDGE_CURVE('',#291,#292,#31,.T.);
#352=EDGE_CURVE('',#293,#291,#32,.T.);
#353=EDGE_CURVE('',#293,#294,#33,.T.);
#354=EDGE_CURVE('',#292,#294,#34,.T.);
#355=EDGE_CURVE('',#295,#296,#35,.T.);
#356=EDGE_CURVE('',#297,#295,#36,.T.);
#357=EDGE_CURVE('',#297,#298,#37,.T.);
#358=EDGE_CURVE('',#296,#298,#38,.T.);
#359=EDGE_CURVE('',#294,#297,#39,.T.);
#360=EDGE_CURVE('',#298,#293,#40,.T.);
#361=EDGE_CURVE('',#299,#299,#255,.T.);
#362=EDGE_CURVE('',#300,#300,#256,.T.);
#363=EDGE_CURVE('',#301,#301,#257,.T.);
#364=EDGE_CURVE('',#302,#302,#258,.T.);
#365=EDGE_CURVE('',#292,#303,#41,.T.);
#366=EDGE_CURVE('',#303,#304,#42,.T.);
#367=EDGE_CURVE('',#304,#291,#43,.T.);
#368=EDGE_CURVE('',#305,#305,#259,.T.);
#369=EDGE_CURVE('',#296,#306,#44,.T.);
#370=EDGE_CURVE('',#306,#307,#45,.T.);
#371=EDGE_CURVE('',#307,#295,#46,.T.);
#372=EDGE_CURVE('',#308,#308,#260,.T.);
#373=EDGE_CURVE('',#309,#304,#47,.T.);
#374=EDGE_CURVE('',#310,#309,#48,.T.);
#375=EDGE_CURVE('',#310,#306,#49,.T.);
#376=EDGE_CURVE('',#311,#311,#261,.T.);
#377=EDGE_CURVE('',#312,#312,#262,.T.);
#378=EDGE_CURVE('',#313,#313,#263,.T.);
#379=EDGE_CURVE('',#314,#314,#264,.T.);
#380=EDGE_CURVE('',#315,#315,#265,.T.);
#381=EDGE_CURVE('',#316,#316,#266,.T.);
#382=EDGE_CURVE('',#309,#317,#50,.T.);
#383=EDGE_CURVE('',#317,#303,#51,.T.);
#384=EDGE_CURVE('',#318,#307,#52,.T.);
#385=EDGE_CURVE('',#317,#318,#53,.T.);
#386=EDGE_CURVE('',#318,#310,#54,.T.);
#387=ORIENTED_EDGE('',*,*,#319,.T.);
#388=ORIENTED_EDGE('',*,*,#320,.F.);
#389=ORIENTED_EDGE('',*,*,#319,.F.);
#390=ORIENTED_EDGE('',*,*,#321,.T.);
#391=ORIENTED_EDGE('',*,*,#322,.F.);
#392=ORIENTED_EDGE('',*,*,#321,.F.);
#393=ORIENTED_EDGE('',*,*,#323,.F.);
#394=ORIENTED_EDGE('',*,*,#324,.T.);
#395=ORIENTED_EDGE('',*,*,#325,.T.);
#396=ORIENTED_EDGE('',*,*,#326,.F.);
#397=ORIENTED_EDGE('',*,*,#327,.F.);
#398=ORIENTED_EDGE('',*,*,#328,.T.);
#399=ORIENTED_EDGE('',*,*,#329,.T.);
#400=ORIENTED_EDGE('',*,*,#324,.F.);
#401=ORIENTED_EDGE('',*,*,#330,.F.);
#402=ORIENTED_EDGE('',*,*,#331,.T.);
#403=ORIENTED_EDGE('',*,*,#332,.T.);
#404=ORIENTED_EDGE('',*,*,#328,.F.);
#405=ORIENTED_EDGE('',*,*,#333,.F.);
#406=ORIENTED_EDGE('',*,*,#326,.T.);
#407=ORIENTED_EDGE('',*,*,#334,.T.);
#408=ORIENTED_EDGE('',*,*,#331,.F.);
#409=ORIENTED_EDGE('',*,*,#334,.F.);
#410=ORIENTED_EDGE('',*,*,#325,.F.);
#411=ORIENTED_EDGE('',*,*,#329,.F.);
#412=ORIENTED_EDGE('',*,*,#332,.F.);
#413=ORIENTED_EDGE('',*,*,#335,.F.);
#414=ORIENTED_EDGE('',*,*,#336,.F.);
#415=ORIENTED_EDGE('',*,*,#337,.F.);
#416=ORIENTED_EDGE('',*,*,#338,.T.);
#417=ORIENTED_EDGE('',*,*,#339,.T.);
#418=ORIENTED_EDGE('',*,*,#340,.F.);
#419=ORIENTED_EDGE('',*,*,#341,.F.);
#420=ORIENTED_EDGE('',*,*,#342,.T.);
#421=ORIENTED_EDGE('',*,*,#343,.T.);
#422=ORIENTED_EDGE('',*,*,#338,.F.);
#423=ORIENTED_EDGE('',*,*,#344,.F.);
#424=ORIENTED_EDGE('',*,*,#345,.T.);
#425=ORIENTED_EDGE('',*,*,#346,.T.);
#426=ORIENTED_EDGE('',*,*,#342,.F.);
#427=ORIENTED_EDGE('',*,*,#347,.F.);
#428=ORIENTED_EDGE('',*,*,#340,.T.);
#429=ORIENTED_EDGE('',*,*,#348,.T.);
#430=ORIENTED_EDGE('',*,*,#345,.F.);
#431=ORIENTED_EDGE('',*,*,#348,.F.);
#432=ORIENTED_EDGE('',*,*,#339,.F.);
#433=ORIENTED_EDGE('',*,*,#343,.F.);
#434=ORIENTED_EDGE('',*,*,#346,.F.);
#435=ORIENTED_EDGE('',*,*,#349,.F.);
#436=ORIENTED_EDGE('',*,*,#350,.F.);
#437=ORIENTED_EDGE('',*,*,#351,.F.);
#438=ORIENTED_EDGE('',*,*,#352,.F.);
#439=ORIENTED_EDGE('',*,*,#353,.T.);
#440=ORIENTED_EDGE('',*,*,#354,.F.);
#441=ORIENTED_EDGE('',*,*,#355,.F.);
#442=ORIENTED_EDGE('',*,*,#356,.F.);
#443=ORIENTED_EDGE('',*,*,#357,.T.);
#444=ORIENTED_EDGE('',*,*,#358,.F.);
#445=ORIENTED_EDGE('',*,*,#357,.F.);
#446=ORIENTED_EDGE('',*,*,#359,.F.);
#447=ORIENTED_EDGE('',*,*,#353,.F.);
#448=ORIENTED_EDGE('',*,*,#360,.F.);
#449=ORIENTED_EDGE('',*,*,#361,.F.);
#450=ORIENTED_EDGE('',*,*,#362,.F.);
#451=ORIENTED_EDGE('',*,*,#363,.F.);
#452=ORIENTED_EDGE('',*,*,#364,.F.);
#453=ORIENTED_EDGE('',*,*,#351,.T.);
#454=ORIENTED_EDGE('',*,*,#365,.T.);
#455=ORIENTED_EDGE('',*,*,#366,.T.);
#456=ORIENTED_EDGE('',*,*,#367,.T.);
#457=ORIENTED_EDGE('',*,*,#368,.T.);
#458=ORIENTED_EDGE('',*,*,#355,.T.);
#459=ORIENTED_EDGE('',*,*,#369,.T.);
#460=ORIENTED_EDGE('',*,*,#370,.T.);
#461=ORIENTED_EDGE('',*,*,#371,.T.);
#462=ORIENTED_EDGE('',*,*,#320,.T.);
#463=ORIENTED_EDGE('',*,*,#322,.T.);
#464=ORIENTED_EDGE('',*,*,#372,.T.);
#465=ORIENTED_EDGE('',*,*,#358,.T.);
#466=ORIENTED_EDGE('',*,*,#360,.T.);
#467=ORIENTED_EDGE('',*,*,#352,.T.);
#468=ORIENTED_EDGE('',*,*,#367,.F.);
#469=ORIENTED_EDGE('',*,*,#373,.F.);
#470=ORIENTED_EDGE('',*,*,#374,.F.);
#471=ORIENTED_EDGE('',*,*,#375,.T.);
#472=ORIENTED_EDGE('',*,*,#369,.F.);
#473=ORIENTED_EDGE('',*,*,#376,.T.);
#474=ORIENTED_EDGE('',*,*,#372,.F.);
#475=ORIENTED_EDGE('',*,*,#376,.F.);
#476=ORIENTED_EDGE('',*,*,#377,.F.);
#477=ORIENTED_EDGE('',*,*,#378,.T.);
#478=ORIENTED_EDGE('',*,*,#368,.F.);
#479=ORIENTED_EDGE('',*,*,#378,.F.);
#480=ORIENTED_EDGE('',*,*,#379,.F.);
#481=ORIENTED_EDGE('',*,*,#379,.T.);
#482=ORIENTED_EDGE('',*,*,#380,.F.);
#483=ORIENTED_EDGE('',*,*,#377,.T.);
#484=ORIENTED_EDGE('',*,*,#381,.F.);
#485=ORIENTED_EDGE('',*,*,#336,.T.);
#486=ORIENTED_EDGE('',*,*,#364,.T.);
#487=ORIENTED_EDGE('',*,*,#350,.T.);
#488=ORIENTED_EDGE('',*,*,#363,.T.);
#489=ORIENTED_EDGE('',*,*,#335,.T.);
#490=ORIENTED_EDGE('',*,*,#362,.T.);
#491=ORIENTED_EDGE('',*,*,#349,.T.);
#492=ORIENTED_EDGE('',*,*,#361,.T.);
#493=ORIENTED_EDGE('',*,*,#382,.F.);
#494=ORIENTED_EDGE('',*,*,#373,.T.);
#495=ORIENTED_EDGE('',*,*,#366,.F.);
#496=ORIENTED_EDGE('',*,*,#383,.F.);
#497=ORIENTED_EDGE('',*,*,#356,.T.);
#498=ORIENTED_EDGE('',*,*,#371,.F.);
#499=ORIENTED_EDGE('',*,*,#384,.F.);
#500=ORIENTED_EDGE('',*,*,#385,.F.);
#501=ORIENTED_EDGE('',*,*,#383,.T.);
#502=ORIENTED_EDGE('',*,*,#365,.F.);
#503=ORIENTED_EDGE('',*,*,#354,.T.);
#504=ORIENTED_EDGE('',*,*,#359,.T.);
#505=ORIENTED_EDGE('',*,*,#386,.F.);
#506=ORIENTED_EDGE('',*,*,#384,.T.);
#507=ORIENTED_EDGE('',*,*,#370,.F.);
#508=ORIENTED_EDGE('',*,*,#375,.F.);
#509=ORIENTED_EDGE('',*,*,#374,.T.);
#510=ORIENTED_EDGE('',*,*,#382,.T.);
#511=ORIENTED_EDGE('',*,*,#385,.T.);
#512=ORIENTED_EDGE('',*,*,#386,.T.);
#513=ORIENTED_EDGE('',*,*,#323,.T.);
#514=ORIENTED_EDGE('',*,*,#333,.T.);
#515=ORIENTED_EDGE('',*,*,#330,.T.);
#516=ORIENTED_EDGE('',*,*,#327,.T.);
#517=ORIENTED_EDGE('',*,*,#337,.T.);
#518=ORIENTED_EDGE('',*,*,#347,.T.);
#519=ORIENTED_EDGE('',*,*,#344,.T.);
#520=ORIENTED_EDGE('',*,*,#341,.T.);
#521=ORIENTED_EDGE('',*,*,#380,.T.);
#522=ORIENTED_EDGE('',*,*,#381,.T.);
#523=CYLINDRICAL_SURFACE('',#579,0.125);
#524=CYLINDRICAL_SURFACE('',#583,0.125);
#525=CYLINDRICAL_SURFACE('',#587,0.1875);
#526=CYLINDRICAL_SURFACE('',#591,0.1875);
#527=CYLINDRICAL_SURFACE('',#598,0.1875);
#528=CYLINDRICAL_SURFACE('',#602,0.1875);
#529=CYLINDRICAL_SURFACE('',#621,0.3125);
#530=CYLINDRICAL_SURFACE('',#625,0.3125);
#531=CYLINDRICAL_SURFACE('',#629,0.25);
#532=CYLINDRICAL_SURFACE('',#631,0.25);
#533=CYLINDRICAL_SURFACE('',#633,0.09375);
#534=CYLINDRICAL_SURFACE('',#634,0.09375);
#535=CYLINDRICAL_SURFACE('',#635,0.09375);
#536=CYLINDRICAL_SURFACE('',#636,0.09375);
#537=ADVANCED_FACE('',(#143,#115),#523,.F.);
#538=ADVANCED_FACE('',(#144),#95,.T.);
#539=ADVANCED_FACE('',(#145,#116),#524,.F.);
#540=ADVANCED_FACE('',(#146),#96,.T.);
#541=ADVANCED_FACE('',(#147),#525,.F.);
#542=ADVANCED_FACE('',(#148),#97,.F.);
#543=ADVANCED_FACE('',(#149),#526,.F.);
#544=ADVANCED_FACE('',(#150),#98,.F.);
#545=ADVANCED_FACE('',(#151,#117,#118),#99,.F.);
#546=ADVANCED_FACE('',(#152),#527,.F.);
#547=ADVANCED_FACE('',(#153),#100,.F.);
#548=ADVANCED_FACE('',(#154),#528,.F.);
#549=ADVANCED_FACE('',(#155),#101,.F.);
#550=ADVANCED_FACE('',(#156,#119,#120),#102,.F.);
#551=ADVANCED_FACE('',(#157),#103,.F.);
#552=ADVANCED_FACE('',(#158),#104,.F.);
#553=ADVANCED_FACE('',(#159,#121,#122,#123,#124),#105,.F.);
#554=ADVANCED_FACE('',(#160,#125),#106,.T.);
#555=ADVANCED_FACE('',(#161,#126,#127,#128),#107,.T.);
#556=ADVANCED_FACE('',(#162),#108,.T.);
#557=ADVANCED_FACE('',(#163,#129),#529,.F.);
#558=ADVANCED_FACE('',(#164,#130),#109,.T.);
#559=ADVANCED_FACE('',(#165,#131),#530,.F.);
#560=ADVANCED_FACE('',(#166,#132),#110,.T.);
#561=ADVANCED_FACE('',(#167,#133),#531,.F.);
#562=ADVANCED_FACE('',(#168,#134),#532,.F.);
#563=ADVANCED_FACE('',(#169,#135),#533,.F.);
#564=ADVANCED_FACE('',(#170,#136),#534,.F.);
#565=ADVANCED_FACE('',(#171,#137),#535,.F.);
#566=ADVANCED_FACE('',(#172,#138),#536,.F.);
#567=ADVANCED_FACE('',(#173),#111,.T.);
#568=ADVANCED_FACE('',(#174),#112,.T.);
#569=ADVANCED_FACE('',(#175),#113,.T.);
#570=ADVANCED_FACE('',(#176,#139,#140,#141,#142),#114,.F.);
#571=CLOSED_SHELL('',(#537,#538,#539,#540,#541,#542,#543,#544,#545,#546,
#547,#548,#549,#550,#551,#552,#553,#554,#555,#556,#557,#558,#559,#560,#561,
#562,#563,#564,#565,#566,#567,#568,#569,#570));
#572=DATE_TIME_ROLE('creation_date');
#573=APPLIED_DATE_AND_TIME_ASSIGNMENT(#574,#572,(#979));
#574=DATE_AND_TIME(#575,#576);
#575=CALENDAR_DATE(2015,6,4);
#576=LOCAL_TIME(20,0,4.,#577);
#577=COORDINATED_UNIVERSAL_TIME_OFFSET(0,0,.BEHIND.);
#578=AXIS2_PLACEMENT_3D('placement',#807,#641,#642);
#579=AXIS2_PLACEMENT_3D('',#808,#643,#644);
#580=AXIS2_PLACEMENT_3D('',#810,#645,#646);
#581=AXIS2_PLACEMENT_3D('',#812,#647,#648);
#582=AXIS2_PLACEMENT_3D('',#813,#649,#650);
#583=AXIS2_PLACEMENT_3D('',#814,#651,#652);
#584=AXIS2_PLACEMENT_3D('',#816,#653,#654);
#585=AXIS2_PLACEMENT_3D('',#818,#655,#656);
#586=AXIS2_PLACEMENT_3D('',#819,#657,#658);
#587=AXIS2_PLACEMENT_3D('',#820,#659,#660);
#588=AXIS2_PLACEMENT_3D('',#823,#661,#662);
#589=AXIS2_PLACEMENT_3D('',#827,#664,#665);
#590=AXIS2_PLACEMENT_3D('',#829,#667,#668);
#591=AXIS2_PLACEMENT_3D('',#835,#672,#673);
#592=AXIS2_PLACEMENT_3D('',#837,#674,#675);
#593=AXIS2_PLACEMENT_3D('',#840,#677,#678);
#594=AXIS2_PLACEMENT_3D('',#841,#679,#680);
#595=AXIS2_PLACEMENT_3D('',#844,#683,#684);
#596=AXIS2_PLACEMENT_3D('',#846,#685,#686);
#597=AXIS2_PLACEMENT_3D('',#848,#687,#688);
#598=AXIS2_PLACEMENT_3D('',#849,#689,#690);
#599=AXIS2_PLACEMENT_3D('',#852,#691,#692);
#600=AXIS2_PLACEMENT_3D('',#856,#694,#695);
#601=AXIS2_PLACEMENT_3D('',#858,#697,#698);
#602=AXIS2_PLACEMENT_3D('',#864,#702,#703);
#603=AXIS2_PLACEMENT_3D('',#866,#704,#705);
#604=AXIS2_PLACEMENT_3D('',#869,#707,#708);
#605=AXIS2_PLACEMENT_3D('',#870,#709,#710);
#606=AXIS2_PLACEMENT_3D('',#873,#713,#714);
#607=AXIS2_PLACEMENT_3D('',#875,#715,#716);
#608=AXIS2_PLACEMENT_3D('',#877,#717,#718);
#609=AXIS2_PLACEMENT_3D('',#878,#719,#720);
#610=AXIS2_PLACEMENT_3D('',#887,#725,#726);
#611=AXIS2_PLACEMENT_3D('',#896,#731,#732);
#612=AXIS2_PLACEMENT_3D('',#900,#735,#736);
#613=AXIS2_PLACEMENT_3D('',#902,#737,#738);
#614=AXIS2_PLACEMENT_3D('',#904,#739,#740);
#615=AXIS2_PLACEMENT_3D('',#906,#741,#742);
#616=AXIS2_PLACEMENT_3D('',#907,#743,#744);
#617=AXIS2_PLACEMENT_3D('',#914,#748,#749);
#618=AXIS2_PLACEMENT_3D('',#915,#750,#751);
#619=AXIS2_PLACEMENT_3D('',#922,#755,#756);
#620=AXIS2_PLACEMENT_3D('',#923,#757,#758);
#621=AXIS2_PLACEMENT_3D('',#929,#762,#763);
#622=AXIS2_PLACEMENT_3D('',#931,#764,#765);
#623=AXIS2_PLACEMENT_3D('',#932,#766,#767);
#624=AXIS2_PLACEMENT_3D('',#934,#768,#769);
#625=AXIS2_PLACEMENT_3D('',#935,#770,#771);
#626=AXIS2_PLACEMENT_3D('',#937,#772,#773);
#627=AXIS2_PLACEMENT_3D('',#938,#774,#775);
#628=AXIS2_PLACEMENT_3D('',#940,#776,#777);
#629=AXIS2_PLACEMENT_3D('',#941,#778,#779);
#630=AXIS2_PLACEMENT_3D('',#943,#780,#781);
#631=AXIS2_PLACEMENT_3D('',#944,#782,#783);
#632=AXIS2_PLACEMENT_3D('',#946,#784,#785);
#633=AXIS2_PLACEMENT_3D('',#947,#786,#787);
#634=AXIS2_PLACEMENT_3D('',#948,#788,#789);
#635=AXIS2_PLACEMENT_3D('',#949,#790,#791);
#636=AXIS2_PLACEMENT_3D('',#950,#792,#793);
#637=AXIS2_PLACEMENT_3D('',#951,#794,#795);
#638=AXIS2_PLACEMENT_3D('',#955,#798,#799);
#639=AXIS2_PLACEMENT_3D('',#959,#802,#803);
#640=AXIS2_PLACEMENT_3D('',#961,#805,#806);
#641=DIRECTION('axis',(0.,0.,1.));
#642=DIRECTION('refdir',(1.,0.,0.));
#643=DIRECTION('center_axis',(0.,0.,-1.));
#644=DIRECTION('ref_axis',(-1.,0.,0.));
#645=DIRECTION('center_axis',(0.,0.,-1.));
#646=DIRECTION('ref_axis',(-1.,0.,0.));
#647=DIRECTION('center_axis',(0.,0.,-1.));
#648=DIRECTION('ref_axis',(-1.,0.,0.));
#649=DIRECTION('center_axis',(0.,0.,1.));
#650=DIRECTION('ref_axis',(1.,0.,0.));
#651=DIRECTION('center_axis',(0.,0.,-1.));
#652=DIRECTION('ref_axis',(-1.,0.,0.));
#653=DIRECTION('center_axis',(0.,0.,-1.));
#654=DIRECTION('ref_axis',(-1.,0.,0.));
#655=DIRECTION('center_axis',(0.,0.,-1.));
#656=DIRECTION('ref_axis',(-1.,0.,0.));
#657=DIRECTION('center_axis',(0.,0.,1.));
#658=DIRECTION('ref_axis',(1.,0.,0.));
#659=DIRECTION('center_axis',(0.,0.,1.));
#660=DIRECTION('ref_axis',(1.,0.,0.));
#661=DIRECTION('center_axis',(0.,0.,1.));
#662=DIRECTION('ref_axis',(1.,0.,0.));
#663=DIRECTION('',(0.,0.,1.));
#664=DIRECTION('center_axis',(0.,0.,1.));
#665=DIRECTION('ref_axis',(1.,0.,0.));
#666=DIRECTION('',(0.,0.,1.));
#667=DIRECTION('center_axis',(-1.,0.,0.));
#668=DIRECTION('ref_axis',(0.,-1.,0.));
#669=DIRECTION('',(0.,-1.,0.));
#670=DIRECTION('',(0.,0.,1.));
#671=DIRECTION('',(0.,-1.,0.));
#672=DIRECTION('center_axis',(0.,0.,1.));
#673=DIRECTION('ref_axis',(-1.,0.,0.));
#674=DIRECTION('center_axis',(0.,0.,1.));
#675=DIRECTION('ref_axis',(-1.,0.,0.));
#676=DIRECTION('',(0.,0.,1.));
#677=DIRECTION('center_axis',(0.,0.,1.));
#678=DIRECTION('ref_axis',(-1.,0.,0.));
#679=DIRECTION('center_axis',(1.,0.,0.));
#680=DIRECTION('ref_axis',(0.,1.,0.));
#681=DIRECTION('',(0.,1.,0.));
#682=DIRECTION('',(0.,1.,0.));
#683=DIRECTION('center_axis',(0.,0.,1.));
#684=DIRECTION('ref_axis',(1.,0.,0.));
#685=DIRECTION('center_axis',(0.,0.,-1.));
#686=DIRECTION('ref_axis',(-1.,0.,0.));
#687=DIRECTION('center_axis',(0.,0.,-1.));
#688=DIRECTION('ref_axis',(-1.,0.,0.));
#689=DIRECTION('center_axis',(0.,0.,1.));
#690=DIRECTION('ref_axis',(1.,0.,0.));
#691=DIRECTION('center_axis',(0.,0.,1.));
#692=DIRECTION('ref_axis',(1.,0.,0.));
#693=DIRECTION('',(0.,0.,1.));
#694=DIRECTION('center_axis',(0.,0.,1.));
#695=DIRECTION('ref_axis',(1.,0.,0.));
#696=DIRECTION('',(0.,0.,1.));
#697=DIRECTION('center_axis',(-1.,0.,0.));
#698=DIRECTION('ref_axis',(0.,-1.,0.));
#699=DIRECTION('',(0.,-1.,0.));
#700=DIRECTION('',(0.,0.,1.));
#701=DIRECTION('',(0.,-1.,0.));
#702=DIRECTION('center_axis',(0.,0.,1.));
#703=DIRECTION('ref_axis',(-1.,0.,0.));
#704=DIRECTION('center_axis',(0.,0.,1.));
#705=DIRECTION('ref_axis',(-1.,0.,0.));
#706=DIRECTION('',(0.,0.,1.));
#707=DIRECTION('center_axis',(0.,0.,1.));
#708=DIRECTION('ref_axis',(-1.,0.,0.));
#709=DIRECTION('center_axis',(1.,0.,0.));
#710=DIRECTION('ref_axis',(0.,1.,0.));
#711=DIRECTION('',(0.,1.,0.));
#712=DIRECTION('',(0.,1.,0.));
#713=DIRECTION('center_axis',(0.,0.,1.));
#714=DIRECTION('ref_axis',(1.,0.,0.));
#715=DIRECTION('center_axis',(0.,0.,-1.));
#716=DIRECTION('ref_axis',(-1.,0.,0.));
#717=DIRECTION('center_axis',(0.,0.,-1.));
#718=DIRECTION('ref_axis',(-1.,0.,0.));
#719=DIRECTION('center_axis',(1.,0.,0.));
#720=DIRECTION('ref_axis',(0.,-1.,0.));
#721=DIRECTION('',(0.,-1.,0.));
#722=DIRECTION('',(0.,0.,1.));
#723=DIRECTION('',(0.,-1.,0.));
#724=DIRECTION('',(0.,0.,-1.));
#725=DIRECTION('center_axis',(-1.,-1.3987061727561E-16,0.));
#726=DIRECTION('ref_axis',(0.,1.,0.));
#727=DIRECTION('',(-1.3987061727561E-16,1.,0.));
#728=DIRECTION('',(0.,0.,1.));
#729=DIRECTION('',(-1.3987061727561E-16,1.,0.));
#730=DIRECTION('',(0.,0.,-1.));
#731=DIRECTION('center_axis',(0.,0.,-1.));
#732=DIRECTION('ref_axis',(-1.,0.,0.));
#733=DIRECTION('',(-1.,0.,0.));
#734=DIRECTION('',(1.,0.,0.));
#735=DIRECTION('center_axis',(0.,0.,1.));
#736=DIRECTION('ref_axis',(-1.,0.,0.));
#737=DIRECTION('center_axis',(0.,0.,1.));
#738=DIRECTION('ref_axis',(-1.,0.,0.));
#739=DIRECTION('center_axis',(0.,0.,1.));
#740=DIRECTION('ref_axis',(-1.,0.,0.));
#741=DIRECTION('center_axis',(0.,0.,1.));
#742=DIRECTION('ref_axis',(-1.,0.,0.));
#743=DIRECTION('center_axis',(0.,0.,1.));
#744=DIRECTION('ref_axis',(1.,0.,0.));
#745=DIRECTION('',(1.,0.,0.));
#746=DIRECTION('',(0.,1.,0.));
#747=DIRECTION('',(-1.,0.,0.));
#748=DIRECTION('center_axis',(0.,0.,-1.));
#749=DIRECTION('ref_axis',(-1.,0.,0.));
#750=DIRECTION('center_axis',(0.,0.,1.));
#751=DIRECTION('ref_axis',(1.,0.,0.));
#752=DIRECTION('',(-1.,0.,0.));
#753=DIRECTION('',(0.,-1.,0.));
#754=DIRECTION('',(1.,0.,0.));
#755=DIRECTION('center_axis',(0.,0.,-1.));
#756=DIRECTION('ref_axis',(-1.,0.,0.));
#757=DIRECTION('center_axis',(0.,1.,0.));
#758=DIRECTION('ref_axis',(-1.,0.,0.));
#759=DIRECTION('',(0.,0.,1.));
#760=DIRECTION('',(1.,0.,0.));
#761=DIRECTION('',(0.,0.,1.));
#762=DIRECTION('center_axis',(0.,0.,-1.));
#763=DIRECTION('ref_axis',(-1.,0.,0.));
#764=DIRECTION('center_axis',(0.,0.,-1.));
#765=DIRECTION('ref_axis',(-1.,0.,0.));
#766=DIRECTION('center_axis',(0.,0.,1.));
#767=DIRECTION('ref_axis',(1.,0.,0.));
#768=DIRECTION('center_axis',(0.,0.,1.));
#769=DIRECTION('ref_axis',(-1.,0.,0.));
#770=DIRECTION('center_axis',(0.,0.,-1.));
#771=DIRECTION('ref_axis',(-1.,0.,0.));
#772=DIRECTION('center_axis',(0.,0.,-1.));
#773=DIRECTION('ref_axis',(-1.,0.,0.));
#774=DIRECTION('center_axis',(0.,0.,1.));
#775=DIRECTION('ref_axis',(1.,0.,0.));
#776=DIRECTION('center_axis',(0.,0.,1.));
#777=DIRECTION('ref_axis',(-1.,0.,0.));
#778=DIRECTION('center_axis',(0.,0.,1.));
#779=DIRECTION('ref_axis',(-1.,0.,0.));
#780=DIRECTION('center_axis',(0.,0.,1.));
#781=DIRECTION('ref_axis',(-1.,0.,0.));
#782=DIRECTION('center_axis',(0.,0.,1.));
#783=DIRECTION('ref_axis',(-1.,0.,0.));
#784=DIRECTION('center_axis',(0.,0.,1.));
#785=DIRECTION('ref_axis',(-1.,0.,0.));
#786=DIRECTION('center_axis',(0.,0.,1.));
#787=DIRECTION('ref_axis',(-1.,0.,0.));
#788=DIRECTION('center_axis',(0.,0.,1.));
#789=DIRECTION('ref_axis',(-1.,0.,0.));
#790=DIRECTION('center_axis',(0.,0.,1.));
#791=DIRECTION('ref_axis',(-1.,0.,0.));
#792=DIRECTION('center_axis',(0.,0.,1.));
#793=DIRECTION('ref_axis',(-1.,0.,0.));
#794=DIRECTION('center_axis',(1.,0.,0.));
#795=DIRECTION('ref_axis',(0.,1.,0.));
#796=DIRECTION('',(0.,-1.,0.));
#797=DIRECTION('',(0.,0.,1.));
#798=DIRECTION('center_axis',(0.,-1.,0.));
#799=DIRECTION('ref_axis',(1.,0.,0.));
#800=DIRECTION('',(0.,0.,1.));
#801=DIRECTION('',(-1.,0.,0.));
#802=DIRECTION('center_axis',(-1.,0.,0.));
#803=DIRECTION('ref_axis',(0.,-1.,0.));
#804=DIRECTION('',(0.,1.,0.));
#805=DIRECTION('center_axis',(0.,0.,1.));
#806=DIRECTION('ref_axis',(1.,0.,0.));
#807=CARTESIAN_POINT('',(0.,0.,0.));
#808=CARTESIAN_POINT('Origin',(-0.9375,0.254937068434945,0.25));
#809=CARTESIAN_POINT('',(-0.8125,0.254937068434945,0.24));
#810=CARTESIAN_POINT('Origin',(-0.9375,0.254937068434945,0.24));
#811=CARTESIAN_POINT('',(-0.8125,0.254937068434945,0.25));
#812=CARTESIAN_POINT('Origin',(-0.9375,0.254937068434945,0.25));
#813=CARTESIAN_POINT('Origin',(-0.9375,0.254937068434945,0.24));
#814=CARTESIAN_POINT('Origin',(-0.9375,-0.134321681218412,0.25));
#815=CARTESIAN_POINT('',(-0.8125,-0.134321681218412,0.24));
#816=CARTESIAN_POINT('Origin',(-0.9375,-0.134321681218412,0.24));
#817=CARTESIAN_POINT('',(-0.8125,-0.134321681218412,0.25));
#818=CARTESIAN_POINT('Origin',(-0.9375,-0.134321681218412,0.25));
#819=CARTESIAN_POINT('Origin',(-0.9375,-0.134321681218412,0.24));
#820=CARTESIAN_POINT('Origin',(0.25,-0.375,0.));
#821=CARTESIAN_POINT('',(0.0625,-0.375,0.));
#822=CARTESIAN_POINT('',(0.4375,-0.375,0.));
#823=CARTESIAN_POINT('Origin',(0.25,-0.375,0.));
#824=CARTESIAN_POINT('',(0.0625,-0.375,0.125));
#825=CARTESIAN_POINT('',(0.0625,-0.375,0.));
#826=CARTESIAN_POINT('',(0.4375,-0.375,0.125));
#827=CARTESIAN_POINT('Origin',(0.25,-0.375,0.125));
#828=CARTESIAN_POINT('',(0.4375,-0.375,0.));
#829=CARTESIAN_POINT('Origin',(0.0625,0.375,0.));
#830=CARTESIAN_POINT('',(0.0625,0.375,0.));
#831=CARTESIAN_POINT('',(0.0625,0.1875,0.));
#832=CARTESIAN_POINT('',(0.0625,0.375,0.125));
#833=CARTESIAN_POINT('',(0.0625,0.375,0.));
#834=CARTESIAN_POINT('',(0.0625,-0.375,0.125));
#835=CARTESIAN_POINT('Origin',(0.25,0.375,0.));
#836=CARTESIAN_POINT('',(0.4375,0.375,0.));
#837=CARTESIAN_POINT('Origin',(0.25,0.375,0.));
#838=CARTESIAN_POINT('',(0.4375,0.375,0.125));
#839=CARTESIAN_POINT('',(0.4375,0.375,0.));
#840=CARTESIAN_POINT('Origin',(0.25,0.375,0.125));
#841=CARTESIAN_POINT('Origin',(0.4375,-0.375,0.));
#842=CARTESIAN_POINT('',(0.4375,-0.1875,0.));
#843=CARTESIAN_POINT('',(0.4375,0.375,0.125));
#844=CARTESIAN_POINT('Origin',(0.25,3.24882908952368E-17,0.125));
#845=CARTESIAN_POINT('',(0.15625,-0.25,0.125));
#846=CARTESIAN_POINT('Origin',(0.25,-0.25,0.125));
#847=CARTESIAN_POINT('',(0.15625,0.25,0.125));
#848=CARTESIAN_POINT('Origin',(0.25,0.25,0.125));
#849=CARTESIAN_POINT('Origin',(-0.25,-0.375,0.));
#850=CARTESIAN_POINT('',(-0.4375,-0.375,0.));
#851=CARTESIAN_POINT('',(-0.0625,-0.375,0.));
#852=CARTESIAN_POINT('Origin',(-0.25,-0.375,0.));
#853=CARTESIAN_POINT('',(-0.4375,-0.375,0.125));
#854=CARTESIAN_POINT('',(-0.4375,-0.375,0.));
#855=CARTESIAN_POINT('',(-0.0625,-0.375,0.125));
#856=CARTESIAN_POINT('Origin',(-0.25,-0.375,0.125));
#857=CARTESIAN_POINT('',(-0.0625,-0.375,0.));
#858=CARTESIAN_POINT('Origin',(-0.4375,0.375,0.));
#859=CARTESIAN_POINT('',(-0.4375,0.375,0.));
#860=CARTESIAN_POINT('',(-0.4375,0.1875,0.));
#861=CARTESIAN_POINT('',(-0.4375,0.375,0.125));
#862=CARTESIAN_POINT('',(-0.4375,0.375,0.));
#863=CARTESIAN_POINT('',(-0.4375,-0.375,0.125));
#864=CARTESIAN_POINT('Origin',(-0.25,0.375,0.));
#865=CARTESIAN_POINT('',(-0.0625,0.375,0.));
#866=CARTESIAN_POINT('Origin',(-0.25,0.375,0.));
#867=CARTESIAN_POINT('',(-0.0625,0.375,0.125));
#868=CARTESIAN_POINT('',(-0.0625,0.375,0.));
#869=CARTESIAN_POINT('Origin',(-0.25,0.375,0.125));
#870=CARTESIAN_POINT('Origin',(-0.0625,-0.375,0.));
#871=CARTESIAN_POINT('',(-0.0625,-0.1875,0.));
#872=CARTESIAN_POINT('',(-0.0625,0.375,0.125));
#873=CARTESIAN_POINT('Origin',(-0.25,0.,0.125));
#874=CARTESIAN_POINT('',(-0.34375,-0.25,0.125));
#875=CARTESIAN_POINT('Origin',(-0.25,-0.25,0.125));
#876=CARTESIAN_POINT('',(-0.34375,0.25,0.125));
#877=CARTESIAN_POINT('Origin',(-0.25,0.25,0.125));
#878=CARTESIAN_POINT('Origin',(0.525,0.625,0.25));
#879=CARTESIAN_POINT('',(0.525,0.625,0.25));
#880=CARTESIAN_POINT('',(0.525,-0.625,0.25));
#881=CARTESIAN_POINT('',(0.525,0.3125,0.25));
#882=CARTESIAN_POINT('',(0.525,0.625,0.21));
#883=CARTESIAN_POINT('',(0.525,0.625,0.125));
#884=CARTESIAN_POINT('',(0.525,-0.625,0.21));
#885=CARTESIAN_POINT('',(0.525,-0.625,0.21));
#886=CARTESIAN_POINT('',(0.525,-0.625,0.125));
#887=CARTESIAN_POINT('Origin',(-0.525,-0.624999999999999,0.25));
#888=CARTESIAN_POINT('',(-0.525,-0.624999999999999,0.25));
#889=CARTESIAN_POINT('',(-0.525,0.625,0.25));
#890=CARTESIAN_POINT('',(-0.525,-0.3125,0.25));
#891=CARTESIAN_POINT('',(-0.525,-0.624999999999999,0.21));
#892=CARTESIAN_POINT('',(-0.525,-0.625,0.125));
#893=CARTESIAN_POINT('',(-0.525,0.625,0.21));
#894=CARTESIAN_POINT('',(-0.525,0.625,0.21));
#895=CARTESIAN_POINT('',(-0.525,0.625,0.125));
#896=CARTESIAN_POINT('Origin',(8.74191357972564E-17,2.62257407391769E-16,
0.21));
#897=CARTESIAN_POINT('',(-0.9375,-0.625,0.21));
#898=CARTESIAN_POINT('',(0.9375,0.625,0.21));
#899=CARTESIAN_POINT('',(-0.15625,-0.25,0.21));
#900=CARTESIAN_POINT('Origin',(-0.25,-0.25,0.21));
#901=CARTESIAN_POINT('',(0.34375,-0.25,0.21));
#902=CARTESIAN_POINT('Origin',(0.25,-0.25,0.21));
#903=CARTESIAN_POINT('',(-0.15625,0.25,0.21));
#904=CARTESIAN_POINT('Origin',(-0.25,0.25,0.21));
#905=CARTESIAN_POINT('',(0.34375,0.25,0.21));
#906=CARTESIAN_POINT('Origin',(0.25,0.25,0.21));
#907=CARTESIAN_POINT('Origin',(0.,0.,0.25));
#908=CARTESIAN_POINT('',(1.875,-0.625,0.25));
#909=CARTESIAN_POINT('',(1.875,-0.625,0.25));
#910=CARTESIAN_POINT('',(1.875,0.625,0.25));
#911=CARTESIAN_POINT('',(1.875,0.625,0.25));
#912=CARTESIAN_POINT('',(-1.875,0.625,0.25));
#913=CARTESIAN_POINT('',(1.8125,-0.25,0.25));
#914=CARTESIAN_POINT('Origin',(1.5,-0.25,0.25));
#915=CARTESIAN_POINT('Origin',(0.,0.,0.25));
#916=CARTESIAN_POINT('',(-1.875,0.625,0.25));
#917=CARTESIAN_POINT('',(-1.875,0.625,0.25));
#918=CARTESIAN_POINT('',(-1.875,-0.625,0.25));
#919=CARTESIAN_POINT('',(-1.875,-0.625,0.25));
#920=CARTESIAN_POINT('',(1.875,-0.625,0.25));
#921=CARTESIAN_POINT('',(-1.1875,-0.25,0.25));
#922=CARTESIAN_POINT('Origin',(-1.5,-0.25,0.25));
#923=CARTESIAN_POINT('Origin',(1.875,0.625,0.));
#924=CARTESIAN_POINT('',(1.875,0.625,0.));
#925=CARTESIAN_POINT('',(1.875,0.625,0.));
#926=CARTESIAN_POINT('',(-1.875,0.625,0.));
#927=CARTESIAN_POINT('',(-1.875,0.625,0.));
#928=CARTESIAN_POINT('',(-1.875,0.625,0.));
#929=CARTESIAN_POINT('Origin',(-1.5,-0.25,0.25));
#930=CARTESIAN_POINT('',(-1.1875,-0.25,0.054));
#931=CARTESIAN_POINT('Origin',(-1.5,-0.25,0.054));
#932=CARTESIAN_POINT('Origin',(-1.5,-0.25,0.054));
#933=CARTESIAN_POINT('',(-1.25,-0.25,0.054));
#934=CARTESIAN_POINT('Origin',(-1.5,-0.25,0.054));
#935=CARTESIAN_POINT('Origin',(1.5,-0.25,0.25));
#936=CARTESIAN_POINT('',(1.8125,-0.25,0.054));
#937=CARTESIAN_POINT('Origin',(1.5,-0.25,0.054));
#938=CARTESIAN_POINT('Origin',(1.5,-0.25,0.054));
#939=CARTESIAN_POINT('',(1.75,-0.25,0.054));
#940=CARTESIAN_POINT('Origin',(1.5,-0.25,0.054));
#941=CARTESIAN_POINT('Origin',(1.5,-0.25,0.));
#942=CARTESIAN_POINT('',(1.75,-0.25,0.));
#943=CARTESIAN_POINT('Origin',(1.5,-0.25,0.));
#944=CARTESIAN_POINT('Origin',(-1.5,-0.25,0.));
#945=CARTESIAN_POINT('',(-1.25,-0.25,0.));
#946=CARTESIAN_POINT('Origin',(-1.5,-0.25,0.));
#947=CARTESIAN_POINT('Origin',(0.25,0.25,0.));
#948=CARTESIAN_POINT('Origin',(-0.25,0.25,0.));
#949=CARTESIAN_POINT('Origin',(0.25,-0.25,0.));
#950=CARTESIAN_POINT('Origin',(-0.25,-0.25,0.));
#951=CARTESIAN_POINT('Origin',(1.875,-0.625,0.));
#952=CARTESIAN_POINT('',(1.875,-0.625,0.));
#953=CARTESIAN_POINT('',(1.875,0.625,0.));
#954=CARTESIAN_POINT('',(1.875,-0.625,0.));
#955=CARTESIAN_POINT('Origin',(-1.875,-0.625,0.));
#956=CARTESIAN_POINT('',(-1.875,-0.625,0.));
#957=CARTESIAN_POINT('',(-1.875,-0.625,0.));
#958=CARTESIAN_POINT('',(1.875,-0.625,0.));
#959=CARTESIAN_POINT('Origin',(-1.875,0.625,0.));
#960=CARTESIAN_POINT('',(-1.875,-0.625,0.));
#961=CARTESIAN_POINT('Origin',(0.,0.,0.));
#962=UNCERTAINTY_MEASURE_WITH_UNIT(LENGTH_MEASURE(0.000393700787401575),
#966,'DISTANCE_ACCURACY_VALUE',
'Maximum model space distance between geometric entities at asserted c
onnectivities');
#963=UNCERTAINTY_MEASURE_WITH_UNIT(LENGTH_MEASURE(1.E-6),#967,
'DISTANCE_ACCURACY_VALUE',
'Maximum model space distance between geometric entities at asserted c
onnectivities');
#964=(
GEOMETRIC_REPRESENTATION_CONTEXT(3)
GLOBAL_UNCERTAINTY_ASSIGNED_CONTEXT((#962))
GLOBAL_UNIT_ASSIGNED_CONTEXT((#966,#972,#969))
REPRESENTATION_CONTEXT('','3D')
);
#965=(
GEOMETRIC_REPRESENTATION_CONTEXT(3)
GLOBAL_UNCERTAINTY_ASSIGNED_CONTEXT((#963))
GLOBAL_UNIT_ASSIGNED_CONTEXT((#967,#972,#969))
REPRESENTATION_CONTEXT('','3D')
);
#966=(
CONVERSION_BASED_UNIT('__CONSTANT UNIT inch',#968)
LENGTH_UNIT()
NAMED_UNIT(#971)
);
#967=(
LENGTH_UNIT()
NAMED_UNIT(*)
SI_UNIT(.MILLI.,.METRE.)
);
#968=LENGTH_MEASURE_WITH_UNIT(LENGTH_MEASURE(25.4),#967);
#969=(
NAMED_UNIT(*)
SI_UNIT($,.STERADIAN.)
SOLID_ANGLE_UNIT()
);
#970=DIMENSIONAL_EXPONENTS(0.,0.,0.,0.,0.,0.,0.);
#971=DIMENSIONAL_EXPONENTS(1.,0.,0.,0.,0.,0.,0.);
#972=(
CONVERSION_BASED_UNIT('degree',#974)
NAMED_UNIT(#970)
PLANE_ANGLE_UNIT()
);
#973=(
NAMED_UNIT(*)
PLANE_ANGLE_UNIT()
SI_UNIT($,.RADIAN.)
);
#974=PLANE_ANGLE_MEASURE_WITH_UNIT(PLANE_ANGLE_MEASURE(0.01745329252),#973);
#975=SHAPE_DEFINITION_REPRESENTATION(#976,#977);
#976=PRODUCT_DEFINITION_SHAPE('',$,#979);
#977=SHAPE_REPRESENTATION('',(#578),#964);
#978=PRODUCT_DEFINITION_CONTEXT('part definition',#983,'design');
#979=PRODUCT_DEFINITION('Soporte rodamientos inferior 2',
'Soporte rodamientos inferior 2',#980,#978);
#980=PRODUCT_DEFINITION_FORMATION('',$,#985);
#981=PRODUCT_RELATED_PRODUCT_CATEGORY('Soporte rodamientos inferior 2',
'Soporte rodamientos inferior 2',(#985));
#982=APPLICATION_PROTOCOL_DEFINITION('international standard',
'automotive_design',2009,#983);
#983=APPLICATION_CONTEXT(
'Core Data for Automotive Mechanical Design Process');
#984=PRODUCT_CONTEXT('part definition',#983,'mechanical');
#985=PRODUCT('Soporte rodamientos inferior 2',
'Soporte rodamientos inferior 2',$,(#984));
#986=PRESENTATION_STYLE_ASSIGNMENT((#987));
#987=SURFACE_STYLE_USAGE(.BOTH.,#988);
#988=SURFACE_SIDE_STYLE('',(#989));
#989=SURFACE_STYLE_FILL_AREA(#990);
#990=FILL_AREA_STYLE('',(#991));
#991=FILL_AREA_STYLE_COLOUR('',#992);
#992=COLOUR_RGB('',0.898039215686275,0.898039215686275,0.898039215686275);
ENDSEC;
END-ISO-10303-21;
