ISO-10303-21;
HEADER;
/* Generated by software containing ST-Developer
 * from STEP Tools, Inc. (www.steptools.com) 
 */

FILE_DESCRIPTION(
/* description */ (''),
/* implementation_level */ '2;1');

FILE_NAME(
/* name */ 
'C:\\Users\\BestBuy2067\\Desktop\\PIEZAS EI30 CHINA\\Archivos STEP\\Po
ste.stp',
/* time_stamp */ '2020-08-03T09:41:24-05:00',
/* author */ ('EI'),
/* organization */ (''),
/* preprocessor_version */ 'ST-DEVELOPER v16.5',
/* originating_system */ 'Autodesk Inventor 2017',
/* authorisation */ '');

FILE_SCHEMA (('AUTOMOTIVE_DESIGN { 1 0 10303 214 3 1 1 }'));
ENDSEC;

DATA;
#10=MECHANICAL_DESIGN_GEOMETRIC_PRESENTATION_REPRESENTATION('',(#13),#551);
#11=SHAPE_REPRESENTATION_RELATIONSHIP('SRR','None',#563,#12);
#12=ADVANCED_BREP_SHAPE_REPRESENTATION('',(#14),#550);
#13=STYLED_ITEM('',(#572),#14);
#14=MANIFOLD_SOLID_BREP('S\X\F3lido1',#335);
#15=LINE('',#469,#45);
#16=LINE('',#471,#46);
#17=LINE('',#473,#47);
#18=LINE('',#474,#48);
#19=LINE('',#477,#49);
#20=LINE('',#479,#50);
#21=LINE('',#480,#51);
#22=LINE('',#483,#52);
#23=LINE('',#484,#53);
#24=LINE('',#488,#54);
#25=LINE('',#490,#55);
#26=LINE('',#492,#56);
#27=LINE('',#493,#57);
#28=LINE('',#496,#58);
#29=LINE('',#498,#59);
#30=LINE('',#499,#60);
#31=LINE('',#502,#61);
#32=LINE('',#503,#62);
#33=LINE('',#506,#63);
#34=LINE('',#508,#64);
#35=LINE('',#510,#65);
#36=LINE('',#511,#66);
#37=LINE('',#514,#67);
#38=LINE('',#515,#68);
#39=LINE('',#516,#69);
#40=LINE('',#539,#70);
#41=LINE('',#540,#71);
#42=LINE('',#543,#72);
#43=LINE('',#544,#73);
#44=LINE('',#546,#74);
#45=VECTOR('',#383,0.393700787401575);
#46=VECTOR('',#384,0.393700787401575);
#47=VECTOR('',#385,0.393700787401575);
#48=VECTOR('',#386,0.393700787401575);
#49=VECTOR('',#389,0.393700787401575);
#50=VECTOR('',#390,0.393700787401575);
#51=VECTOR('',#391,0.393700787401575);
#52=VECTOR('',#394,0.393700787401575);
#53=VECTOR('',#395,0.393700787401575);
#54=VECTOR('',#398,0.393700787401575);
#55=VECTOR('',#399,0.393700787401575);
#56=VECTOR('',#400,0.393700787401575);
#57=VECTOR('',#401,0.393700787401575);
#58=VECTOR('',#404,0.393700787401575);
#59=VECTOR('',#405,0.393700787401575);
#60=VECTOR('',#406,0.393700787401575);
#61=VECTOR('',#409,0.393700787401575);
#62=VECTOR('',#410,0.393700787401575);
#63=VECTOR('',#413,0.393700787401575);
#64=VECTOR('',#414,0.393700787401575);
#65=VECTOR('',#415,0.393700787401575);
#66=VECTOR('',#416,0.393700787401575);
#67=VECTOR('',#419,0.393700787401575);
#68=VECTOR('',#420,0.393700787401575);
#69=VECTOR('',#421,0.393700787401575);
#70=VECTOR('',#448,0.393700787401575);
#71=VECTOR('',#449,0.393700787401575);
#72=VECTOR('',#452,0.393700787401575);
#73=VECTOR('',#453,0.393700787401575);
#74=VECTOR('',#456,0.393700787401575);
#75=PLANE('',#347);
#76=PLANE('',#348);
#77=PLANE('',#349);
#78=PLANE('',#350);
#79=PLANE('',#351);
#80=PLANE('',#352);
#81=PLANE('',#353);
#82=PLANE('',#354);
#83=PLANE('',#367);
#84=PLANE('',#368);
#85=PLANE('',#369);
#86=PLANE('',#370);
#87=FACE_BOUND('',#126,.T.);
#88=FACE_BOUND('',#136,.T.);
#89=FACE_BOUND('',#138,.T.);
#90=FACE_BOUND('',#140,.T.);
#91=FACE_BOUND('',#142,.T.);
#92=FACE_BOUND('',#144,.T.);
#93=FACE_BOUND('',#145,.T.);
#94=FACE_BOUND('',#146,.T.);
#95=FACE_BOUND('',#147,.T.);
#96=FACE_BOUND('',#150,.T.);
#97=FACE_BOUND('',#152,.T.);
#98=FACE_BOUND('',#153,.T.);
#99=FACE_BOUND('',#154,.T.);
#100=FACE_BOUND('',#155,.T.);
#101=CYLINDRICAL_SURFACE('',#345,0.097);
#102=CYLINDRICAL_SURFACE('',#355,0.09375);
#103=CYLINDRICAL_SURFACE('',#358,0.09375);
#104=CYLINDRICAL_SURFACE('',#361,0.09375);
#105=CYLINDRICAL_SURFACE('',#364,0.09375);
#106=FACE_OUTER_BOUND('',#124,.T.);
#107=FACE_OUTER_BOUND('',#125,.T.);
#108=FACE_OUTER_BOUND('',#127,.T.);
#109=FACE_OUTER_BOUND('',#128,.T.);
#110=FACE_OUTER_BOUND('',#129,.T.);
#111=FACE_OUTER_BOUND('',#130,.T.);
#112=FACE_OUTER_BOUND('',#131,.T.);
#113=FACE_OUTER_BOUND('',#132,.T.);
#114=FACE_OUTER_BOUND('',#133,.T.);
#115=FACE_OUTER_BOUND('',#134,.T.);
#116=FACE_OUTER_BOUND('',#135,.T.);
#117=FACE_OUTER_BOUND('',#137,.T.);
#118=FACE_OUTER_BOUND('',#139,.T.);
#119=FACE_OUTER_BOUND('',#141,.T.);
#120=FACE_OUTER_BOUND('',#143,.T.);
#121=FACE_OUTER_BOUND('',#148,.T.);
#122=FACE_OUTER_BOUND('',#149,.T.);
#123=FACE_OUTER_BOUND('',#151,.T.);
#124=EDGE_LOOP('',(#236));
#125=EDGE_LOOP('',(#237));
#126=EDGE_LOOP('',(#238));
#127=EDGE_LOOP('',(#239,#240,#241,#242));
#128=EDGE_LOOP('',(#243,#244,#245,#246));
#129=EDGE_LOOP('',(#247,#248,#249,#250));
#130=EDGE_LOOP('',(#251,#252,#253,#254));
#131=EDGE_LOOP('',(#255,#256,#257,#258));
#132=EDGE_LOOP('',(#259,#260,#261,#262));
#133=EDGE_LOOP('',(#263,#264,#265,#266,#267,#268));
#134=EDGE_LOOP('',(#269,#270,#271,#272,#273,#274,#275,#276));
#135=EDGE_LOOP('',(#277));
#136=EDGE_LOOP('',(#278));
#137=EDGE_LOOP('',(#279));
#138=EDGE_LOOP('',(#280));
#139=EDGE_LOOP('',(#281));
#140=EDGE_LOOP('',(#282));
#141=EDGE_LOOP('',(#283));
#142=EDGE_LOOP('',(#284));
#143=EDGE_LOOP('',(#285,#286,#287,#288));
#144=EDGE_LOOP('',(#289));
#145=EDGE_LOOP('',(#290));
#146=EDGE_LOOP('',(#291));
#147=EDGE_LOOP('',(#292));
#148=EDGE_LOOP('',(#293,#294,#295,#296,#297,#298));
#149=EDGE_LOOP('',(#299,#300,#301,#302));
#150=EDGE_LOOP('',(#303));
#151=EDGE_LOOP('',(#304,#305,#306,#307,#308,#309,#310,#311));
#152=EDGE_LOOP('',(#312));
#153=EDGE_LOOP('',(#313));
#154=EDGE_LOOP('',(#314));
#155=EDGE_LOOP('',(#315));
#156=CIRCLE('',#344,0.097);
#157=CIRCLE('',#346,0.097);
#158=CIRCLE('',#356,0.09375);
#159=CIRCLE('',#357,0.09375);
#160=CIRCLE('',#359,0.09375);
#161=CIRCLE('',#360,0.09375);
#162=CIRCLE('',#362,0.09375);
#163=CIRCLE('',#363,0.09375);
#164=CIRCLE('',#365,0.09375);
#165=CIRCLE('',#366,0.09375);
#166=VERTEX_POINT('',#461);
#167=VERTEX_POINT('',#464);
#168=VERTEX_POINT('',#467);
#169=VERTEX_POINT('',#468);
#170=VERTEX_POINT('',#470);
#171=VERTEX_POINT('',#472);
#172=VERTEX_POINT('',#476);
#173=VERTEX_POINT('',#478);
#174=VERTEX_POINT('',#482);
#175=VERTEX_POINT('',#486);
#176=VERTEX_POINT('',#487);
#177=VERTEX_POINT('',#489);
#178=VERTEX_POINT('',#491);
#179=VERTEX_POINT('',#495);
#180=VERTEX_POINT('',#497);
#181=VERTEX_POINT('',#501);
#182=VERTEX_POINT('',#505);
#183=VERTEX_POINT('',#507);
#184=VERTEX_POINT('',#509);
#185=VERTEX_POINT('',#513);
#186=VERTEX_POINT('',#518);
#187=VERTEX_POINT('',#520);
#188=VERTEX_POINT('',#523);
#189=VERTEX_POINT('',#525);
#190=VERTEX_POINT('',#528);
#191=VERTEX_POINT('',#530);
#192=VERTEX_POINT('',#533);
#193=VERTEX_POINT('',#535);
#194=VERTEX_POINT('',#538);
#195=VERTEX_POINT('',#542);
#196=EDGE_CURVE('',#166,#166,#156,.T.);
#197=EDGE_CURVE('',#167,#167,#157,.T.);
#198=EDGE_CURVE('',#168,#169,#15,.T.);
#199=EDGE_CURVE('',#168,#170,#16,.T.);
#200=EDGE_CURVE('',#170,#171,#17,.T.);
#201=EDGE_CURVE('',#169,#171,#18,.T.);
#202=EDGE_CURVE('',#172,#168,#19,.T.);
#203=EDGE_CURVE('',#173,#172,#20,.T.);
#204=EDGE_CURVE('',#173,#170,#21,.T.);
#205=EDGE_CURVE('',#171,#174,#22,.T.);
#206=EDGE_CURVE('',#174,#173,#23,.T.);
#207=EDGE_CURVE('',#175,#176,#24,.T.);
#208=EDGE_CURVE('',#175,#177,#25,.T.);
#209=EDGE_CURVE('',#177,#178,#26,.T.);
#210=EDGE_CURVE('',#176,#178,#27,.T.);
#211=EDGE_CURVE('',#179,#175,#28,.T.);
#212=EDGE_CURVE('',#180,#179,#29,.T.);
#213=EDGE_CURVE('',#180,#177,#30,.T.);
#214=EDGE_CURVE('',#178,#181,#31,.T.);
#215=EDGE_CURVE('',#181,#180,#32,.T.);
#216=EDGE_CURVE('',#181,#182,#33,.T.);
#217=EDGE_CURVE('',#183,#182,#34,.T.);
#218=EDGE_CURVE('',#184,#183,#35,.T.);
#219=EDGE_CURVE('',#176,#184,#36,.T.);
#220=EDGE_CURVE('',#174,#185,#37,.T.);
#221=EDGE_CURVE('',#182,#185,#38,.T.);
#222=EDGE_CURVE('',#169,#179,#39,.T.);
#223=EDGE_CURVE('',#186,#186,#158,.T.);
#224=EDGE_CURVE('',#187,#187,#159,.T.);
#225=EDGE_CURVE('',#188,#188,#160,.T.);
#226=EDGE_CURVE('',#189,#189,#161,.T.);
#227=EDGE_CURVE('',#190,#190,#162,.T.);
#228=EDGE_CURVE('',#191,#191,#163,.T.);
#229=EDGE_CURVE('',#192,#192,#164,.T.);
#230=EDGE_CURVE('',#193,#193,#165,.T.);
#231=EDGE_CURVE('',#194,#183,#40,.T.);
#232=EDGE_CURVE('',#185,#194,#41,.T.);
#233=EDGE_CURVE('',#195,#172,#42,.T.);
#234=EDGE_CURVE('',#194,#195,#43,.T.);
#235=EDGE_CURVE('',#184,#195,#44,.T.);
#236=ORIENTED_EDGE('',*,*,#196,.T.);
#237=ORIENTED_EDGE('',*,*,#197,.F.);
#238=ORIENTED_EDGE('',*,*,#196,.F.);
#239=ORIENTED_EDGE('',*,*,#198,.F.);
#240=ORIENTED_EDGE('',*,*,#199,.T.);
#241=ORIENTED_EDGE('',*,*,#200,.T.);
#242=ORIENTED_EDGE('',*,*,#201,.F.);
#243=ORIENTED_EDGE('',*,*,#202,.F.);
#244=ORIENTED_EDGE('',*,*,#203,.F.);
#245=ORIENTED_EDGE('',*,*,#204,.T.);
#246=ORIENTED_EDGE('',*,*,#199,.F.);
#247=ORIENTED_EDGE('',*,*,#205,.F.);
#248=ORIENTED_EDGE('',*,*,#200,.F.);
#249=ORIENTED_EDGE('',*,*,#204,.F.);
#250=ORIENTED_EDGE('',*,*,#206,.F.);
#251=ORIENTED_EDGE('',*,*,#207,.F.);
#252=ORIENTED_EDGE('',*,*,#208,.T.);
#253=ORIENTED_EDGE('',*,*,#209,.T.);
#254=ORIENTED_EDGE('',*,*,#210,.F.);
#255=ORIENTED_EDGE('',*,*,#211,.F.);
#256=ORIENTED_EDGE('',*,*,#212,.F.);
#257=ORIENTED_EDGE('',*,*,#213,.T.);
#258=ORIENTED_EDGE('',*,*,#208,.F.);
#259=ORIENTED_EDGE('',*,*,#214,.F.);
#260=ORIENTED_EDGE('',*,*,#209,.F.);
#261=ORIENTED_EDGE('',*,*,#213,.F.);
#262=ORIENTED_EDGE('',*,*,#215,.F.);
#263=ORIENTED_EDGE('',*,*,#210,.T.);
#264=ORIENTED_EDGE('',*,*,#214,.T.);
#265=ORIENTED_EDGE('',*,*,#216,.T.);
#266=ORIENTED_EDGE('',*,*,#217,.F.);
#267=ORIENTED_EDGE('',*,*,#218,.F.);
#268=ORIENTED_EDGE('',*,*,#219,.F.);
#269=ORIENTED_EDGE('',*,*,#201,.T.);
#270=ORIENTED_EDGE('',*,*,#205,.T.);
#271=ORIENTED_EDGE('',*,*,#220,.T.);
#272=ORIENTED_EDGE('',*,*,#221,.F.);
#273=ORIENTED_EDGE('',*,*,#216,.F.);
#274=ORIENTED_EDGE('',*,*,#215,.T.);
#275=ORIENTED_EDGE('',*,*,#212,.T.);
#276=ORIENTED_EDGE('',*,*,#222,.F.);
#277=ORIENTED_EDGE('',*,*,#223,.F.);
#278=ORIENTED_EDGE('',*,*,#224,.F.);
#279=ORIENTED_EDGE('',*,*,#225,.F.);
#280=ORIENTED_EDGE('',*,*,#226,.F.);
#281=ORIENTED_EDGE('',*,*,#227,.F.);
#282=ORIENTED_EDGE('',*,*,#228,.F.);
#283=ORIENTED_EDGE('',*,*,#229,.F.);
#284=ORIENTED_EDGE('',*,*,#230,.F.);
#285=ORIENTED_EDGE('',*,*,#231,.T.);
#286=ORIENTED_EDGE('',*,*,#217,.T.);
#287=ORIENTED_EDGE('',*,*,#221,.T.);
#288=ORIENTED_EDGE('',*,*,#232,.T.);
#289=ORIENTED_EDGE('',*,*,#223,.T.);
#290=ORIENTED_EDGE('',*,*,#225,.T.);
#291=ORIENTED_EDGE('',*,*,#227,.T.);
#292=ORIENTED_EDGE('',*,*,#229,.T.);
#293=ORIENTED_EDGE('',*,*,#203,.T.);
#294=ORIENTED_EDGE('',*,*,#233,.F.);
#295=ORIENTED_EDGE('',*,*,#234,.F.);
#296=ORIENTED_EDGE('',*,*,#232,.F.);
#297=ORIENTED_EDGE('',*,*,#220,.F.);
#298=ORIENTED_EDGE('',*,*,#206,.T.);
#299=ORIENTED_EDGE('',*,*,#234,.T.);
#300=ORIENTED_EDGE('',*,*,#235,.F.);
#301=ORIENTED_EDGE('',*,*,#218,.T.);
#302=ORIENTED_EDGE('',*,*,#231,.F.);
#303=ORIENTED_EDGE('',*,*,#197,.T.);
#304=ORIENTED_EDGE('',*,*,#198,.T.);
#305=ORIENTED_EDGE('',*,*,#222,.T.);
#306=ORIENTED_EDGE('',*,*,#211,.T.);
#307=ORIENTED_EDGE('',*,*,#207,.T.);
#308=ORIENTED_EDGE('',*,*,#219,.T.);
#309=ORIENTED_EDGE('',*,*,#235,.T.);
#310=ORIENTED_EDGE('',*,*,#233,.T.);
#311=ORIENTED_EDGE('',*,*,#202,.T.);
#312=ORIENTED_EDGE('',*,*,#224,.T.);
#313=ORIENTED_EDGE('',*,*,#226,.T.);
#314=ORIENTED_EDGE('',*,*,#228,.T.);
#315=ORIENTED_EDGE('',*,*,#230,.T.);
#316=CONICAL_SURFACE('',#343,0.0485,59.);
#317=ADVANCED_FACE('',(#106),#316,.F.);
#318=ADVANCED_FACE('',(#107,#87),#101,.F.);
#319=ADVANCED_FACE('',(#108),#75,.F.);
#320=ADVANCED_FACE('',(#109),#76,.F.);
#321=ADVANCED_FACE('',(#110),#77,.F.);
#322=ADVANCED_FACE('',(#111),#78,.F.);
#323=ADVANCED_FACE('',(#112),#79,.F.);
#324=ADVANCED_FACE('',(#113),#80,.F.);
#325=ADVANCED_FACE('',(#114),#81,.T.);
#326=ADVANCED_FACE('',(#115),#82,.T.);
#327=ADVANCED_FACE('',(#116,#88),#102,.F.);
#328=ADVANCED_FACE('',(#117,#89),#103,.F.);
#329=ADVANCED_FACE('',(#118,#90),#104,.F.);
#330=ADVANCED_FACE('',(#119,#91),#105,.F.);
#331=ADVANCED_FACE('',(#120,#92,#93,#94,#95),#83,.T.);
#332=ADVANCED_FACE('',(#121),#84,.T.);
#333=ADVANCED_FACE('',(#122,#96),#85,.T.);
#334=ADVANCED_FACE('',(#123,#97,#98,#99,#100),#86,.T.);
#335=CLOSED_SHELL('',(#317,#318,#319,#320,#321,#322,#323,#324,#325,#326,
#327,#328,#329,#330,#331,#332,#333,#334));
#336=DATE_TIME_ROLE('creation_date');
#337=APPLIED_DATE_AND_TIME_ASSIGNMENT(#338,#336,(#565));
#338=DATE_AND_TIME(#339,#340);
#339=CALENDAR_DATE(2015,6,4);
#340=LOCAL_TIME(19,10,7.,#341);
#341=COORDINATED_UNIVERSAL_TIME_OFFSET(0,0,.BEHIND.);
#342=AXIS2_PLACEMENT_3D('placement',#459,#371,#372);
#343=AXIS2_PLACEMENT_3D('',#460,#373,#374);
#344=AXIS2_PLACEMENT_3D('',#462,#375,#376);
#345=AXIS2_PLACEMENT_3D('',#463,#377,#378);
#346=AXIS2_PLACEMENT_3D('',#465,#379,#380);
#347=AXIS2_PLACEMENT_3D('',#466,#381,#382);
#348=AXIS2_PLACEMENT_3D('',#475,#387,#388);
#349=AXIS2_PLACEMENT_3D('',#481,#392,#393);
#350=AXIS2_PLACEMENT_3D('',#485,#396,#397);
#351=AXIS2_PLACEMENT_3D('',#494,#402,#403);
#352=AXIS2_PLACEMENT_3D('',#500,#407,#408);
#353=AXIS2_PLACEMENT_3D('',#504,#411,#412);
#354=AXIS2_PLACEMENT_3D('',#512,#417,#418);
#355=AXIS2_PLACEMENT_3D('',#517,#422,#423);
#356=AXIS2_PLACEMENT_3D('',#519,#424,#425);
#357=AXIS2_PLACEMENT_3D('',#521,#426,#427);
#358=AXIS2_PLACEMENT_3D('',#522,#428,#429);
#359=AXIS2_PLACEMENT_3D('',#524,#430,#431);
#360=AXIS2_PLACEMENT_3D('',#526,#432,#433);
#361=AXIS2_PLACEMENT_3D('',#527,#434,#435);
#362=AXIS2_PLACEMENT_3D('',#529,#436,#437);
#363=AXIS2_PLACEMENT_3D('',#531,#438,#439);
#364=AXIS2_PLACEMENT_3D('',#532,#440,#441);
#365=AXIS2_PLACEMENT_3D('',#534,#442,#443);
#366=AXIS2_PLACEMENT_3D('',#536,#444,#445);
#367=AXIS2_PLACEMENT_3D('',#537,#446,#447);
#368=AXIS2_PLACEMENT_3D('',#541,#450,#451);
#369=AXIS2_PLACEMENT_3D('',#545,#454,#455);
#370=AXIS2_PLACEMENT_3D('',#547,#457,#458);
#371=DIRECTION('axis',(0.,0.,1.));
#372=DIRECTION('refdir',(1.,0.,0.));
#373=DIRECTION('center_axis',(0.,1.,0.));
#374=DIRECTION('ref_axis',(-1.,0.,0.));
#375=DIRECTION('center_axis',(0.,1.,0.));
#376=DIRECTION('ref_axis',(-1.,0.,0.));
#377=DIRECTION('center_axis',(0.,1.,0.));
#378=DIRECTION('ref_axis',(-1.,0.,0.));
#379=DIRECTION('center_axis',(0.,-1.,0.));
#380=DIRECTION('ref_axis',(-1.,0.,0.));
#381=DIRECTION('center_axis',(1.,4.19611851826831E-16,0.));
#382=DIRECTION('ref_axis',(4.22994972382185E-16,-1.,0.));
#383=DIRECTION('',(4.19611851826831E-16,-1.,0.));
#384=DIRECTION('',(0.,0.,-1.));
#385=DIRECTION('',(4.19611851826831E-16,-1.,0.));
#386=DIRECTION('',(0.,0.,-1.));
#387=DIRECTION('center_axis',(0.,1.,0.));
#388=DIRECTION('ref_axis',(1.,0.,0.));
#389=DIRECTION('',(1.,0.,0.));
#390=DIRECTION('',(0.,0.,1.));
#391=DIRECTION('',(1.,0.,0.));
#392=DIRECTION('center_axis',(0.,0.,-1.));
#393=DIRECTION('ref_axis',(-1.,0.,0.));
#394=DIRECTION('',(-1.,-1.74838271594513E-16,0.));
#395=DIRECTION('',(6.77667719358577E-17,1.,0.));
#396=DIRECTION('center_axis',(-1.04070399758639E-15,1.,0.));
#397=DIRECTION('ref_axis',(1.,1.03986264043954E-15,0.));
#398=DIRECTION('',(1.,1.04070399758639E-15,0.));
#399=DIRECTION('',(0.,0.,-1.));
#400=DIRECTION('',(1.,1.04070399758639E-15,0.));
#401=DIRECTION('',(0.,0.,-1.));
#402=DIRECTION('center_axis',(-1.,-2.79741234551221E-16,0.));
#403=DIRECTION('ref_axis',(-2.8199664825479E-16,1.,0.));
#404=DIRECTION('',(-2.79741234551221E-16,1.,0.));
#405=DIRECTION('',(0.,0.,1.));
#406=DIRECTION('',(-2.79741234551221E-16,1.,0.));
#407=DIRECTION('center_axis',(0.,0.,-1.));
#408=DIRECTION('ref_axis',(-1.,0.,0.));
#409=DIRECTION('',(0.,-1.,0.));
#410=DIRECTION('',(-1.,-1.74838271594513E-16,0.));
#411=DIRECTION('center_axis',(1.,0.,0.));
#412=DIRECTION('ref_axis',(0.,1.,0.));
#413=DIRECTION('',(0.,0.,-1.));
#414=DIRECTION('',(0.,-1.,0.));
#415=DIRECTION('',(0.,0.,-1.));
#416=DIRECTION('',(0.,1.,0.));
#417=DIRECTION('center_axis',(1.74838271594513E-16,-1.,0.));
#418=DIRECTION('ref_axis',(1.,0.,0.));
#419=DIRECTION('',(0.,0.,-1.));
#420=DIRECTION('',(-1.,-1.74838271594513E-16,0.));
#421=DIRECTION('',(1.,1.74838271594513E-16,0.));
#422=DIRECTION('center_axis',(0.,0.,1.));
#423=DIRECTION('ref_axis',(-1.,0.,0.));
#424=DIRECTION('center_axis',(0.,0.,1.));
#425=DIRECTION('ref_axis',(-1.,0.,0.));
#426=DIRECTION('center_axis',(0.,0.,-1.));
#427=DIRECTION('ref_axis',(-1.,0.,0.));
#428=DIRECTION('center_axis',(0.,0.,1.));
#429=DIRECTION('ref_axis',(-1.,0.,0.));
#430=DIRECTION('center_axis',(0.,0.,1.));
#431=DIRECTION('ref_axis',(-1.,0.,0.));
#432=DIRECTION('center_axis',(0.,0.,-1.));
#433=DIRECTION('ref_axis',(-1.,0.,0.));
#434=DIRECTION('center_axis',(0.,0.,1.));
#435=DIRECTION('ref_axis',(-1.,0.,0.));
#436=DIRECTION('center_axis',(0.,0.,1.));
#437=DIRECTION('ref_axis',(-1.,0.,0.));
#438=DIRECTION('center_axis',(0.,0.,-1.));
#439=DIRECTION('ref_axis',(-1.,0.,0.));
#440=DIRECTION('center_axis',(0.,0.,1.));
#441=DIRECTION('ref_axis',(-1.,0.,0.));
#442=DIRECTION('center_axis',(0.,0.,1.));
#443=DIRECTION('ref_axis',(-1.,0.,0.));
#444=DIRECTION('center_axis',(0.,0.,-1.));
#445=DIRECTION('ref_axis',(-1.,0.,0.));
#446=DIRECTION('center_axis',(0.,0.,-1.));
#447=DIRECTION('ref_axis',(-1.,0.,0.));
#448=DIRECTION('',(1.,0.,0.));
#449=DIRECTION('',(6.77667719358577E-17,1.,0.));
#450=DIRECTION('center_axis',(-1.,6.77667719358577E-17,0.));
#451=DIRECTION('ref_axis',(0.,-1.,0.));
#452=DIRECTION('',(-6.77667719358577E-17,-1.,0.));
#453=DIRECTION('',(0.,0.,1.));
#454=DIRECTION('center_axis',(0.,1.,0.));
#455=DIRECTION('ref_axis',(-1.,0.,0.));
#456=DIRECTION('',(-1.,0.,0.));
#457=DIRECTION('center_axis',(0.,0.,1.));
#458=DIRECTION('ref_axis',(1.,0.,0.));
#459=CARTESIAN_POINT('',(0.,0.,0.));
#460=CARTESIAN_POINT('Origin',(0.,0.635858259977163,0.));
#461=CARTESIAN_POINT('',(-0.097,0.665,0.));
#462=CARTESIAN_POINT('Origin',(0.,0.665,0.));
#463=CARTESIAN_POINT('Origin',(0.,0.9775,0.));
#464=CARTESIAN_POINT('',(-0.097,1.29,0.));
#465=CARTESIAN_POINT('Origin',(0.,1.29,0.));
#466=CARTESIAN_POINT('Origin',(-0.479,-0.0400000000000001,0.25));
#467=CARTESIAN_POINT('',(-0.479,-0.0400000000000001,0.25));
#468=CARTESIAN_POINT('',(-0.478999999999999,-1.29,0.25));
#469=CARTESIAN_POINT('',(-0.479,-0.0200000000000002,0.25));
#470=CARTESIAN_POINT('',(-0.479,-0.0400000000000001,0.2));
#471=CARTESIAN_POINT('',(-0.479,-0.0400000000000001,0.25));
#472=CARTESIAN_POINT('',(-0.478999999999999,-1.29,0.2));
#473=CARTESIAN_POINT('',(-0.478999999999999,-1.29,0.2));
#474=CARTESIAN_POINT('',(-0.479,-1.29,0.125));
#475=CARTESIAN_POINT('Origin',(-0.5,-0.0400000000000001,0.25));
#476=CARTESIAN_POINT('',(-0.5,-0.0400000000000001,0.25));
#477=CARTESIAN_POINT('',(-0.25,-0.0400000000000001,0.25));
#478=CARTESIAN_POINT('',(-0.5,-0.0400000000000001,0.2));
#479=CARTESIAN_POINT('',(-0.5,-0.0400000000000001,0.125));
#480=CARTESIAN_POINT('',(-0.479,-0.0400000000000001,0.2));
#481=CARTESIAN_POINT('Origin',(-0.4895,-0.665,0.2));
#482=CARTESIAN_POINT('',(-0.5,-1.29,0.2));
#483=CARTESIAN_POINT('',(-0.49475,-1.29,0.2));
#484=CARTESIAN_POINT('',(-0.5,0.3125,0.2));
#485=CARTESIAN_POINT('Origin',(0.479,-0.0399999999999997,0.25));
#486=CARTESIAN_POINT('',(0.479,-0.0399999999999997,0.25));
#487=CARTESIAN_POINT('',(0.5,-0.0399999999999997,0.25));
#488=CARTESIAN_POINT('',(0.2395,-0.04,0.25));
#489=CARTESIAN_POINT('',(0.479,-0.0399999999999998,0.2));
#490=CARTESIAN_POINT('',(0.479,-0.0399999999999997,0.25));
#491=CARTESIAN_POINT('',(0.5,-0.0399999999999998,0.2));
#492=CARTESIAN_POINT('',(0.5,-0.0399999999999997,0.2));
#493=CARTESIAN_POINT('',(0.5,-0.0399999999999998,0.125));
#494=CARTESIAN_POINT('Origin',(0.479000000000001,-1.29,0.25));
#495=CARTESIAN_POINT('',(0.479000000000001,-1.29,0.25));
#496=CARTESIAN_POINT('',(0.479000000000001,-0.645,0.25));
#497=CARTESIAN_POINT('',(0.479000000000001,-1.29,0.2));
#498=CARTESIAN_POINT('',(0.479000000000001,-1.29,0.125));
#499=CARTESIAN_POINT('',(0.479,-0.0399999999999997,0.2));
#500=CARTESIAN_POINT('Origin',(0.4895,-0.665,0.2));
#501=CARTESIAN_POINT('',(0.5,-1.29,0.2));
#502=CARTESIAN_POINT('',(0.5,-0.9775,0.2));
#503=CARTESIAN_POINT('',(-0.00524999999999985,-1.29,0.2));
#504=CARTESIAN_POINT('Origin',(0.5,-1.29,0.));
#505=CARTESIAN_POINT('',(0.5,-1.29,-0.25));
#506=CARTESIAN_POINT('',(0.5,-1.29,0.));
#507=CARTESIAN_POINT('',(0.5,1.29,-0.25));
#508=CARTESIAN_POINT('',(0.5,1.29,-0.25));
#509=CARTESIAN_POINT('',(0.5,1.29,0.25));
#510=CARTESIAN_POINT('',(0.5,1.29,0.));
#511=CARTESIAN_POINT('',(0.5,1.29,0.25));
#512=CARTESIAN_POINT('Origin',(-0.5,-1.29,0.));
#513=CARTESIAN_POINT('',(-0.5,-1.29,-0.25));
#514=CARTESIAN_POINT('',(-0.5,-1.29,0.));
#515=CARTESIAN_POINT('',(0.5,-1.29,-0.25));
#516=CARTESIAN_POINT('',(0.5,-1.29,0.25));
#517=CARTESIAN_POINT('Origin',(0.25,-1.02,0.));
#518=CARTESIAN_POINT('',(0.34375,-1.02,-0.25));
#519=CARTESIAN_POINT('Origin',(0.25,-1.02,-0.25));
#520=CARTESIAN_POINT('',(0.34375,-1.02,0.25));
#521=CARTESIAN_POINT('Origin',(0.25,-1.02,0.25));
#522=CARTESIAN_POINT('Origin',(0.25,-0.52,0.));
#523=CARTESIAN_POINT('',(0.34375,-0.52,-0.25));
#524=CARTESIAN_POINT('Origin',(0.25,-0.52,-0.25));
#525=CARTESIAN_POINT('',(0.34375,-0.52,0.25));
#526=CARTESIAN_POINT('Origin',(0.25,-0.52,0.25));
#527=CARTESIAN_POINT('Origin',(-0.25,-0.52,0.));
#528=CARTESIAN_POINT('',(-0.15625,-0.52,-0.25));
#529=CARTESIAN_POINT('Origin',(-0.25,-0.52,-0.25));
#530=CARTESIAN_POINT('',(-0.15625,-0.52,0.25));
#531=CARTESIAN_POINT('Origin',(-0.25,-0.52,0.25));
#532=CARTESIAN_POINT('Origin',(-0.25,-1.02,0.));
#533=CARTESIAN_POINT('',(-0.15625,-1.02,-0.25));
#534=CARTESIAN_POINT('Origin',(-0.25,-1.02,-0.25));
#535=CARTESIAN_POINT('',(-0.15625,-1.02,0.25));
#536=CARTESIAN_POINT('Origin',(-0.25,-1.02,0.25));
#537=CARTESIAN_POINT('Origin',(0.,0.,-0.25));
#538=CARTESIAN_POINT('',(-0.5,1.29,-0.25));
#539=CARTESIAN_POINT('',(-0.5,1.29,-0.25));
#540=CARTESIAN_POINT('',(-0.5,-1.29,-0.25));
#541=CARTESIAN_POINT('Origin',(-0.5,1.29,0.));
#542=CARTESIAN_POINT('',(-0.5,1.29,0.25));
#543=CARTESIAN_POINT('',(-0.5,-1.29,0.25));
#544=CARTESIAN_POINT('',(-0.5,1.29,0.));
#545=CARTESIAN_POINT('Origin',(0.5,1.29,0.));
#546=CARTESIAN_POINT('',(-0.5,1.29,0.25));
#547=CARTESIAN_POINT('Origin',(0.,0.,0.25));
#548=UNCERTAINTY_MEASURE_WITH_UNIT(LENGTH_MEASURE(0.000393700787401575),
#552,'DISTANCE_ACCURACY_VALUE',
'Maximum model space distance between geometric entities at asserted c
onnectivities');
#549=UNCERTAINTY_MEASURE_WITH_UNIT(LENGTH_MEASURE(1.E-6),#553,
'DISTANCE_ACCURACY_VALUE',
'Maximum model space distance between geometric entities at asserted c
onnectivities');
#550=(
GEOMETRIC_REPRESENTATION_CONTEXT(3)
GLOBAL_UNCERTAINTY_ASSIGNED_CONTEXT((#548))
GLOBAL_UNIT_ASSIGNED_CONTEXT((#552,#558,#555))
REPRESENTATION_CONTEXT('','3D')
);
#551=(
GEOMETRIC_REPRESENTATION_CONTEXT(3)
GLOBAL_UNCERTAINTY_ASSIGNED_CONTEXT((#549))
GLOBAL_UNIT_ASSIGNED_CONTEXT((#553,#558,#555))
REPRESENTATION_CONTEXT('','3D')
);
#552=(
CONVERSION_BASED_UNIT('__CONSTANT UNIT inch',#554)
LENGTH_UNIT()
NAMED_UNIT(#557)
);
#553=(
LENGTH_UNIT()
NAMED_UNIT(*)
SI_UNIT(.MILLI.,.METRE.)
);
#554=LENGTH_MEASURE_WITH_UNIT(LENGTH_MEASURE(25.4),#553);
#555=(
NAMED_UNIT(*)
SI_UNIT($,.STERADIAN.)
SOLID_ANGLE_UNIT()
);
#556=DIMENSIONAL_EXPONENTS(0.,0.,0.,0.,0.,0.,0.);
#557=DIMENSIONAL_EXPONENTS(1.,0.,0.,0.,0.,0.,0.);
#558=(
CONVERSION_BASED_UNIT('degree',#560)
NAMED_UNIT(#556)
PLANE_ANGLE_UNIT()
);
#559=(
NAMED_UNIT(*)
PLANE_ANGLE_UNIT()
SI_UNIT($,.RADIAN.)
);
#560=PLANE_ANGLE_MEASURE_WITH_UNIT(PLANE_ANGLE_MEASURE(0.01745329252),#559);
#561=SHAPE_DEFINITION_REPRESENTATION(#562,#563);
#562=PRODUCT_DEFINITION_SHAPE('',$,#565);
#563=SHAPE_REPRESENTATION('',(#342),#550);
#564=PRODUCT_DEFINITION_CONTEXT('part definition',#569,'design');
#565=PRODUCT_DEFINITION('Poste','Poste',#566,#564);
#566=PRODUCT_DEFINITION_FORMATION('',$,#571);
#567=PRODUCT_RELATED_PRODUCT_CATEGORY('Poste','Poste',(#571));
#568=APPLICATION_PROTOCOL_DEFINITION('international standard',
'automotive_design',2009,#569);
#569=APPLICATION_CONTEXT(
'Core Data for Automotive Mechanical Design Process');
#570=PRODUCT_CONTEXT('part definition',#569,'mechanical');
#571=PRODUCT('Poste','Poste',$,(#570));
#572=PRESENTATION_STYLE_ASSIGNMENT((#573));
#573=SURFACE_STYLE_USAGE(.BOTH.,#574);
#574=SURFACE_SIDE_STYLE('',(#575));
#575=SURFACE_STYLE_FILL_AREA(#576);
#576=FILL_AREA_STYLE('',(#577));
#577=FILL_AREA_STYLE_COLOUR('',#578);
#578=COLOUR_RGB('',0.898039215686275,0.898039215686275,0.898039215686275);
ENDSEC;
END-ISO-10303-21;
